[
  {
    "epoch": 0,
    "D loss": 1.204083800315857,
    "D acc": 0.5,
    "g loss": 2.2998597621917725
  },
  {
    "epoch": 1,
    "D loss": 1.2028614282608032,
    "D acc": 0.5,
    "g loss": 2.297288656234741
  },
  {
    "epoch": 2,
    "D loss": 1.2017252445220947,
    "D acc": 0.5,
    "g loss": 2.2945773601531982
  },
  {
    "epoch": 3,
    "D loss": 1.200525164604187,
    "D acc": 0.5,
    "g loss": 2.291788339614868
  },
  {
    "epoch": 4,
    "D loss": 1.199289321899414,
    "D acc": 0.5,
    "g loss": 2.2889623641967773
  },
  {
    "epoch": 5,
    "D loss": 1.198036789894104,
    "D acc": 0.5,
    "g loss": 2.286118745803833
  },
  {
    "epoch": 6,
    "D loss": 1.1967763900756836,
    "D acc": 0.5,
    "g loss": 2.2832679748535156
  },
  {
    "epoch": 7,
    "D loss": 1.195513129234314,
    "D acc": 0.5,
    "g loss": 2.2804160118103027
  },
  {
    "epoch": 8,
    "D loss": 1.1942497491836548,
    "D acc": 0.5,
    "g loss": 2.2775659561157227
  },
  {
    "epoch": 9,
    "D loss": 1.1929875612258911,
    "D acc": 0.5,
    "g loss": 2.2747206687927246
  },
  {
    "epoch": 10,
    "D loss": 1.191727876663208,
    "D acc": 0.5,
    "g loss": 2.2718818187713623
  },
  {
    "epoch": 11,
    "D loss": 1.1904715299606323,
    "D acc": 0.5,
    "g loss": 2.2690505981445312
  },
  {
    "epoch": 12,
    "D loss": 1.1892189979553223,
    "D acc": 0.5,
    "g loss": 2.266227960586548
  },
  {
    "epoch": 13,
    "D loss": 1.187970757484436,
    "D acc": 0.5,
    "g loss": 2.2634146213531494
  },
  {
    "epoch": 14,
    "D loss": 1.1867270469665527,
    "D acc": 0.5,
    "g loss": 2.2606112957000732
  },
  {
    "epoch": 15,
    "D loss": 1.1854883432388306,
    "D acc": 0.5,
    "g loss": 2.2578179836273193
  },
  {
    "epoch": 16,
    "D loss": 1.18425452709198,
    "D acc": 0.5,
    "g loss": 2.255035400390625
  },
  {
    "epoch": 17,
    "D loss": 1.1830259561538696,
    "D acc": 0.5,
    "g loss": 2.2522635459899902
  },
  {
    "epoch": 18,
    "D loss": 1.18180251121521,
    "D acc": 0.5,
    "g loss": 2.249502658843994
  },
  {
    "epoch": 19,
    "D loss": 1.1805845499038696,
    "D acc": 0.5,
    "g loss": 2.246752977371216
  },
  {
    "epoch": 20,
    "D loss": 1.179371953010559,
    "D acc": 0.5,
    "g loss": 2.2440145015716553
  },
  {
    "epoch": 21,
    "D loss": 1.1781647205352783,
    "D acc": 0.5,
    "g loss": 2.2412872314453125
  },
  {
    "epoch": 22,
    "D loss": 1.176962971687317,
    "D acc": 0.5,
    "g loss": 2.2385716438293457
  },
  {
    "epoch": 23,
    "D loss": 1.175766944885254,
    "D acc": 0.5,
    "g loss": 2.2358670234680176
  },
  {
    "epoch": 24,
    "D loss": 1.1745760440826416,
    "D acc": 0.5,
    "g loss": 2.2331740856170654
  },
  {
    "epoch": 25,
    "D loss": 1.1733909845352173,
    "D acc": 0.5,
    "g loss": 2.23049259185791
  },
  {
    "epoch": 26,
    "D loss": 1.1722112894058228,
    "D acc": 0.5,
    "g loss": 2.2278223037719727
  },
  {
    "epoch": 27,
    "D loss": 1.1710370779037476,
    "D acc": 0.5,
    "g loss": 2.225163459777832
  },
  {
    "epoch": 28,
    "D loss": 1.1698683500289917,
    "D acc": 0.5,
    "g loss": 2.2225160598754883
  },
  {
    "epoch": 29,
    "D loss": 1.1687051057815552,
    "D acc": 0.5,
    "g loss": 2.219879627227783
  },
  {
    "epoch": 30,
    "D loss": 1.1675471067428589,
    "D acc": 0.5,
    "g loss": 2.217254877090454
  },
  {
    "epoch": 31,
    "D loss": 1.166394829750061,
    "D acc": 0.5,
    "g loss": 2.2146410942077637
  },
  {
    "epoch": 32,
    "D loss": 1.1652477979660034,
    "D acc": 0.5,
    "g loss": 2.212038516998291
  },
  {
    "epoch": 33,
    "D loss": 1.1641061305999756,
    "D acc": 0.5,
    "g loss": 2.209446907043457
  },
  {
    "epoch": 34,
    "D loss": 1.162969708442688,
    "D acc": 0.5,
    "g loss": 2.206866502761841
  },
  {
    "epoch": 35,
    "D loss": 1.1618386507034302,
    "D acc": 0.5,
    "g loss": 2.2042970657348633
  },
  {
    "epoch": 36,
    "D loss": 1.1607128381729126,
    "D acc": 0.5,
    "g loss": 2.2017385959625244
  },
  {
    "epoch": 37,
    "D loss": 1.1595923900604248,
    "D acc": 0.5,
    "g loss": 2.199190855026245
  },
  {
    "epoch": 38,
    "D loss": 1.1584770679473877,
    "D acc": 0.5,
    "g loss": 2.1966538429260254
  },
  {
    "epoch": 39,
    "D loss": 1.1573668718338013,
    "D acc": 0.5,
    "g loss": 2.1941275596618652
  },
  {
    "epoch": 40,
    "D loss": 1.1562618017196655,
    "D acc": 0.5,
    "g loss": 2.1916120052337646
  },
  {
    "epoch": 41,
    "D loss": 1.1551618576049805,
    "D acc": 0.5,
    "g loss": 2.1891071796417236
  },
  {
    "epoch": 42,
    "D loss": 1.1540671586990356,
    "D acc": 0.5,
    "g loss": 2.186612606048584
  },
  {
    "epoch": 43,
    "D loss": 1.1529772281646729,
    "D acc": 0.5,
    "g loss": 2.184128761291504
  },
  {
    "epoch": 44,
    "D loss": 1.1518925428390503,
    "D acc": 0.5,
    "g loss": 2.181654930114746
  },
  {
    "epoch": 45,
    "D loss": 1.1508126258850098,
    "D acc": 0.5,
    "g loss": 2.1791915893554688
  },
  {
    "epoch": 46,
    "D loss": 1.1497377157211304,
    "D acc": 0.5,
    "g loss": 2.1767385005950928
  },
  {
    "epoch": 47,
    "D loss": 1.1486676931381226,
    "D acc": 0.5,
    "g loss": 2.174295425415039
  },
  {
    "epoch": 48,
    "D loss": 1.1476025581359863,
    "D acc": 0.5,
    "g loss": 2.1718626022338867
  },
  {
    "epoch": 49,
    "D loss": 1.1465421915054321,
    "D acc": 0.5,
    "g loss": 2.1694397926330566
  },
  {
    "epoch": 50,
    "D loss": 1.1454867124557495,
    "D acc": 0.5,
    "g loss": 2.167026996612549
  },
  {
    "epoch": 51,
    "D loss": 1.144436001777649,
    "D acc": 0.5,
    "g loss": 2.164623975753784
  },
  {
    "epoch": 52,
    "D loss": 1.1433899402618408,
    "D acc": 0.5,
    "g loss": 2.1622307300567627
  },
  {
    "epoch": 53,
    "D loss": 1.1423486471176147,
    "D acc": 0.5,
    "g loss": 2.1598472595214844
  },
  {
    "epoch": 54,
    "D loss": 1.1413118839263916,
    "D acc": 0.5,
    "g loss": 2.15747332572937
  },
  {
    "epoch": 55,
    "D loss": 1.140279769897461,
    "D acc": 0.5,
    "g loss": 2.155109167098999
  },
  {
    "epoch": 56,
    "D loss": 1.1392523050308228,
    "D acc": 0.5,
    "g loss": 2.152754306793213
  },
  {
    "epoch": 57,
    "D loss": 1.1382293701171875,
    "D acc": 0.5,
    "g loss": 2.15040922164917
  },
  {
    "epoch": 58,
    "D loss": 1.1372109651565552,
    "D acc": 0.5,
    "g loss": 2.148073196411133
  },
  {
    "epoch": 59,
    "D loss": 1.1361969709396362,
    "D acc": 0.5,
    "g loss": 2.1457467079162598
  },
  {
    "epoch": 60,
    "D loss": 1.1351875066757202,
    "D acc": 0.5,
    "g loss": 2.1434292793273926
  },
  {
    "epoch": 61,
    "D loss": 1.134182333946228,
    "D acc": 0.5,
    "g loss": 2.1411211490631104
  },
  {
    "epoch": 62,
    "D loss": 1.1331816911697388,
    "D acc": 0.5,
    "g loss": 2.138822317123413
  },
  {
    "epoch": 63,
    "D loss": 1.132185459136963,
    "D acc": 0.5,
    "g loss": 2.1365323066711426
  },
  {
    "epoch": 64,
    "D loss": 1.1311933994293213,
    "D acc": 0.5,
    "g loss": 2.134251356124878
  },
  {
    "epoch": 65,
    "D loss": 1.1302056312561035,
    "D acc": 0.5,
    "g loss": 2.13197922706604
  },
  {
    "epoch": 66,
    "D loss": 1.1292221546173096,
    "D acc": 0.5,
    "g loss": 2.129715919494629
  },
  {
    "epoch": 67,
    "D loss": 1.12824285030365,
    "D acc": 0.5,
    "g loss": 2.1274616718292236
  },
  {
    "epoch": 68,
    "D loss": 1.127267837524414,
    "D acc": 0.5,
    "g loss": 2.125216007232666
  },
  {
    "epoch": 69,
    "D loss": 1.1262969970703125,
    "D acc": 0.5,
    "g loss": 2.122978925704956
  },
  {
    "epoch": 70,
    "D loss": 1.1253302097320557,
    "D acc": 0.5,
    "g loss": 2.1207504272460938
  },
  {
    "epoch": 71,
    "D loss": 1.1243674755096436,
    "D acc": 0.5,
    "g loss": 2.118530511856079
  },
  {
    "epoch": 72,
    "D loss": 1.1234087944030762,
    "D acc": 0.5,
    "g loss": 2.116319179534912
  },
  {
    "epoch": 73,
    "D loss": 1.122454285621643,
    "D acc": 0.5,
    "g loss": 2.1141161918640137
  },
  {
    "epoch": 74,
    "D loss": 1.1215038299560547,
    "D acc": 0.5,
    "g loss": 2.111921548843384
  },
  {
    "epoch": 75,
    "D loss": 1.120557188987732,
    "D acc": 0.5,
    "g loss": 2.1097350120544434
  },
  {
    "epoch": 76,
    "D loss": 1.117591142654419,
    "D acc": 0.5,
    "g loss": 2.5237202644348145
  },
  {
    "epoch": 77,
    "D loss": 1.1186736822128296,
    "D acc": 0.5,
    "g loss": 2.105377674102783
  },
  {
    "epoch": 78,
    "D loss": 1.117737054824829,
    "D acc": 0.5,
    "g loss": 2.103214740753174
  },
  {
    "epoch": 79,
    "D loss": 1.1168056726455688,
    "D acc": 0.5,
    "g loss": 2.1010608673095703
  },
  {
    "epoch": 80,
    "D loss": 1.1158784627914429,
    "D acc": 0.5,
    "g loss": 2.0989151000976562
  },
  {
    "epoch": 81,
    "D loss": 1.114955186843872,
    "D acc": 0.5,
    "g loss": 2.0967774391174316
  },
  {
    "epoch": 82,
    "D loss": 1.1140358448028564,
    "D acc": 0.5,
    "g loss": 2.0946474075317383
  },
  {
    "epoch": 83,
    "D loss": 1.1131199598312378,
    "D acc": 0.5,
    "g loss": 2.0925254821777344
  },
  {
    "epoch": 84,
    "D loss": 1.1122080087661743,
    "D acc": 0.5,
    "g loss": 2.0904111862182617
  },
  {
    "epoch": 85,
    "D loss": 1.111299753189087,
    "D acc": 0.5,
    "g loss": 2.0883047580718994
  },
  {
    "epoch": 86,
    "D loss": 1.1103951930999756,
    "D acc": 0.5,
    "g loss": 2.0862059593200684
  },
  {
    "epoch": 87,
    "D loss": 1.1094942092895508,
    "D acc": 0.5,
    "g loss": 2.0841147899627686
  },
  {
    "epoch": 88,
    "D loss": 1.1085970401763916,
    "D acc": 0.5,
    "g loss": 2.08203125
  },
  {
    "epoch": 89,
    "D loss": 1.1077033281326294,
    "D acc": 0.5,
    "g loss": 2.0799551010131836
  },
  {
    "epoch": 90,
    "D loss": 1.1068131923675537,
    "D acc": 0.5,
    "g loss": 2.0778865814208984
  },
  {
    "epoch": 91,
    "D loss": 1.1059266328811646,
    "D acc": 0.5,
    "g loss": 2.0758252143859863
  },
  {
    "epoch": 92,
    "D loss": 1.1050435304641724,
    "D acc": 0.5,
    "g loss": 2.0737714767456055
  },
  {
    "epoch": 93,
    "D loss": 1.1041640043258667,
    "D acc": 0.5,
    "g loss": 2.0717248916625977
  },
  {
    "epoch": 94,
    "D loss": 1.103287935256958,
    "D acc": 0.5,
    "g loss": 2.069685697555542
  },
  {
    "epoch": 95,
    "D loss": 1.1024153232574463,
    "D acc": 0.5,
    "g loss": 2.0676536560058594
  },
  {
    "epoch": 96,
    "D loss": 1.1015461683273315,
    "D acc": 0.5,
    "g loss": 2.0656285285949707
  },
  {
    "epoch": 97,
    "D loss": 1.1006802320480347,
    "D acc": 0.5,
    "g loss": 2.063610792160034
  },
  {
    "epoch": 98,
    "D loss": 1.0998178720474243,
    "D acc": 0.5,
    "g loss": 2.0616002082824707
  },
  {
    "epoch": 99,
    "D loss": 1.0989588499069214,
    "D acc": 0.5,
    "g loss": 2.059596538543701
  },
  {
    "epoch": 100,
    "D loss": 1.0981031656265259,
    "D acc": 0.5,
    "g loss": 2.0575997829437256
  },
  {
    "epoch": 101,
    "D loss": 1.0972508192062378,
    "D acc": 0.5,
    "g loss": 2.055610179901123
  },
  {
    "epoch": 102,
    "D loss": 1.0964016914367676,
    "D acc": 0.5,
    "g loss": 2.0536274909973145
  },
  {
    "epoch": 103,
    "D loss": 1.0955560207366943,
    "D acc": 0.5,
    "g loss": 2.0516514778137207
  },
  {
    "epoch": 104,
    "D loss": 1.0947134494781494,
    "D acc": 0.5,
    "g loss": 2.049682140350342
  },
  {
    "epoch": 105,
    "D loss": 1.0938740968704224,
    "D acc": 0.5,
    "g loss": 2.047719717025757
  },
  {
    "epoch": 106,
    "D loss": 1.0930379629135132,
    "D acc": 0.5,
    "g loss": 2.0457639694213867
  },
  {
    "epoch": 107,
    "D loss": 1.0922049283981323,
    "D acc": 0.5,
    "g loss": 2.0438148975372314
  },
  {
    "epoch": 108,
    "D loss": 1.0913752317428589,
    "D acc": 0.5,
    "g loss": 2.041872501373291
  },
  {
    "epoch": 109,
    "D loss": 1.0905486345291138,
    "D acc": 0.5,
    "g loss": 2.0399365425109863
  },
  {
    "epoch": 110,
    "D loss": 1.0897250175476074,
    "D acc": 0.5,
    "g loss": 2.0380070209503174
  },
  {
    "epoch": 111,
    "D loss": 1.0889045000076294,
    "D acc": 0.5,
    "g loss": 2.0360841751098633
  },
  {
    "epoch": 112,
    "D loss": 1.0880872011184692,
    "D acc": 0.5,
    "g loss": 2.034167766571045
  },
  {
    "epoch": 113,
    "D loss": 1.0872730016708374,
    "D acc": 0.5,
    "g loss": 2.032257556915283
  },
  {
    "epoch": 114,
    "D loss": 1.0864616632461548,
    "D acc": 0.5,
    "g loss": 2.0303537845611572
  },
  {
    "epoch": 115,
    "D loss": 1.085653305053711,
    "D acc": 0.5,
    "g loss": 2.028456687927246
  },
  {
    "epoch": 116,
    "D loss": 1.084848165512085,
    "D acc": 0.5,
    "g loss": 2.0265655517578125
  },
  {
    "epoch": 117,
    "D loss": 1.0840458869934082,
    "D acc": 0.5,
    "g loss": 2.0246808528900146
  },
  {
    "epoch": 118,
    "D loss": 1.0832467079162598,
    "D acc": 0.5,
    "g loss": 2.0228023529052734
  },
  {
    "epoch": 119,
    "D loss": 1.0824503898620605,
    "D acc": 0.5,
    "g loss": 2.0209298133850098
  },
  {
    "epoch": 120,
    "D loss": 1.0816569328308105,
    "D acc": 0.5,
    "g loss": 2.0190634727478027
  },
  {
    "epoch": 121,
    "D loss": 1.0808663368225098,
    "D acc": 0.5,
    "g loss": 2.0172033309936523
  },
  {
    "epoch": 122,
    "D loss": 1.0800787210464478,
    "D acc": 0.5,
    "g loss": 2.0153491497039795
  },
  {
    "epoch": 123,
    "D loss": 1.079293966293335,
    "D acc": 0.5,
    "g loss": 2.013500928878784
  },
  {
    "epoch": 124,
    "D loss": 1.0785119533538818,
    "D acc": 0.5,
    "g loss": 2.0116586685180664
  },
  {
    "epoch": 125,
    "D loss": 1.077732801437378,
    "D acc": 0.5,
    "g loss": 2.009822368621826
  },
  {
    "epoch": 126,
    "D loss": 1.0769565105438232,
    "D acc": 0.5,
    "g loss": 2.0079922676086426
  },
  {
    "epoch": 127,
    "D loss": 1.0761831998825073,
    "D acc": 0.5,
    "g loss": 2.0061676502227783
  },
  {
    "epoch": 128,
    "D loss": 1.075412392616272,
    "D acc": 0.5,
    "g loss": 2.0043489933013916
  },
  {
    "epoch": 129,
    "D loss": 1.0746444463729858,
    "D acc": 0.5,
    "g loss": 2.0025360584259033
  },
  {
    "epoch": 130,
    "D loss": 1.0738792419433594,
    "D acc": 0.5,
    "g loss": 2.0007288455963135
  },
  {
    "epoch": 131,
    "D loss": 1.073116660118103,
    "D acc": 0.5,
    "g loss": 1.9989274740219116
  },
  {
    "epoch": 132,
    "D loss": 1.072356939315796,
    "D acc": 0.5,
    "g loss": 1.9971318244934082
  },
  {
    "epoch": 133,
    "D loss": 1.0715998411178589,
    "D acc": 0.5,
    "g loss": 1.9953416585922241
  },
  {
    "epoch": 134,
    "D loss": 1.070845365524292,
    "D acc": 0.5,
    "g loss": 1.9935572147369385
  },
  {
    "epoch": 135,
    "D loss": 1.0700936317443848,
    "D acc": 0.5,
    "g loss": 1.9917781352996826
  },
  {
    "epoch": 136,
    "D loss": 1.069344401359558,
    "D acc": 0.5,
    "g loss": 1.9900048971176147
  },
  {
    "epoch": 137,
    "D loss": 1.0685979127883911,
    "D acc": 0.5,
    "g loss": 1.9882370233535767
  },
  {
    "epoch": 138,
    "D loss": 1.0678540468215942,
    "D acc": 0.5,
    "g loss": 1.9864747524261475
  },
  {
    "epoch": 139,
    "D loss": 1.0671128034591675,
    "D acc": 0.5,
    "g loss": 1.984717845916748
  },
  {
    "epoch": 140,
    "D loss": 1.0663740634918213,
    "D acc": 0.5,
    "g loss": 1.9829663038253784
  },
  {
    "epoch": 141,
    "D loss": 1.0656378269195557,
    "D acc": 0.5,
    "g loss": 1.9812201261520386
  },
  {
    "epoch": 142,
    "D loss": 1.0649042129516602,
    "D acc": 0.5,
    "g loss": 1.9794793128967285
  },
  {
    "epoch": 143,
    "D loss": 1.0641729831695557,
    "D acc": 0.5,
    "g loss": 1.9777438640594482
  },
  {
    "epoch": 144,
    "D loss": 1.0634444952011108,
    "D acc": 0.5,
    "g loss": 1.9760136604309082
  },
  {
    "epoch": 145,
    "D loss": 1.062718391418457,
    "D acc": 0.5,
    "g loss": 1.974288821220398
  },
  {
    "epoch": 146,
    "D loss": 1.0619947910308838,
    "D acc": 0.5,
    "g loss": 1.9725691080093384
  },
  {
    "epoch": 147,
    "D loss": 1.0612735748291016,
    "D acc": 0.5,
    "g loss": 1.970854640007019
  },
  {
    "epoch": 148,
    "D loss": 1.0605549812316895,
    "D acc": 0.5,
    "g loss": 1.9691452980041504
  },
  {
    "epoch": 149,
    "D loss": 1.0598386526107788,
    "D acc": 0.5,
    "g loss": 1.967441201210022
  },
  {
    "epoch": 150,
    "D loss": 1.0591249465942383,
    "D acc": 0.5,
    "g loss": 1.9657421112060547
  },
  {
    "epoch": 151,
    "D loss": 1.0584135055541992,
    "D acc": 0.5,
    "g loss": 1.964048147201538
  },
  {
    "epoch": 152,
    "D loss": 1.0577045679092407,
    "D acc": 0.5,
    "g loss": 1.9623591899871826
  },
  {
    "epoch": 153,
    "D loss": 1.0569978952407837,
    "D acc": 0.5,
    "g loss": 1.9606752395629883
  },
  {
    "epoch": 154,
    "D loss": 1.0562936067581177,
    "D acc": 0.5,
    "g loss": 1.958996295928955
  },
  {
    "epoch": 155,
    "D loss": 1.0555918216705322,
    "D acc": 0.5,
    "g loss": 1.957322359085083
  },
  {
    "epoch": 156,
    "D loss": 1.0548921823501587,
    "D acc": 0.5,
    "g loss": 1.9556533098220825
  },
  {
    "epoch": 157,
    "D loss": 1.0541950464248657,
    "D acc": 0.5,
    "g loss": 1.9539891481399536
  },
  {
    "epoch": 158,
    "D loss": 1.0535000562667847,
    "D acc": 0.5,
    "g loss": 1.9523299932479858
  },
  {
    "epoch": 159,
    "D loss": 1.0528075695037842,
    "D acc": 0.5,
    "g loss": 1.9506754875183105
  },
  {
    "epoch": 160,
    "D loss": 1.052117109298706,
    "D acc": 0.5,
    "g loss": 1.9490258693695068
  },
  {
    "epoch": 161,
    "D loss": 1.0514291524887085,
    "D acc": 0.5,
    "g loss": 1.9473811388015747
  },
  {
    "epoch": 162,
    "D loss": 1.0507434606552124,
    "D acc": 0.5,
    "g loss": 1.9457411766052246
  },
  {
    "epoch": 163,
    "D loss": 1.0500599145889282,
    "D acc": 0.5,
    "g loss": 1.944105863571167
  },
  {
    "epoch": 164,
    "D loss": 1.0493786334991455,
    "D acc": 0.5,
    "g loss": 1.9424753189086914
  },
  {
    "epoch": 165,
    "D loss": 1.0486994981765747,
    "D acc": 0.5,
    "g loss": 1.9408495426177979
  },
  {
    "epoch": 166,
    "D loss": 1.048022747039795,
    "D acc": 0.5,
    "g loss": 1.9392282962799072
  },
  {
    "epoch": 167,
    "D loss": 1.0473480224609375,
    "D acc": 0.5,
    "g loss": 1.937611699104309
  },
  {
    "epoch": 168,
    "D loss": 1.0466755628585815,
    "D acc": 0.5,
    "g loss": 1.9359996318817139
  },
  {
    "epoch": 169,
    "D loss": 1.0460052490234375,
    "D acc": 0.5,
    "g loss": 1.9343922138214111
  },
  {
    "epoch": 170,
    "D loss": 1.0453370809555054,
    "D acc": 0.5,
    "g loss": 1.9327893257141113
  },
  {
    "epoch": 171,
    "D loss": 1.0446710586547852,
    "D acc": 0.5,
    "g loss": 1.931191086769104
  },
  {
    "epoch": 172,
    "D loss": 1.0440073013305664,
    "D acc": 0.5,
    "g loss": 1.9295971393585205
  },
  {
    "epoch": 173,
    "D loss": 1.0433454513549805,
    "D acc": 0.5,
    "g loss": 1.928007960319519
  },
  {
    "epoch": 174,
    "D loss": 1.042685866355896,
    "D acc": 0.5,
    "g loss": 1.9264230728149414
  },
  {
    "epoch": 175,
    "D loss": 1.0420284271240234,
    "D acc": 0.5,
    "g loss": 1.9248427152633667
  },
  {
    "epoch": 176,
    "D loss": 1.0413730144500732,
    "D acc": 0.5,
    "g loss": 1.9232667684555054
  },
  {
    "epoch": 177,
    "D loss": 1.0407196283340454,
    "D acc": 0.5,
    "g loss": 1.9216949939727783
  },
  {
    "epoch": 178,
    "D loss": 1.0400683879852295,
    "D acc": 0.5,
    "g loss": 1.9201278686523438
  },
  {
    "epoch": 179,
    "D loss": 1.039419174194336,
    "D acc": 0.5,
    "g loss": 1.9185649156570435
  },
  {
    "epoch": 180,
    "D loss": 1.0387719869613647,
    "D acc": 0.5,
    "g loss": 1.917006254196167
  },
  {
    "epoch": 181,
    "D loss": 1.038126826286316,
    "D acc": 0.5,
    "g loss": 1.915452003479004
  },
  {
    "epoch": 182,
    "D loss": 1.0374836921691895,
    "D acc": 0.5,
    "g loss": 1.9139020442962646
  },
  {
    "epoch": 183,
    "D loss": 1.0368425846099854,
    "D acc": 0.5,
    "g loss": 1.9123562574386597
  },
  {
    "epoch": 184,
    "D loss": 1.0362035036087036,
    "D acc": 0.5,
    "g loss": 1.910814642906189
  },
  {
    "epoch": 185,
    "D loss": 1.0355663299560547,
    "D acc": 0.5,
    "g loss": 1.909277319908142
  },
  {
    "epoch": 186,
    "D loss": 1.0349311828613281,
    "D acc": 0.5,
    "g loss": 1.90774405002594
  },
  {
    "epoch": 187,
    "D loss": 1.034298062324524,
    "D acc": 0.5,
    "g loss": 1.9062150716781616
  },
  {
    "epoch": 188,
    "D loss": 1.0336668491363525,
    "D acc": 0.5,
    "g loss": 1.904690146446228
  },
  {
    "epoch": 189,
    "D loss": 1.033037543296814,
    "D acc": 0.5,
    "g loss": 1.9031693935394287
  },
  {
    "epoch": 190,
    "D loss": 1.0324101448059082,
    "D acc": 0.5,
    "g loss": 1.9016528129577637
  },
  {
    "epoch": 191,
    "D loss": 1.0317847728729248,
    "D acc": 0.5,
    "g loss": 1.9001401662826538
  },
  {
    "epoch": 192,
    "D loss": 1.0311613082885742,
    "D acc": 0.5,
    "g loss": 1.8986316919326782
  },
  {
    "epoch": 193,
    "D loss": 1.0305397510528564,
    "D acc": 0.5,
    "g loss": 1.8971271514892578
  },
  {
    "epoch": 194,
    "D loss": 1.0299201011657715,
    "D acc": 0.5,
    "g loss": 1.8956267833709717
  },
  {
    "epoch": 195,
    "D loss": 1.0293023586273193,
    "D acc": 0.5,
    "g loss": 1.8941302299499512
  },
  {
    "epoch": 196,
    "D loss": 1.0286864042282104,
    "D acc": 0.5,
    "g loss": 1.8926376104354858
  },
  {
    "epoch": 197,
    "D loss": 1.0280722379684448,
    "D acc": 0.5,
    "g loss": 1.8911489248275757
  },
  {
    "epoch": 198,
    "D loss": 1.027459979057312,
    "D acc": 0.5,
    "g loss": 1.8896642923355103
  },
  {
    "epoch": 199,
    "D loss": 1.026849627494812,
    "D acc": 0.5,
    "g loss": 1.88818359375
  },
  {
    "epoch": 200,
    "D loss": 1.0262411832809448,
    "D acc": 0.5,
    "g loss": 1.8867067098617554
  },
  {
    "epoch": 201,
    "D loss": 1.025634527206421,
    "D acc": 0.5,
    "g loss": 1.8852336406707764
  },
  {
    "epoch": 202,
    "D loss": 1.0250295400619507,
    "D acc": 0.5,
    "g loss": 1.8837645053863525
  },
  {
    "epoch": 203,
    "D loss": 1.0244264602661133,
    "D acc": 0.5,
    "g loss": 1.8822991847991943
  },
  {
    "epoch": 204,
    "D loss": 1.0238251686096191,
    "D acc": 0.5,
    "g loss": 1.8808375597000122
  },
  {
    "epoch": 205,
    "D loss": 1.0232256650924683,
    "D acc": 0.5,
    "g loss": 1.8793799877166748
  },
  {
    "epoch": 206,
    "D loss": 1.0226280689239502,
    "D acc": 0.5,
    "g loss": 1.877925992012024
  },
  {
    "epoch": 207,
    "D loss": 1.0220321416854858,
    "D acc": 0.5,
    "g loss": 1.8764758110046387
  },
  {
    "epoch": 208,
    "D loss": 1.0214380025863647,
    "D acc": 0.5,
    "g loss": 1.8750293254852295
  },
  {
    "epoch": 209,
    "D loss": 1.0208455324172974,
    "D acc": 0.5,
    "g loss": 1.8735865354537964
  },
  {
    "epoch": 210,
    "D loss": 1.0202548503875732,
    "D acc": 0.5,
    "g loss": 1.8721474409103394
  },
  {
    "epoch": 211,
    "D loss": 1.0196659564971924,
    "D acc": 0.5,
    "g loss": 1.8707120418548584
  },
  {
    "epoch": 212,
    "D loss": 1.0190787315368652,
    "D acc": 0.5,
    "g loss": 1.869280219078064
  },
  {
    "epoch": 213,
    "D loss": 1.0184931755065918,
    "D acc": 0.5,
    "g loss": 1.8678522109985352
  },
  {
    "epoch": 214,
    "D loss": 1.0179094076156616,
    "D acc": 0.5,
    "g loss": 1.8664276599884033
  },
  {
    "epoch": 215,
    "D loss": 1.0173273086547852,
    "D acc": 0.5,
    "g loss": 1.8650068044662476
  },
  {
    "epoch": 216,
    "D loss": 1.0167468786239624,
    "D acc": 0.5,
    "g loss": 1.8635895252227783
  },
  {
    "epoch": 217,
    "D loss": 1.016168236732483,
    "D acc": 0.5,
    "g loss": 1.8621758222579956
  },
  {
    "epoch": 218,
    "D loss": 1.0155911445617676,
    "D acc": 0.5,
    "g loss": 1.8607656955718994
  },
  {
    "epoch": 219,
    "D loss": 1.0150158405303955,
    "D acc": 0.5,
    "g loss": 1.8593591451644897
  },
  {
    "epoch": 220,
    "D loss": 1.0144420862197876,
    "D acc": 0.5,
    "g loss": 1.8579559326171875
  },
  {
    "epoch": 221,
    "D loss": 1.0138700008392334,
    "D acc": 0.5,
    "g loss": 1.8565564155578613
  },
  {
    "epoch": 222,
    "D loss": 1.0132997035980225,
    "D acc": 0.5,
    "g loss": 1.8551604747772217
  },
  {
    "epoch": 223,
    "D loss": 1.0127309560775757,
    "D acc": 0.5,
    "g loss": 1.8537678718566895
  },
  {
    "epoch": 224,
    "D loss": 1.0121638774871826,
    "D acc": 0.5,
    "g loss": 1.8523787260055542
  },
  {
    "epoch": 225,
    "D loss": 1.0115983486175537,
    "D acc": 0.5,
    "g loss": 1.8509929180145264
  },
  {
    "epoch": 226,
    "D loss": 1.011034369468689,
    "D acc": 0.5,
    "g loss": 1.849610686302185
  },
  {
    "epoch": 227,
    "D loss": 1.010472059249878,
    "D acc": 0.5,
    "g loss": 1.8482317924499512
  },
  {
    "epoch": 228,
    "D loss": 1.0099114179611206,
    "D acc": 0.5,
    "g loss": 1.8468563556671143
  },
  {
    "epoch": 229,
    "D loss": 1.0093523263931274,
    "D acc": 0.5,
    "g loss": 1.8454842567443848
  },
  {
    "epoch": 230,
    "D loss": 1.0087947845458984,
    "D acc": 0.5,
    "g loss": 1.8441154956817627
  },
  {
    "epoch": 231,
    "D loss": 1.0082387924194336,
    "D acc": 0.5,
    "g loss": 1.842750072479248
  },
  {
    "epoch": 232,
    "D loss": 1.007684350013733,
    "D acc": 0.5,
    "g loss": 1.8413878679275513
  },
  {
    "epoch": 233,
    "D loss": 1.0071314573287964,
    "D acc": 0.5,
    "g loss": 1.840029239654541
  },
  {
    "epoch": 234,
    "D loss": 1.0065803527832031,
    "D acc": 0.5,
    "g loss": 1.838673710823059
  },
  {
    "epoch": 235,
    "D loss": 1.006030559539795,
    "D acc": 0.5,
    "g loss": 1.8373215198516846
  },
  {
    "epoch": 236,
    "D loss": 1.0054823160171509,
    "D acc": 0.5,
    "g loss": 1.835972547531128
  },
  {
    "epoch": 237,
    "D loss": 1.004935622215271,
    "D acc": 0.5,
    "g loss": 1.8346266746520996
  },
  {
    "epoch": 238,
    "D loss": 1.0043903589248657,
    "D acc": 0.5,
    "g loss": 1.8332841396331787
  },
  {
    "epoch": 239,
    "D loss": 1.0038467645645142,
    "D acc": 0.5,
    "g loss": 1.8319448232650757
  },
  {
    "epoch": 240,
    "D loss": 1.0033046007156372,
    "D acc": 0.5,
    "g loss": 1.83060884475708
  },
  {
    "epoch": 241,
    "D loss": 1.0027639865875244,
    "D acc": 0.5,
    "g loss": 1.8292760848999023
  },
  {
    "epoch": 242,
    "D loss": 1.0022248029708862,
    "D acc": 0.5,
    "g loss": 1.8279463052749634
  },
  {
    "epoch": 243,
    "D loss": 1.0016871690750122,
    "D acc": 0.5,
    "g loss": 1.8266198635101318
  },
  {
    "epoch": 244,
    "D loss": 1.0011509656906128,
    "D acc": 0.5,
    "g loss": 1.825296401977539
  },
  {
    "epoch": 245,
    "D loss": 1.0006163120269775,
    "D acc": 0.5,
    "g loss": 1.8239762783050537
  },
  {
    "epoch": 246,
    "D loss": 1.000083088874817,
    "D acc": 0.5,
    "g loss": 1.8226590156555176
  },
  {
    "epoch": 247,
    "D loss": 0.9995511770248413,
    "D acc": 0.5,
    "g loss": 1.8213448524475098
  },
  {
    "epoch": 248,
    "D loss": 0.9990208148956299,
    "D acc": 0.5,
    "g loss": 1.8200339078903198
  },
  {
    "epoch": 249,
    "D loss": 0.9984919428825378,
    "D acc": 0.5,
    "g loss": 1.8187260627746582
  },
  {
    "epoch": 250,
    "D loss": 0.9979645013809204,
    "D acc": 0.5,
    "g loss": 1.8174211978912354
  },
  {
    "epoch": 251,
    "D loss": 0.9974384307861328,
    "D acc": 0.5,
    "g loss": 1.8161194324493408
  },
  {
    "epoch": 252,
    "D loss": 0.9969138503074646,
    "D acc": 0.5,
    "g loss": 1.8148205280303955
  },
  {
    "epoch": 253,
    "D loss": 0.9963905811309814,
    "D acc": 0.5,
    "g loss": 1.8135247230529785
  },
  {
    "epoch": 254,
    "D loss": 0.9958687424659729,
    "D acc": 0.5,
    "g loss": 1.8122320175170898
  },
  {
    "epoch": 255,
    "D loss": 0.9953484535217285,
    "D acc": 0.5,
    "g loss": 1.8109421730041504
  },
  {
    "epoch": 256,
    "D loss": 0.9948294162750244,
    "D acc": 0.5,
    "g loss": 1.8096554279327393
  },
  {
    "epoch": 257,
    "D loss": 0.9943118095397949,
    "D acc": 0.5,
    "g loss": 1.8083715438842773
  },
  {
    "epoch": 258,
    "D loss": 0.99379563331604,
    "D acc": 0.5,
    "g loss": 1.8070907592773438
  },
  {
    "epoch": 259,
    "D loss": 0.993280827999115,
    "D acc": 0.5,
    "g loss": 1.8058127164840698
  },
  {
    "epoch": 260,
    "D loss": 0.992767333984375,
    "D acc": 0.5,
    "g loss": 1.8045376539230347
  },
  {
    "epoch": 261,
    "D loss": 0.9922552108764648,
    "D acc": 0.5,
    "g loss": 1.8032655715942383
  },
  {
    "epoch": 262,
    "D loss": 0.9917444586753845,
    "D acc": 0.5,
    "g loss": 1.8019963502883911
  },
  {
    "epoch": 263,
    "D loss": 0.9912351369857788,
    "D acc": 0.5,
    "g loss": 1.8007299900054932
  },
  {
    "epoch": 264,
    "D loss": 0.9907270669937134,
    "D acc": 0.5,
    "g loss": 1.7994664907455444
  },
  {
    "epoch": 265,
    "D loss": 0.990220308303833,
    "D acc": 0.5,
    "g loss": 1.7982059717178345
  },
  {
    "epoch": 266,
    "D loss": 0.989715039730072,
    "D acc": 0.5,
    "g loss": 1.7969481945037842
  },
  {
    "epoch": 267,
    "D loss": 0.9892109632492065,
    "D acc": 0.5,
    "g loss": 1.7956931591033936
  },
  {
    "epoch": 268,
    "D loss": 0.9887082576751709,
    "D acc": 0.5,
    "g loss": 1.7944411039352417
  },
  {
    "epoch": 269,
    "D loss": 0.9882068634033203,
    "D acc": 0.5,
    "g loss": 1.793191909790039
  },
  {
    "epoch": 270,
    "D loss": 0.9877068400382996,
    "D acc": 0.5,
    "g loss": 1.7919453382492065
  },
  {
    "epoch": 271,
    "D loss": 0.9872080087661743,
    "D acc": 0.5,
    "g loss": 1.7907016277313232
  },
  {
    "epoch": 272,
    "D loss": 0.9867105484008789,
    "D acc": 0.5,
    "g loss": 1.7894607782363892
  },
  {
    "epoch": 273,
    "D loss": 0.9862143993377686,
    "D acc": 0.5,
    "g loss": 1.7882225513458252
  },
  {
    "epoch": 274,
    "D loss": 0.9857195019721985,
    "D acc": 0.5,
    "g loss": 1.7869871854782104
  },
  {
    "epoch": 275,
    "D loss": 0.9852259755134583,
    "D acc": 0.5,
    "g loss": 1.7857545614242554
  },
  {
    "epoch": 276,
    "D loss": 0.9847336411476135,
    "D acc": 0.5,
    "g loss": 1.7845245599746704
  },
  {
    "epoch": 277,
    "D loss": 0.9842425584793091,
    "D acc": 0.5,
    "g loss": 1.7832973003387451
  },
  {
    "epoch": 278,
    "D loss": 0.9837527871131897,
    "D acc": 0.5,
    "g loss": 1.7820727825164795
  },
  {
    "epoch": 279,
    "D loss": 0.9832642674446106,
    "D acc": 0.5,
    "g loss": 1.7808510065078735
  },
  {
    "epoch": 280,
    "D loss": 0.9827770590782166,
    "D acc": 0.5,
    "g loss": 1.7796318531036377
  },
  {
    "epoch": 281,
    "D loss": 0.9822909832000732,
    "D acc": 0.5,
    "g loss": 1.7784154415130615
  },
  {
    "epoch": 282,
    "D loss": 0.9818062782287598,
    "D acc": 0.5,
    "g loss": 1.777201533317566
  },
  {
    "epoch": 283,
    "D loss": 0.981322705745697,
    "D acc": 0.5,
    "g loss": 1.77599036693573
  },
  {
    "epoch": 284,
    "D loss": 0.9808404445648193,
    "D acc": 0.5,
    "g loss": 1.7747818231582642
  },
  {
    "epoch": 285,
    "D loss": 0.9803593754768372,
    "D acc": 0.5,
    "g loss": 1.7735759019851685
  },
  {
    "epoch": 286,
    "D loss": 0.9798795580863953,
    "D acc": 0.5,
    "g loss": 1.7723726034164429
  },
  {
    "epoch": 287,
    "D loss": 0.9794009327888489,
    "D acc": 0.5,
    "g loss": 1.7711718082427979
  },
  {
    "epoch": 288,
    "D loss": 0.978923499584198,
    "D acc": 0.5,
    "g loss": 1.7699737548828125
  },
  {
    "epoch": 289,
    "D loss": 0.9784473180770874,
    "D acc": 0.5,
    "g loss": 1.7687782049179077
  },
  {
    "epoch": 290,
    "D loss": 0.9779722690582275,
    "D acc": 0.5,
    "g loss": 1.7675851583480835
  },
  {
    "epoch": 291,
    "D loss": 0.977498471736908,
    "D acc": 0.5,
    "g loss": 1.766394853591919
  },
  {
    "epoch": 292,
    "D loss": 0.9770258665084839,
    "D acc": 0.5,
    "g loss": 1.765207052230835
  },
  {
    "epoch": 293,
    "D loss": 0.9765545129776001,
    "D acc": 0.5,
    "g loss": 1.764021635055542
  },
  {
    "epoch": 294,
    "D loss": 0.9760841727256775,
    "D acc": 0.5,
    "g loss": 1.7628388404846191
  },
  {
    "epoch": 295,
    "D loss": 0.9756151437759399,
    "D acc": 0.5,
    "g loss": 1.7616585493087769
  },
  {
    "epoch": 296,
    "D loss": 0.9751472473144531,
    "D acc": 0.5,
    "g loss": 1.7604807615280151
  },
  {
    "epoch": 297,
    "D loss": 0.9746805429458618,
    "D acc": 0.5,
    "g loss": 1.759305477142334
  },
  {
    "epoch": 298,
    "D loss": 0.9742149710655212,
    "D acc": 0.5,
    "g loss": 1.7581326961517334
  },
  {
    "epoch": 299,
    "D loss": 0.9737505912780762,
    "D acc": 0.5,
    "g loss": 1.7569624185562134
  },
  {
    "epoch": 300,
    "D loss": 0.9732873439788818,
    "D acc": 0.5,
    "g loss": 1.755794644355774
  },
  {
    "epoch": 301,
    "D loss": 0.9728252291679382,
    "D acc": 0.5,
    "g loss": 1.7546292543411255
  },
  {
    "epoch": 302,
    "D loss": 0.9723643064498901,
    "D acc": 0.5,
    "g loss": 1.753466248512268
  },
  {
    "epoch": 303,
    "D loss": 0.971904456615448,
    "D acc": 0.5,
    "g loss": 1.7523057460784912
  },
  {
    "epoch": 304,
    "D loss": 0.9714457988739014,
    "D acc": 0.5,
    "g loss": 1.7511476278305054
  },
  {
    "epoch": 305,
    "D loss": 0.9709882140159607,
    "D acc": 0.5,
    "g loss": 1.7499920129776
  },
  {
    "epoch": 306,
    "D loss": 0.9705318212509155,
    "D acc": 0.5,
    "g loss": 1.7488387823104858
  },
  {
    "epoch": 307,
    "D loss": 0.9700765013694763,
    "D acc": 0.5,
    "g loss": 1.7476879358291626
  },
  {
    "epoch": 308,
    "D loss": 0.9696223139762878,
    "D acc": 0.5,
    "g loss": 1.7465394735336304
  },
  {
    "epoch": 309,
    "D loss": 0.9691692590713501,
    "D acc": 0.5,
    "g loss": 1.7453932762145996
  },
  {
    "epoch": 310,
    "D loss": 0.9687172174453735,
    "D acc": 0.5,
    "g loss": 1.7442495822906494
  },
  {
    "epoch": 311,
    "D loss": 0.9682663679122925,
    "D acc": 0.5,
    "g loss": 1.7431082725524902
  },
  {
    "epoch": 312,
    "D loss": 0.9678165912628174,
    "D acc": 0.5,
    "g loss": 1.741969347000122
  },
  {
    "epoch": 313,
    "D loss": 0.9673680067062378,
    "D acc": 0.5,
    "g loss": 1.7408326864242554
  },
  {
    "epoch": 314,
    "D loss": 0.9669203758239746,
    "D acc": 0.5,
    "g loss": 1.7396982908248901
  },
  {
    "epoch": 315,
    "D loss": 0.9664738178253174,
    "D acc": 0.5,
    "g loss": 1.738566279411316
  },
  {
    "epoch": 316,
    "D loss": 0.9660284519195557,
    "D acc": 0.5,
    "g loss": 1.7374366521835327
  },
  {
    "epoch": 317,
    "D loss": 0.9655840992927551,
    "D acc": 0.5,
    "g loss": 1.736309289932251
  },
  {
    "epoch": 318,
    "D loss": 0.9651408195495605,
    "D acc": 0.5,
    "g loss": 1.7351841926574707
  },
  {
    "epoch": 319,
    "D loss": 0.9646986126899719,
    "D acc": 0.5,
    "g loss": 1.734061360359192
  },
  {
    "epoch": 320,
    "D loss": 0.9642574787139893,
    "D acc": 0.5,
    "g loss": 1.7329407930374146
  },
  {
    "epoch": 321,
    "D loss": 0.9638173580169678,
    "D acc": 0.5,
    "g loss": 1.7318224906921387
  },
  {
    "epoch": 322,
    "D loss": 0.9633783102035522,
    "D acc": 0.5,
    "g loss": 1.7307064533233643
  },
  {
    "epoch": 323,
    "D loss": 0.9629402756690979,
    "D acc": 0.5,
    "g loss": 1.7295926809310913
  },
  {
    "epoch": 324,
    "D loss": 0.9625033736228943,
    "D acc": 0.5,
    "g loss": 1.7284811735153198
  },
  {
    "epoch": 325,
    "D loss": 0.9620674848556519,
    "D acc": 0.5,
    "g loss": 1.7273719310760498
  },
  {
    "epoch": 326,
    "D loss": 0.9616326093673706,
    "D acc": 0.5,
    "g loss": 1.7262648344039917
  },
  {
    "epoch": 327,
    "D loss": 0.9611987471580505,
    "D acc": 0.5,
    "g loss": 1.725160002708435
  },
  {
    "epoch": 328,
    "D loss": 0.9607659578323364,
    "D acc": 0.5,
    "g loss": 1.7240574359893799
  },
  {
    "epoch": 329,
    "D loss": 0.9603342413902283,
    "D acc": 0.5,
    "g loss": 1.722956895828247
  },
  {
    "epoch": 330,
    "D loss": 0.9599034190177917,
    "D acc": 0.5,
    "g loss": 1.7218587398529053
  },
  {
    "epoch": 331,
    "D loss": 0.959473729133606,
    "D acc": 0.5,
    "g loss": 1.7207626104354858
  },
  {
    "epoch": 332,
    "D loss": 0.9590449333190918,
    "D acc": 0.5,
    "g loss": 1.7196687459945679
  },
  {
    "epoch": 333,
    "D loss": 0.9586172699928284,
    "D acc": 0.5,
    "g loss": 1.7185771465301514
  },
  {
    "epoch": 334,
    "D loss": 0.9581906199455261,
    "D acc": 0.5,
    "g loss": 1.7174875736236572
  },
  {
    "epoch": 335,
    "D loss": 0.9577649235725403,
    "D acc": 0.5,
    "g loss": 1.7164000272750854
  },
  {
    "epoch": 336,
    "D loss": 0.9573401212692261,
    "D acc": 0.5,
    "g loss": 1.7153147459030151
  },
  {
    "epoch": 337,
    "D loss": 0.9569164514541626,
    "D acc": 0.5,
    "g loss": 1.7142316102981567
  },
  {
    "epoch": 338,
    "D loss": 0.9564936757087708,
    "D acc": 0.5,
    "g loss": 1.7131506204605103
  },
  {
    "epoch": 339,
    "D loss": 0.9560719728469849,
    "D acc": 0.5,
    "g loss": 1.7120716571807861
  },
  {
    "epoch": 340,
    "D loss": 0.9556511640548706,
    "D acc": 0.5,
    "g loss": 1.7109949588775635
  },
  {
    "epoch": 341,
    "D loss": 0.9552314281463623,
    "D acc": 0.5,
    "g loss": 1.7099201679229736
  },
  {
    "epoch": 342,
    "D loss": 0.9548125863075256,
    "D acc": 0.5,
    "g loss": 1.7088476419448853
  },
  {
    "epoch": 343,
    "D loss": 0.9543948173522949,
    "D acc": 0.5,
    "g loss": 1.7077770233154297
  },
  {
    "epoch": 344,
    "D loss": 0.9539778828620911,
    "D acc": 0.5,
    "g loss": 1.7067086696624756
  },
  {
    "epoch": 345,
    "D loss": 0.9535620212554932,
    "D acc": 0.5,
    "g loss": 1.7056422233581543
  },
  {
    "epoch": 346,
    "D loss": 0.9531470537185669,
    "D acc": 0.5,
    "g loss": 1.704577922821045
  },
  {
    "epoch": 347,
    "D loss": 0.952733039855957,
    "D acc": 0.5,
    "g loss": 1.703515648841858
  },
  {
    "epoch": 348,
    "D loss": 0.9523199796676636,
    "D acc": 0.5,
    "g loss": 1.7024555206298828
  },
  {
    "epoch": 349,
    "D loss": 0.9519079327583313,
    "D acc": 0.5,
    "g loss": 1.70139741897583
  },
  {
    "epoch": 350,
    "D loss": 0.9514968395233154,
    "D acc": 0.5,
    "g loss": 1.7003412246704102
  },
  {
    "epoch": 351,
    "D loss": 0.9510866403579712,
    "D acc": 0.5,
    "g loss": 1.6992871761322021
  },
  {
    "epoch": 352,
    "D loss": 0.9506773948669434,
    "D acc": 0.5,
    "g loss": 1.698235034942627
  },
  {
    "epoch": 353,
    "D loss": 0.9502690434455872,
    "D acc": 0.5,
    "g loss": 1.6971848011016846
  },
  {
    "epoch": 354,
    "D loss": 0.9498615860939026,
    "D acc": 0.5,
    "g loss": 1.696136713027954
  },
  {
    "epoch": 355,
    "D loss": 0.9494551420211792,
    "D acc": 0.5,
    "g loss": 1.6950907707214355
  },
  {
    "epoch": 356,
    "D loss": 0.9490496516227722,
    "D acc": 0.5,
    "g loss": 1.6940466165542603
  },
  {
    "epoch": 357,
    "D loss": 0.9486449956893921,
    "D acc": 0.5,
    "g loss": 1.6930044889450073
  },
  {
    "epoch": 358,
    "D loss": 0.9482412934303284,
    "D acc": 0.5,
    "g loss": 1.6919643878936768
  },
  {
    "epoch": 359,
    "D loss": 0.947838544845581,
    "D acc": 0.5,
    "g loss": 1.6909260749816895
  },
  {
    "epoch": 360,
    "D loss": 0.9474365711212158,
    "D acc": 0.5,
    "g loss": 1.689889907836914
  },
  {
    "epoch": 361,
    "D loss": 0.9470356702804565,
    "D acc": 0.5,
    "g loss": 1.6888556480407715
  },
  {
    "epoch": 362,
    "D loss": 0.9466356039047241,
    "D acc": 0.5,
    "g loss": 1.6878232955932617
  },
  {
    "epoch": 363,
    "D loss": 0.9462364315986633,
    "D acc": 0.5,
    "g loss": 1.6867928504943848
  },
  {
    "epoch": 364,
    "D loss": 0.9458380937576294,
    "D acc": 0.5,
    "g loss": 1.6857644319534302
  },
  {
    "epoch": 365,
    "D loss": 0.9454407691955566,
    "D acc": 0.5,
    "g loss": 1.6847379207611084
  },
  {
    "epoch": 366,
    "D loss": 0.9450442790985107,
    "D acc": 0.5,
    "g loss": 1.6837133169174194
  },
  {
    "epoch": 367,
    "D loss": 0.9446486830711365,
    "D acc": 0.5,
    "g loss": 1.6826906204223633
  },
  {
    "epoch": 368,
    "D loss": 0.9442539811134338,
    "D acc": 0.5,
    "g loss": 1.6816697120666504
  },
  {
    "epoch": 369,
    "D loss": 0.9438601136207581,
    "D acc": 0.5,
    "g loss": 1.6806507110595703
  },
  {
    "epoch": 370,
    "D loss": 0.9434670805931091,
    "D acc": 0.5,
    "g loss": 1.6796337366104126
  },
  {
    "epoch": 371,
    "D loss": 0.9430750012397766,
    "D acc": 0.5,
    "g loss": 1.6786185503005981
  },
  {
    "epoch": 372,
    "D loss": 0.9426838159561157,
    "D acc": 0.5,
    "g loss": 1.6776052713394165
  },
  {
    "epoch": 373,
    "D loss": 0.9422934651374817,
    "D acc": 0.5,
    "g loss": 1.6765940189361572
  },
  {
    "epoch": 374,
    "D loss": 0.9419040083885193,
    "D acc": 0.5,
    "g loss": 1.6755844354629517
  },
  {
    "epoch": 375,
    "D loss": 0.9415153861045837,
    "D acc": 0.5,
    "g loss": 1.674576759338379
  },
  {
    "epoch": 376,
    "D loss": 0.941127598285675,
    "D acc": 0.5,
    "g loss": 1.673570990562439
  },
  {
    "epoch": 377,
    "D loss": 0.940740704536438,
    "D acc": 0.5,
    "g loss": 1.6725670099258423
  },
  {
    "epoch": 378,
    "D loss": 0.9403547048568726,
    "D acc": 0.5,
    "g loss": 1.6715648174285889
  },
  {
    "epoch": 379,
    "D loss": 0.9399694800376892,
    "D acc": 0.5,
    "g loss": 1.6705645322799683
  },
  {
    "epoch": 380,
    "D loss": 0.9395850896835327,
    "D acc": 0.5,
    "g loss": 1.669566035270691
  },
  {
    "epoch": 381,
    "D loss": 0.9392015933990479,
    "D acc": 0.5,
    "g loss": 1.6685693264007568
  },
  {
    "epoch": 382,
    "D loss": 0.9388189315795898,
    "D acc": 0.5,
    "g loss": 1.667574405670166
  },
  {
    "epoch": 383,
    "D loss": 0.9384370446205139,
    "D acc": 0.5,
    "g loss": 1.6665812730789185
  },
  {
    "epoch": 384,
    "D loss": 0.9380559921264648,
    "D acc": 0.5,
    "g loss": 1.6655900478363037
  },
  {
    "epoch": 385,
    "D loss": 0.9376758933067322,
    "D acc": 0.5,
    "g loss": 1.6646004915237427
  },
  {
    "epoch": 386,
    "D loss": 0.9372965097427368,
    "D acc": 0.5,
    "g loss": 1.6636128425598145
  },
  {
    "epoch": 387,
    "D loss": 0.9369179606437683,
    "D acc": 0.5,
    "g loss": 1.6626269817352295
  },
  {
    "epoch": 388,
    "D loss": 0.9365403056144714,
    "D acc": 0.5,
    "g loss": 1.6616427898406982
  },
  {
    "epoch": 389,
    "D loss": 0.9361634254455566,
    "D acc": 0.5,
    "g loss": 1.6606603860855103
  },
  {
    "epoch": 390,
    "D loss": 0.9357873201370239,
    "D acc": 0.5,
    "g loss": 1.6596797704696655
  },
  {
    "epoch": 391,
    "D loss": 0.9354121088981628,
    "D acc": 0.5,
    "g loss": 1.6587008237838745
  },
  {
    "epoch": 392,
    "D loss": 0.9350376129150391,
    "D acc": 0.5,
    "g loss": 1.6577237844467163
  },
  {
    "epoch": 393,
    "D loss": 0.9346640110015869,
    "D acc": 0.5,
    "g loss": 1.6567482948303223
  },
  {
    "epoch": 394,
    "D loss": 0.9342911243438721,
    "D acc": 0.5,
    "g loss": 1.655774712562561
  },
  {
    "epoch": 395,
    "D loss": 0.9339191317558289,
    "D acc": 0.5,
    "g loss": 1.6548027992248535
  },
  {
    "epoch": 396,
    "D loss": 0.9335479140281677,
    "D acc": 0.5,
    "g loss": 1.6538326740264893
  },
  {
    "epoch": 397,
    "D loss": 0.9331775307655334,
    "D acc": 0.5,
    "g loss": 1.6528642177581787
  },
  {
    "epoch": 398,
    "D loss": 0.9328078627586365,
    "D acc": 0.5,
    "g loss": 1.6518974304199219
  },
  {
    "epoch": 399,
    "D loss": 0.9324389696121216,
    "D acc": 0.5,
    "g loss": 1.6509323120117188
  },
  {
    "epoch": 400,
    "D loss": 0.9320709109306335,
    "D acc": 0.5,
    "g loss": 1.6499689817428589
  }
]