[
  {
    "epoch": 0,
    "D loss": 0.7064255475997925,
    "D acc": 0.796875,
    "g loss": 2.978839159011841
  },
  {
    "epoch": 1,
    "D loss": 1.0668513774871826,
    "D acc": 0.796875,
    "g loss": 2.937814235687256
  },
  {
    "epoch": 2,
    "D loss": 0.6521527767181396,
    "D acc": 0.828125,
    "g loss": 2.957174301147461
  },
  {
    "epoch": 3,
    "D loss": 0.5582854747772217,
    "D acc": 0.828125,
    "g loss": 3.1497504711151123
  },
  {
    "epoch": 4,
    "D loss": 0.5402184724807739,
    "D acc": 0.875,
    "g loss": 2.971482038497925
  },
  {
    "epoch": 5,
    "D loss": 0.9100353717803955,
    "D acc": 0.71875,
    "g loss": 2.759256362915039
  },
  {
    "epoch": 6,
    "D loss": 1.0512925386428833,
    "D acc": 0.8125,
    "g loss": 2.721892833709717
  },
  {
    "epoch": 7,
    "D loss": 1.7270748615264893,
    "D acc": 0.78125,
    "g loss": 2.207200765609741
  },
  {
    "epoch": 8,
    "D loss": 0.8738903403282166,
    "D acc": 0.8125,
    "g loss": 2.6438722610473633
  },
  {
    "epoch": 9,
    "D loss": 1.3996838331222534,
    "D acc": 0.84375,
    "g loss": 2.3159549236297607
  },
  {
    "epoch": 10,
    "D loss": 1.7396368980407715,
    "D acc": 0.75,
    "g loss": 2.151127815246582
  },
  {
    "epoch": 11,
    "D loss": 2.0975844860076904,
    "D acc": 0.734375,
    "g loss": 2.538370132446289
  },
  {
    "epoch": 12,
    "D loss": 3.0856776237487793,
    "D acc": 0.75,
    "g loss": 1.8330527544021606
  },
  {
    "epoch": 13,
    "D loss": 2.696949005126953,
    "D acc": 0.671875,
    "g loss": 1.6737892627716064
  },
  {
    "epoch": 14,
    "D loss": 4.091116905212402,
    "D acc": 0.578125,
    "g loss": 1.13307785987854
  },
  {
    "epoch": 15,
    "D loss": 4.420609951019287,
    "D acc": 0.625,
    "g loss": 1.0717570781707764
  },
  {
    "epoch": 16,
    "D loss": 3.7801969051361084,
    "D acc": 0.6875,
    "g loss": 1.2922251224517822
  },
  {
    "epoch": 17,
    "D loss": 5.231253147125244,
    "D acc": 0.5625,
    "g loss": 0.750187873840332
  },
  {
    "epoch": 18,
    "D loss": 5.114412307739258,
    "D acc": 0.53125,
    "g loss": 0.7195136547088623
  },
  {
    "epoch": 19,
    "D loss": 4.887701511383057,
    "D acc": 0.5625,
    "g loss": 1.1401166915893555
  },
  {
    "epoch": 20,
    "D loss": 4.539496421813965,
    "D acc": 0.625,
    "g loss": 0.9169187545776367
  },
  {
    "epoch": 21,
    "D loss": 4.239902973175049,
    "D acc": 0.65625,
    "g loss": 1.3085215091705322
  },
  {
    "epoch": 22,
    "D loss": 6.331877708435059,
    "D acc": 0.453125,
    "g loss": 0.35752254724502563
  },
  {
    "epoch": 23,
    "D loss": 6.666797637939453,
    "D acc": 0.484375,
    "g loss": 0.40195122361183167
  },
  {
    "epoch": 24,
    "D loss": 5.962008953094482,
    "D acc": 0.515625,
    "g loss": 0.4858331084251404
  },
  {
    "epoch": 25,
    "D loss": 6.919790267944336,
    "D acc": 0.484375,
    "g loss": 0.22233468294143677
  },
  {
    "epoch": 26,
    "D loss": 6.836808681488037,
    "D acc": 0.484375,
    "g loss": 0.313565194606781
  },
  {
    "epoch": 27,
    "D loss": 6.895439624786377,
    "D acc": 0.484375,
    "g loss": 0.255331426858902
  },
  {
    "epoch": 28,
    "D loss": 7.376739025115967,
    "D acc": 0.421875,
    "g loss": 0.14260715246200562
  },
  {
    "epoch": 29,
    "D loss": 6.882349967956543,
    "D acc": 0.46875,
    "g loss": 0.22957079112529755
  },
  {
    "epoch": 30,
    "D loss": 6.500302791595459,
    "D acc": 0.4375,
    "g loss": 0.3975723385810852
  },
  {
    "epoch": 31,
    "D loss": 7.4397783279418945,
    "D acc": 0.421875,
    "g loss": 0.10229372978210449
  },
  {
    "epoch": 32,
    "D loss": 6.970636367797852,
    "D acc": 0.53125,
    "g loss": 0.27426597476005554
  },
  {
    "epoch": 33,
    "D loss": 7.4756903648376465,
    "D acc": 0.375,
    "g loss": 0.1331866830587387
  },
  {
    "epoch": 34,
    "D loss": 6.587677001953125,
    "D acc": 0.515625,
    "g loss": 0.3843323886394501
  },
  {
    "epoch": 35,
    "D loss": 6.604772090911865,
    "D acc": 0.5,
    "g loss": 0.40948325395584106
  },
  {
    "epoch": 36,
    "D loss": 6.788019180297852,
    "D acc": 0.515625,
    "g loss": 0.27749380469322205
  },
  {
    "epoch": 37,
    "D loss": 7.099878787994385,
    "D acc": 0.453125,
    "g loss": 0.17908775806427002
  },
  {
    "epoch": 38,
    "D loss": 7.388232231140137,
    "D acc": 0.4375,
    "g loss": 0.12851585447788239
  },
  {
    "epoch": 39,
    "D loss": 7.517899513244629,
    "D acc": 0.484375,
    "g loss": 0.08846449851989746
  },
  {
    "epoch": 40,
    "D loss": 7.377748966217041,
    "D acc": 0.390625,
    "g loss": 0.10619238018989563
  },
  {
    "epoch": 41,
    "D loss": 6.871736526489258,
    "D acc": 0.484375,
    "g loss": 0.2889573574066162
  },
  {
    "epoch": 42,
    "D loss": 7.270773887634277,
    "D acc": 0.484375,
    "g loss": 0.06879668682813644
  },
  {
    "epoch": 43,
    "D loss": 7.552174091339111,
    "D acc": 0.453125,
    "g loss": 0.08473493903875351
  },
  {
    "epoch": 44,
    "D loss": 7.092033386230469,
    "D acc": 0.453125,
    "g loss": 0.23240500688552856
  },
  {
    "epoch": 45,
    "D loss": 7.75502872467041,
    "D acc": 0.453125,
    "g loss": 0.0
  },
  {
    "epoch": 46,
    "D loss": 7.466182231903076,
    "D acc": 0.390625,
    "g loss": 0.11540405452251434
  },
  {
    "epoch": 47,
    "D loss": 7.167959213256836,
    "D acc": 0.453125,
    "g loss": 0.23608176410198212
  },
  {
    "epoch": 48,
    "D loss": 6.881420612335205,
    "D acc": 0.484375,
    "g loss": 0.16711589694023132
  },
  {
    "epoch": 49,
    "D loss": 7.228330135345459,
    "D acc": 0.5,
    "g loss": 0.08571678400039673
  },
  {
    "epoch": 50,
    "D loss": 7.882315635681152,
    "D acc": 0.390625,
    "g loss": 0.0
  },
  {
    "epoch": 51,
    "D loss": 7.266103744506836,
    "D acc": 0.5,
    "g loss": 0.12809810042381287
  },
  {
    "epoch": 52,
    "D loss": 6.786046028137207,
    "D acc": 0.53125,
    "g loss": 0.3511950373649597
  },
  {
    "epoch": 53,
    "D loss": 6.965353488922119,
    "D acc": 0.46875,
    "g loss": 0.208440363407135
  },
  {
    "epoch": 54,
    "D loss": 7.501455783843994,
    "D acc": 0.484375,
    "g loss": 0.03070981055498123
  },
  {
    "epoch": 55,
    "D loss": 7.06813907623291,
    "D acc": 0.484375,
    "g loss": 0.09459808468818665
  },
  {
    "epoch": 56,
    "D loss": 7.264500141143799,
    "D acc": 0.484375,
    "g loss": 0.021603405475616455
  },
  {
    "epoch": 57,
    "D loss": 7.87754487991333,
    "D acc": 0.390625,
    "g loss": 0.0
  },
  {
    "epoch": 58,
    "D loss": 7.577431678771973,
    "D acc": 0.4375,
    "g loss": 0.058608315885066986
  },
  {
    "epoch": 59,
    "D loss": 7.592203617095947,
    "D acc": 0.4375,
    "g loss": 0.03825944662094116
  },
  {
    "epoch": 60,
    "D loss": 7.728076934814453,
    "D acc": 0.453125,
    "g loss": 0.0
  },
  {
    "epoch": 61,
    "D loss": 7.053313255310059,
    "D acc": 0.484375,
    "g loss": 0.22711549699306488
  },
  {
    "epoch": 62,
    "D loss": 7.274669170379639,
    "D acc": 0.5,
    "g loss": 0.11851420998573303
  },
  {
    "epoch": 63,
    "D loss": 7.705307960510254,
    "D acc": 0.46875,
    "g loss": 0.0
  },
  {
    "epoch": 64,
    "D loss": 7.578346252441406,
    "D acc": 0.453125,
    "g loss": 0.08788749575614929
  },
  {
    "epoch": 65,
    "D loss": 7.841980457305908,
    "D acc": 0.40625,
    "g loss": 0.0
  },
  {
    "epoch": 66,
    "D loss": 7.8958659172058105,
    "D acc": 0.40625,
    "g loss": 0.0
  },
  {
    "epoch": 67,
    "D loss": 7.7590413093566895,
    "D acc": 0.453125,
    "g loss": 0.0
  },
  {
    "epoch": 68,
    "D loss": 7.716459274291992,
    "D acc": 0.46875,
    "g loss": 0.0
  },
  {
    "epoch": 69,
    "D loss": 7.743925094604492,
    "D acc": 0.453125,
    "g loss": 0.0
  },
  {
    "epoch": 70,
    "D loss": 6.990265369415283,
    "D acc": 0.53125,
    "g loss": 0.23024854063987732
  },
  {
    "epoch": 71,
    "D loss": 7.346660614013672,
    "D acc": 0.4375,
    "g loss": 0.16930940747261047
  },
  {
    "epoch": 72,
    "D loss": 7.016139030456543,
    "D acc": 0.53125,
    "g loss": 0.17198902368545532
  },
  {
    "epoch": 73,
    "D loss": 7.249849319458008,
    "D acc": 0.5,
    "g loss": 0.14402776956558228
  },
  {
    "epoch": 74,
    "D loss": 7.331356048583984,
    "D acc": 0.421875,
    "g loss": 0.09382887929677963
  },
  {
    "epoch": 75,
    "D loss": 7.271162986755371,
    "D acc": 0.484375,
    "g loss": 0.0748736560344696
  },
  {
    "epoch": 76,
    "D loss": 7.512806415557861,
    "D acc": 0.46875,
    "g loss": 0.0034513899590820074
  },
  {
    "epoch": 77,
    "D loss": 7.479957580566406,
    "D acc": 0.46875,
    "g loss": 0.07747281342744827
  },
  {
    "epoch": 78,
    "D loss": 7.777942657470703,
    "D acc": 0.453125,
    "g loss": 0.0
  },
  {
    "epoch": 79,
    "D loss": 7.227882385253906,
    "D acc": 0.515625,
    "g loss": 0.08419838547706604
  },
  {
    "epoch": 80,
    "D loss": 7.7132697105407715,
    "D acc": 0.46875,
    "g loss": 0.0
  },
  {
    "epoch": 81,
    "D loss": 6.8161516189575195,
    "D acc": 0.515625,
    "g loss": 0.21573595702648163
  },
  {
    "epoch": 82,
    "D loss": 7.713204383850098,
    "D acc": 0.46875,
    "g loss": 0.0
  },
  {
    "epoch": 83,
    "D loss": 7.708797931671143,
    "D acc": 0.46875,
    "g loss": 0.0
  },
  {
    "epoch": 84,
    "D loss": 7.692259788513184,
    "D acc": 0.484375,
    "g loss": 0.0
  },
  {
    "epoch": 85,
    "D loss": 7.781120777130127,
    "D acc": 0.4375,
    "g loss": 0.0
  },
  {
    "epoch": 86,
    "D loss": 7.63891077041626,
    "D acc": 0.375,
    "g loss": 0.014688343740999699
  },
  {
    "epoch": 87,
    "D loss": 7.7284698486328125,
    "D acc": 0.46875,
    "g loss": 0.0
  },
  {
    "epoch": 88,
    "D loss": 7.477618217468262,
    "D acc": 0.484375,
    "g loss": 0.04535730183124542
  },
  {
    "epoch": 89,
    "D loss": 7.474221706390381,
    "D acc": 0.5,
    "g loss": 0.08035866916179657
  },
  {
    "epoch": 90,
    "D loss": 7.740655899047852,
    "D acc": 0.46875,
    "g loss": 0.0
  },
  {
    "epoch": 91,
    "D loss": 7.519503593444824,
    "D acc": 0.46875,
    "g loss": 0.053051408380270004
  },
  {
    "epoch": 92,
    "D loss": 7.802240371704102,
    "D acc": 0.4375,
    "g loss": 0.0
  },
  {
    "epoch": 93,
    "D loss": 7.8222174644470215,
    "D acc": 0.4375,
    "g loss": 0.0
  },
  {
    "epoch": 94,
    "D loss": 7.761714458465576,
    "D acc": 0.453125,
    "g loss": 0.0
  },
  {
    "epoch": 95,
    "D loss": 7.802093029022217,
    "D acc": 0.4375,
    "g loss": 0.0
  },
  {
    "epoch": 96,
    "D loss": 7.563007354736328,
    "D acc": 0.4375,
    "g loss": 0.020035913214087486
  },
  {
    "epoch": 97,
    "D loss": 7.756458282470703,
    "D acc": 0.4375,
    "g loss": 0.0
  },
  {
    "epoch": 98,
    "D loss": 7.518022537231445,
    "D acc": 0.484375,
    "g loss": 0.047397300601005554
  },
  {
    "epoch": 99,
    "D loss": 7.44490385055542,
    "D acc": 0.5,
    "g loss": 0.05593574792146683
  },
  {
    "epoch": 100,
    "D loss": 7.812966346740723,
    "D acc": 0.4375,
    "g loss": 0.0
  },
  {
    "epoch": 101,
    "D loss": 7.688426494598389,
    "D acc": 0.5,
    "g loss": 0.0
  },
  {
    "epoch": 102,
    "D loss": 7.323768138885498,
    "D acc": 0.46875,
    "g loss": 0.09504717588424683
  },
  {
    "epoch": 103,
    "D loss": 7.802176475524902,
    "D acc": 0.4375,
    "g loss": 0.0
  },
  {
    "epoch": 104,
    "D loss": 7.781087875366211,
    "D acc": 0.453125,
    "g loss": 0.0
  },
  {
    "epoch": 105,
    "D loss": 7.707140922546387,
    "D acc": 0.484375,
    "g loss": 0.0
  },
  {
    "epoch": 106,
    "D loss": 7.693920612335205,
    "D acc": 0.5,
    "g loss": 0.0
  },
  {
    "epoch": 107,
    "D loss": 7.688040733337402,
    "D acc": 0.484375,
    "g loss": 0.0
  },
  {
    "epoch": 108,
    "D loss": 7.516707420349121,
    "D acc": 0.46875,
    "g loss": 0.05786086618900299
  },
  {
    "epoch": 109,
    "D loss": 7.698138236999512,
    "D acc": 0.484375,
    "g loss": 0.0
  },
  {
    "epoch": 110,
    "D loss": 7.498286724090576,
    "D acc": 0.484375,
    "g loss": 0.02365749329328537
  },
  {
    "epoch": 111,
    "D loss": 7.696474552154541,
    "D acc": 0.484375,
    "g loss": 0.0
  },
  {
    "epoch": 112,
    "D loss": 7.057620048522949,
    "D acc": 0.5,
    "g loss": 0.18703046441078186
  },
  {
    "epoch": 113,
    "D loss": 7.459427356719971,
    "D acc": 0.5,
    "g loss": 0.06354250758886337
  },
  {
    "epoch": 114,
    "D loss": 7.499237537384033,
    "D acc": 0.484375,
    "g loss": 0.0649382621049881
  },
  {
    "epoch": 115,
    "D loss": 7.676917552947998,
    "D acc": 0.5,
    "g loss": 0.0
  },
  {
    "epoch": 116,
    "D loss": 7.675998210906982,
    "D acc": 0.5,
    "g loss": 0.0
  },
  {
    "epoch": 117,
    "D loss": 7.731448173522949,
    "D acc": 0.4375,
    "g loss": 0.0
  },
  {
    "epoch": 118,
    "D loss": 7.534813404083252,
    "D acc": 0.453125,
    "g loss": 0.08136967569589615
  },
  {
    "epoch": 119,
    "D loss": 7.753178596496582,
    "D acc": 0.453125,
    "g loss": 0.0
  },
  {
    "epoch": 120,
    "D loss": 7.553046226501465,
    "D acc": 0.453125,
    "g loss": 0.04373845085501671
  },
  {
    "epoch": 121,
    "D loss": 7.777181148529053,
    "D acc": 0.4375,
    "g loss": 0.0
  },
  {
    "epoch": 122,
    "D loss": 7.74274206161499,
    "D acc": 0.46875,
    "g loss": 0.0
  },
  {
    "epoch": 123,
    "D loss": 7.719568729400635,
    "D acc": 0.484375,
    "g loss": 0.0
  },
  {
    "epoch": 124,
    "D loss": 7.8133392333984375,
    "D acc": 0.421875,
    "g loss": 0.0
  },
  {
    "epoch": 125,
    "D loss": 7.438381195068359,
    "D acc": 0.515625,
    "g loss": 0.031772442162036896
  },
  {
    "epoch": 126,
    "D loss": 7.49931526184082,
    "D acc": 0.484375,
    "g loss": 0.07843630015850067
  },
  {
    "epoch": 127,
    "D loss": 7.735418796539307,
    "D acc": 0.46875,
    "g loss": 0.0
  },
  {
    "epoch": 128,
    "D loss": 7.47078275680542,
    "D acc": 0.5,
    "g loss": 0.004503921139985323
  },
  {
    "epoch": 129,
    "D loss": 7.742106914520264,
    "D acc": 0.46875,
    "g loss": 0.0
  },
  {
    "epoch": 130,
    "D loss": 7.733188629150391,
    "D acc": 0.46875,
    "g loss": 0.0
  },
  {
    "epoch": 131,
    "D loss": 7.733958721160889,
    "D acc": 0.46875,
    "g loss": 0.0
  },
  {
    "epoch": 132,
    "D loss": 7.751058578491211,
    "D acc": 0.453125,
    "g loss": 0.0
  },
  {
    "epoch": 133,
    "D loss": 7.7550787925720215,
    "D acc": 0.453125,
    "g loss": 0.0
  },
  {
    "epoch": 134,
    "D loss": 7.704300403594971,
    "D acc": 0.484375,
    "g loss": 0.0
  },
  {
    "epoch": 135,
    "D loss": 7.695030689239502,
    "D acc": 0.484375,
    "g loss": 0.0
  },
  {
    "epoch": 136,
    "D loss": 7.724345684051514,
    "D acc": 0.46875,
    "g loss": 0.0
  },
  {
    "epoch": 137,
    "D loss": 7.7646484375,
    "D acc": 0.453125,
    "g loss": 0.0
  },
  {
    "epoch": 138,
    "D loss": 7.766626834869385,
    "D acc": 0.453125,
    "g loss": 0.0
  },
  {
    "epoch": 139,
    "D loss": 7.666619300842285,
    "D acc": 0.5,
    "g loss": 0.0
  },
  {
    "epoch": 140,
    "D loss": 7.722601413726807,
    "D acc": 0.46875,
    "g loss": 0.0
  },
  {
    "epoch": 141,
    "D loss": 7.728521347045898,
    "D acc": 0.46875,
    "g loss": 0.0
  },
  {
    "epoch": 142,
    "D loss": 7.428369522094727,
    "D acc": 0.515625,
    "g loss": 0.07825955003499985
  },
  {
    "epoch": 143,
    "D loss": 7.747878551483154,
    "D acc": 0.453125,
    "g loss": 0.0
  },
  {
    "epoch": 144,
    "D loss": 7.544496059417725,
    "D acc": 0.453125,
    "g loss": 0.07863426208496094
  },
  {
    "epoch": 145,
    "D loss": 7.722875118255615,
    "D acc": 0.484375,
    "g loss": 0.0
  },
  {
    "epoch": 146,
    "D loss": 7.697404384613037,
    "D acc": 0.484375,
    "g loss": 0.0
  },
  {
    "epoch": 147,
    "D loss": 7.523127555847168,
    "D acc": 0.46875,
    "g loss": 0.07675550132989883
  },
  {
    "epoch": 148,
    "D loss": 7.7334675788879395,
    "D acc": 0.46875,
    "g loss": 0.0
  },
  {
    "epoch": 149,
    "D loss": 7.45673131942749,
    "D acc": 0.5,
    "g loss": 0.07437992841005325
  },
  {
    "epoch": 150,
    "D loss": 7.752322673797607,
    "D acc": 0.453125,
    "g loss": 0.0
  },
  {
    "epoch": 151,
    "D loss": 7.700035572052002,
    "D acc": 0.484375,
    "g loss": 0.0
  },
  {
    "epoch": 152,
    "D loss": 7.488211154937744,
    "D acc": 0.484375,
    "g loss": 0.009123184718191624
  },
  {
    "epoch": 153,
    "D loss": 7.493190765380859,
    "D acc": 0.46875,
    "g loss": 0.01776609942317009
  },
  {
    "epoch": 154,
    "D loss": 7.706720352172852,
    "D acc": 0.484375,
    "g loss": 0.0
  },
  {
    "epoch": 155,
    "D loss": 7.797879695892334,
    "D acc": 0.421875,
    "g loss": 0.0
  },
  {
    "epoch": 156,
    "D loss": 7.738209247589111,
    "D acc": 0.453125,
    "g loss": 0.0
  },
  {
    "epoch": 157,
    "D loss": 7.701849460601807,
    "D acc": 0.484375,
    "g loss": 0.0
  },
  {
    "epoch": 158,
    "D loss": 7.7343597412109375,
    "D acc": 0.46875,
    "g loss": 0.0
  },
  {
    "epoch": 159,
    "D loss": 7.4991679191589355,
    "D acc": 0.46875,
    "g loss": 0.048961132764816284
  },
  {
    "epoch": 160,
    "D loss": 7.692331790924072,
    "D acc": 0.484375,
    "g loss": 0.0
  },
  {
    "epoch": 161,
    "D loss": 7.746022701263428,
    "D acc": 0.453125,
    "g loss": 0.0
  },
  {
    "epoch": 162,
    "D loss": 7.742922306060791,
    "D acc": 0.46875,
    "g loss": 0.0
  },
  {
    "epoch": 163,
    "D loss": 7.6690144538879395,
    "D acc": 0.5,
    "g loss": 0.0
  },
  {
    "epoch": 164,
    "D loss": 7.72349739074707,
    "D acc": 0.46875,
    "g loss": 0.0
  },
  {
    "epoch": 165,
    "D loss": 7.446063041687012,
    "D acc": 0.5,
    "g loss": 0.06440263241529465
  },
  {
    "epoch": 166,
    "D loss": 7.724293231964111,
    "D acc": 0.46875,
    "g loss": 0.0
  },
  {
    "epoch": 167,
    "D loss": 7.737331867218018,
    "D acc": 0.46875,
    "g loss": 0.0
  },
  {
    "epoch": 168,
    "D loss": 7.706401824951172,
    "D acc": 0.484375,
    "g loss": 0.0
  },
  {
    "epoch": 169,
    "D loss": 7.734559059143066,
    "D acc": 0.453125,
    "g loss": 0.0
  },
  {
    "epoch": 170,
    "D loss": 7.6736063957214355,
    "D acc": 0.5,
    "g loss": 0.0
  },
  {
    "epoch": 171,
    "D loss": 7.747244358062744,
    "D acc": 0.453125,
    "g loss": 0.0
  },
  {
    "epoch": 172,
    "D loss": 7.71746301651001,
    "D acc": 0.46875,
    "g loss": 0.0
  },
  {
    "epoch": 173,
    "D loss": 7.759731292724609,
    "D acc": 0.453125,
    "g loss": 0.0
  },
  {
    "epoch": 174,
    "D loss": 7.691592693328857,
    "D acc": 0.484375,
    "g loss": 0.0
  },
  {
    "epoch": 175,
    "D loss": 7.737898826599121,
    "D acc": 0.453125,
    "g loss": 0.0
  },
  {
    "epoch": 176,
    "D loss": 7.725260257720947,
    "D acc": 0.46875,
    "g loss": 0.0
  },
  {
    "epoch": 177,
    "D loss": 7.726167678833008,
    "D acc": 0.46875,
    "g loss": 0.0
  },
  {
    "epoch": 178,
    "D loss": 7.748815059661865,
    "D acc": 0.453125,
    "g loss": 0.0
  },
  {
    "epoch": 179,
    "D loss": 7.6733551025390625,
    "D acc": 0.5,
    "g loss": 0.0
  },
  {
    "epoch": 180,
    "D loss": 7.769831657409668,
    "D acc": 0.4375,
    "g loss": 0.0
  },
  {
    "epoch": 181,
    "D loss": 7.7467451095581055,
    "D acc": 0.453125,
    "g loss": 0.0
  },
  {
    "epoch": 182,
    "D loss": 7.469933032989502,
    "D acc": 0.484375,
    "g loss": 0.01279979757964611
  },
  {
    "epoch": 183,
    "D loss": 7.716323375701904,
    "D acc": 0.46875,
    "g loss": 0.0
  },
  {
    "epoch": 184,
    "D loss": 7.765998840332031,
    "D acc": 0.4375,
    "g loss": 0.0
  },
  {
    "epoch": 185,
    "D loss": 7.682196617126465,
    "D acc": 0.484375,
    "g loss": 0.0
  },
  {
    "epoch": 186,
    "D loss": 7.719141483306885,
    "D acc": 0.46875,
    "g loss": 0.0
  },
  {
    "epoch": 187,
    "D loss": 7.700985431671143,
    "D acc": 0.484375,
    "g loss": 0.0
  },
  {
    "epoch": 188,
    "D loss": 7.806149005889893,
    "D acc": 0.40625,
    "g loss": 0.0
  },
  {
    "epoch": 189,
    "D loss": 7.429062366485596,
    "D acc": 0.515625,
    "g loss": 0.06585026532411575
  },
  {
    "epoch": 190,
    "D loss": 7.493049621582031,
    "D acc": 0.46875,
    "g loss": 0.006930175237357616
  },
  {
    "epoch": 191,
    "D loss": 7.80855655670166,
    "D acc": 0.40625,
    "g loss": 0.0
  },
  {
    "epoch": 192,
    "D loss": 7.712808132171631,
    "D acc": 0.46875,
    "g loss": 0.0
  },
  {
    "epoch": 193,
    "D loss": 7.681596755981445,
    "D acc": 0.484375,
    "g loss": 0.0
  },
  {
    "epoch": 194,
    "D loss": 7.692513465881348,
    "D acc": 0.484375,
    "g loss": 0.0
  },
  {
    "epoch": 195,
    "D loss": 7.6914873123168945,
    "D acc": 0.484375,
    "g loss": 0.0
  },
  {
    "epoch": 196,
    "D loss": 7.757091999053955,
    "D acc": 0.4375,
    "g loss": 0.0
  },
  {
    "epoch": 197,
    "D loss": 7.7189154624938965,
    "D acc": 0.46875,
    "g loss": 0.0
  },
  {
    "epoch": 198,
    "D loss": 7.666619300842285,
    "D acc": 0.5,
    "g loss": 0.0
  },
  {
    "epoch": 199,
    "D loss": 7.689562797546387,
    "D acc": 0.484375,
    "g loss": 0.0
  },
  {
    "epoch": 200,
    "D loss": 7.734310626983643,
    "D acc": 0.453125,
    "g loss": 0.0
  },
  {
    "epoch": 201,
    "D loss": 7.671908855438232,
    "D acc": 0.5,
    "g loss": 0.0
  },
  {
    "epoch": 202,
    "D loss": 7.692176818847656,
    "D acc": 0.484375,
    "g loss": 0.0
  },
  {
    "epoch": 203,
    "D loss": 7.74373722076416,
    "D acc": 0.453125,
    "g loss": 0.0
  },
  {
    "epoch": 204,
    "D loss": 7.671778202056885,
    "D acc": 0.5,
    "g loss": 0.0
  },
  {
    "epoch": 205,
    "D loss": 7.708042621612549,
    "D acc": 0.46875,
    "g loss": 0.0
  },
  {
    "epoch": 206,
    "D loss": 7.480537414550781,
    "D acc": 0.484375,
    "g loss": 0.04105556756258011
  },
  {
    "epoch": 207,
    "D loss": 7.451569557189941,
    "D acc": 0.5,
    "g loss": 0.06832324713468552
  },
  {
    "epoch": 208,
    "D loss": 7.703430652618408,
    "D acc": 0.484375,
    "g loss": 0.0
  },
  {
    "epoch": 209,
    "D loss": 7.717135906219482,
    "D acc": 0.46875,
    "g loss": 0.0
  },
  {
    "epoch": 210,
    "D loss": 7.690455913543701,
    "D acc": 0.484375,
    "g loss": 0.0
  },
  {
    "epoch": 211,
    "D loss": 7.675881385803223,
    "D acc": 0.5,
    "g loss": 0.0
  },
  {
    "epoch": 212,
    "D loss": 7.675493240356445,
    "D acc": 0.5,
    "g loss": 0.0
  },
  {
    "epoch": 213,
    "D loss": 7.693149089813232,
    "D acc": 0.484375,
    "g loss": 0.0
  },
  {
    "epoch": 214,
    "D loss": 7.432919979095459,
    "D acc": 0.515625,
    "g loss": 0.07106904685497284
  },
  {
    "epoch": 215,
    "D loss": 7.75498104095459,
    "D acc": 0.4375,
    "g loss": 0.0
  },
  {
    "epoch": 216,
    "D loss": 7.4857988357543945,
    "D acc": 0.484375,
    "g loss": 0.023317156359553337
  },
  {
    "epoch": 217,
    "D loss": 7.706927299499512,
    "D acc": 0.46875,
    "g loss": 0.0
  },
  {
    "epoch": 218,
    "D loss": 7.736370086669922,
    "D acc": 0.453125,
    "g loss": 0.0
  },
  {
    "epoch": 219,
    "D loss": 7.742874622344971,
    "D acc": 0.453125,
    "g loss": 0.0
  },
  {
    "epoch": 220,
    "D loss": 7.696672439575195,
    "D acc": 0.484375,
    "g loss": 0.0
  },
  {
    "epoch": 221,
    "D loss": 7.701993942260742,
    "D acc": 0.46875,
    "g loss": 0.0
  },
  {
    "epoch": 222,
    "D loss": 7.666619300842285,
    "D acc": 0.5,
    "g loss": 0.0
  },
  {
    "epoch": 223,
    "D loss": 7.6938252449035645,
    "D acc": 0.484375,
    "g loss": 0.0
  },
  {
    "epoch": 224,
    "D loss": 7.716099739074707,
    "D acc": 0.46875,
    "g loss": 0.0
  },
  {
    "epoch": 225,
    "D loss": 7.691225528717041,
    "D acc": 0.484375,
    "g loss": 0.0
  },
  {
    "epoch": 226,
    "D loss": 7.438747882843018,
    "D acc": 0.515625,
    "g loss": 0.04462485387921333
  },
  {
    "epoch": 227,
    "D loss": 7.680055141448975,
    "D acc": 0.484375,
    "g loss": 0.0
  },
  {
    "epoch": 228,
    "D loss": 7.718062400817871,
    "D acc": 0.46875,
    "g loss": 0.0
  },
  {
    "epoch": 229,
    "D loss": 7.679922580718994,
    "D acc": 0.484375,
    "g loss": 0.0
  },
  {
    "epoch": 230,
    "D loss": 7.474664211273193,
    "D acc": 0.46875,
    "g loss": 0.018660999834537506
  },
  {
    "epoch": 231,
    "D loss": 7.693264007568359,
    "D acc": 0.484375,
    "g loss": 0.0
  },
  {
    "epoch": 232,
    "D loss": 7.715090751647949,
    "D acc": 0.46875,
    "g loss": 0.0
  },
  {
    "epoch": 233,
    "D loss": 7.688405990600586,
    "D acc": 0.484375,
    "g loss": 0.0
  },
  {
    "epoch": 234,
    "D loss": 7.710082054138184,
    "D acc": 0.46875,
    "g loss": 0.0
  },
  {
    "epoch": 235,
    "D loss": 7.763288497924805,
    "D acc": 0.4375,
    "g loss": 0.0
  },
  {
    "epoch": 236,
    "D loss": 7.71356201171875,
    "D acc": 0.46875,
    "g loss": 0.0
  },
  {
    "epoch": 237,
    "D loss": 7.679550647735596,
    "D acc": 0.484375,
    "g loss": 0.0
  },
  {
    "epoch": 238,
    "D loss": 7.73471736907959,
    "D acc": 0.453125,
    "g loss": 0.0
  },
  {
    "epoch": 239,
    "D loss": 7.726932525634766,
    "D acc": 0.453125,
    "g loss": 0.0
  },
  {
    "epoch": 240,
    "D loss": 7.455425262451172,
    "D acc": 0.5,
    "g loss": 0.04956309124827385
  },
  {
    "epoch": 241,
    "D loss": 7.71358060836792,
    "D acc": 0.46875,
    "g loss": 0.0
  },
  {
    "epoch": 242,
    "D loss": 7.236198425292969,
    "D acc": 0.5,
    "g loss": 0.11429101228713989
  },
  {
    "epoch": 243,
    "D loss": 7.449723243713379,
    "D acc": 0.5,
    "g loss": 0.07022342830896378
  },
  {
    "epoch": 244,
    "D loss": 7.730307102203369,
    "D acc": 0.453125,
    "g loss": 0.0
  },
  {
    "epoch": 245,
    "D loss": 7.712233543395996,
    "D acc": 0.453125,
    "g loss": 0.0
  },
  {
    "epoch": 246,
    "D loss": 7.738049030303955,
    "D acc": 0.453125,
    "g loss": 0.0
  },
  {
    "epoch": 247,
    "D loss": 7.687290191650391,
    "D acc": 0.484375,
    "g loss": 0.0
  },
  {
    "epoch": 248,
    "D loss": 7.710572719573975,
    "D acc": 0.46875,
    "g loss": 0.0
  },
  {
    "epoch": 249,
    "D loss": 7.7078962326049805,
    "D acc": 0.46875,
    "g loss": 0.0
  },
  {
    "epoch": 250,
    "D loss": 7.534360408782959,
    "D acc": 0.4375,
    "g loss": 0.020905394107103348
  },
  {
    "epoch": 251,
    "D loss": 7.666619300842285,
    "D acc": 0.5,
    "g loss": 0.0
  },
  {
    "epoch": 252,
    "D loss": 7.748169422149658,
    "D acc": 0.4375,
    "g loss": 0.0
  },
  {
    "epoch": 253,
    "D loss": 7.689585208892822,
    "D acc": 0.484375,
    "g loss": 0.0
  },
  {
    "epoch": 254,
    "D loss": 7.691274642944336,
    "D acc": 0.484375,
    "g loss": 0.0
  },
  {
    "epoch": 255,
    "D loss": 7.700937271118164,
    "D acc": 0.46875,
    "g loss": 0.0
  },
  {
    "epoch": 256,
    "D loss": 7.79988956451416,
    "D acc": 0.40625,
    "g loss": 0.0
  },
  {
    "epoch": 257,
    "D loss": 7.718358993530273,
    "D acc": 0.453125,
    "g loss": 0.0
  },
  {
    "epoch": 258,
    "D loss": 7.735557556152344,
    "D acc": 0.453125,
    "g loss": 0.0
  },
  {
    "epoch": 259,
    "D loss": 7.711071968078613,
    "D acc": 0.46875,
    "g loss": 0.0
  },
  {
    "epoch": 260,
    "D loss": 7.6803789138793945,
    "D acc": 0.484375,
    "g loss": 0.0
  },
  {
    "epoch": 261,
    "D loss": 7.706028461456299,
    "D acc": 0.46875,
    "g loss": 0.0
  },
  {
    "epoch": 262,
    "D loss": 7.666619300842285,
    "D acc": 0.5,
    "g loss": 0.0
  },
  {
    "epoch": 263,
    "D loss": 7.666619300842285,
    "D acc": 0.5,
    "g loss": 0.0
  },
  {
    "epoch": 264,
    "D loss": 7.690425872802734,
    "D acc": 0.46875,
    "g loss": 0.0
  },
  {
    "epoch": 265,
    "D loss": 7.7077155113220215,
    "D acc": 0.46875,
    "g loss": 0.0
  },
  {
    "epoch": 266,
    "D loss": 7.516341686248779,
    "D acc": 0.453125,
    "g loss": 0.05496758967638016
  },
  {
    "epoch": 267,
    "D loss": 7.705825328826904,
    "D acc": 0.46875,
    "g loss": 0.0
  },
  {
    "epoch": 268,
    "D loss": 7.685818672180176,
    "D acc": 0.484375,
    "g loss": 0.0
  },
  {
    "epoch": 269,
    "D loss": 7.666619300842285,
    "D acc": 0.5,
    "g loss": 0.0
  },
  {
    "epoch": 270,
    "D loss": 7.677356243133545,
    "D acc": 0.5,
    "g loss": 0.0
  },
  {
    "epoch": 271,
    "D loss": 7.709408283233643,
    "D acc": 0.46875,
    "g loss": 0.0
  },
  {
    "epoch": 272,
    "D loss": 7.709239482879639,
    "D acc": 0.46875,
    "g loss": 0.0
  },
  {
    "epoch": 273,
    "D loss": 7.728718280792236,
    "D acc": 0.453125,
    "g loss": 0.0
  },
  {
    "epoch": 274,
    "D loss": 7.666619300842285,
    "D acc": 0.5,
    "g loss": 0.0
  },
  {
    "epoch": 275,
    "D loss": 7.497412204742432,
    "D acc": 0.46875,
    "g loss": 0.006847875192761421
  },
  {
    "epoch": 276,
    "D loss": 7.709439277648926,
    "D acc": 0.46875,
    "g loss": 0.0
  },
  {
    "epoch": 277,
    "D loss": 7.7099995613098145,
    "D acc": 0.46875,
    "g loss": 0.0
  },
  {
    "epoch": 278,
    "D loss": 7.6704206466674805,
    "D acc": 0.5,
    "g loss": 0.0
  },
  {
    "epoch": 279,
    "D loss": 7.704890251159668,
    "D acc": 0.46875,
    "g loss": 0.0
  },
  {
    "epoch": 280,
    "D loss": 7.4733967781066895,
    "D acc": 0.484375,
    "g loss": 0.0074014728888869286
  },
  {
    "epoch": 281,
    "D loss": 7.7007737159729,
    "D acc": 0.484375,
    "g loss": 0.0
  },
  {
    "epoch": 282,
    "D loss": 7.68821907043457,
    "D acc": 0.484375,
    "g loss": 0.0
  },
  {
    "epoch": 283,
    "D loss": 7.68841028213501,
    "D acc": 0.484375,
    "g loss": 0.0
  },
  {
    "epoch": 284,
    "D loss": 7.666619300842285,
    "D acc": 0.5,
    "g loss": 0.0
  },
  {
    "epoch": 285,
    "D loss": 7.666619300842285,
    "D acc": 0.5,
    "g loss": 0.0
  },
  {
    "epoch": 286,
    "D loss": 7.667372226715088,
    "D acc": 0.5,
    "g loss": 0.0
  },
  {
    "epoch": 287,
    "D loss": 7.516931056976318,
    "D acc": 0.453125,
    "g loss": 0.05325884371995926
  },
  {
    "epoch": 288,
    "D loss": 7.666619300842285,
    "D acc": 0.5,
    "g loss": 0.0
  },
  {
    "epoch": 289,
    "D loss": 7.739405632019043,
    "D acc": 0.453125,
    "g loss": 0.0
  },
  {
    "epoch": 290,
    "D loss": 7.729266166687012,
    "D acc": 0.453125,
    "g loss": 0.0
  },
  {
    "epoch": 291,
    "D loss": 7.698482036590576,
    "D acc": 0.484375,
    "g loss": 0.0
  },
  {
    "epoch": 292,
    "D loss": 7.7473015785217285,
    "D acc": 0.4375,
    "g loss": 0.0
  },
  {
    "epoch": 293,
    "D loss": 7.696533679962158,
    "D acc": 0.484375,
    "g loss": 0.0
  },
  {
    "epoch": 294,
    "D loss": 7.728343963623047,
    "D acc": 0.453125,
    "g loss": 0.0
  },
  {
    "epoch": 295,
    "D loss": 7.745280742645264,
    "D acc": 0.4375,
    "g loss": 0.0
  },
  {
    "epoch": 296,
    "D loss": 7.688205718994141,
    "D acc": 0.484375,
    "g loss": 0.0
  },
  {
    "epoch": 297,
    "D loss": 7.686110496520996,
    "D acc": 0.484375,
    "g loss": 0.0
  },
  {
    "epoch": 298,
    "D loss": 7.666619300842285,
    "D acc": 0.5,
    "g loss": 0.0
  },
  {
    "epoch": 299,
    "D loss": 7.72272253036499,
    "D acc": 0.453125,
    "g loss": 0.0
  },
  {
    "epoch": 300,
    "D loss": 7.684364318847656,
    "D acc": 0.484375,
    "g loss": 0.0
  },
  {
    "epoch": 301,
    "D loss": 7.705305099487305,
    "D acc": 0.46875,
    "g loss": 0.0
  },
  {
    "epoch": 302,
    "D loss": 7.70693826675415,
    "D acc": 0.484375,
    "g loss": 0.0
  },
  {
    "epoch": 303,
    "D loss": 7.666619300842285,
    "D acc": 0.5,
    "g loss": 0.0
  },
  {
    "epoch": 304,
    "D loss": 7.704527854919434,
    "D acc": 0.46875,
    "g loss": 0.0
  },
  {
    "epoch": 305,
    "D loss": 7.687464237213135,
    "D acc": 0.484375,
    "g loss": 0.0
  },
  {
    "epoch": 306,
    "D loss": 7.684078216552734,
    "D acc": 0.484375,
    "g loss": 0.0
  },
  {
    "epoch": 307,
    "D loss": 7.694979190826416,
    "D acc": 0.484375,
    "g loss": 0.0
  },
  {
    "epoch": 308,
    "D loss": 7.728999137878418,
    "D acc": 0.453125,
    "g loss": 0.0
  },
  {
    "epoch": 309,
    "D loss": 7.707776069641113,
    "D acc": 0.46875,
    "g loss": 0.0
  },
  {
    "epoch": 310,
    "D loss": 7.685548782348633,
    "D acc": 0.484375,
    "g loss": 0.0
  },
  {
    "epoch": 311,
    "D loss": 7.723102569580078,
    "D acc": 0.453125,
    "g loss": 0.0
  },
  {
    "epoch": 312,
    "D loss": 7.703731060028076,
    "D acc": 0.46875,
    "g loss": 0.0
  },
  {
    "epoch": 313,
    "D loss": 7.687314510345459,
    "D acc": 0.484375,
    "g loss": 0.0
  },
  {
    "epoch": 314,
    "D loss": 7.756320953369141,
    "D acc": 0.421875,
    "g loss": 0.0
  },
  {
    "epoch": 315,
    "D loss": 7.707240581512451,
    "D acc": 0.46875,
    "g loss": 0.0
  },
  {
    "epoch": 316,
    "D loss": 7.703859329223633,
    "D acc": 0.46875,
    "g loss": 0.0
  },
  {
    "epoch": 317,
    "D loss": 7.703411102294922,
    "D acc": 0.46875,
    "g loss": 0.0
  },
  {
    "epoch": 318,
    "D loss": 7.686732769012451,
    "D acc": 0.484375,
    "g loss": 0.0
  },
  {
    "epoch": 319,
    "D loss": 7.6935505867004395,
    "D acc": 0.484375,
    "g loss": 0.0
  },
  {
    "epoch": 320,
    "D loss": 7.7602033615112305,
    "D acc": 0.421875,
    "g loss": 0.0
  },
  {
    "epoch": 321,
    "D loss": 7.70129919052124,
    "D acc": 0.46875,
    "g loss": 0.0
  },
  {
    "epoch": 322,
    "D loss": 7.666619300842285,
    "D acc": 0.5,
    "g loss": 0.0
  },
  {
    "epoch": 323,
    "D loss": 7.666619300842285,
    "D acc": 0.5,
    "g loss": 0.0
  },
  {
    "epoch": 324,
    "D loss": 7.757125377655029,
    "D acc": 0.421875,
    "g loss": 0.0
  },
  {
    "epoch": 325,
    "D loss": 7.7540202140808105,
    "D acc": 0.4375,
    "g loss": 0.0
  },
  {
    "epoch": 326,
    "D loss": 7.723550319671631,
    "D acc": 0.453125,
    "g loss": 0.0
  },
  {
    "epoch": 327,
    "D loss": 7.724853515625,
    "D acc": 0.453125,
    "g loss": 0.0
  },
  {
    "epoch": 328,
    "D loss": 7.685765266418457,
    "D acc": 0.484375,
    "g loss": 0.0
  },
  {
    "epoch": 329,
    "D loss": 7.7102952003479,
    "D acc": 0.46875,
    "g loss": 0.0
  },
  {
    "epoch": 330,
    "D loss": 7.708180904388428,
    "D acc": 0.46875,
    "g loss": 0.0
  },
  {
    "epoch": 331,
    "D loss": 7.721989631652832,
    "D acc": 0.453125,
    "g loss": 0.0
  },
  {
    "epoch": 332,
    "D loss": 7.70597505569458,
    "D acc": 0.46875,
    "g loss": 0.0
  },
  {
    "epoch": 333,
    "D loss": 7.666619300842285,
    "D acc": 0.5,
    "g loss": 0.0
  },
  {
    "epoch": 334,
    "D loss": 7.702525615692139,
    "D acc": 0.46875,
    "g loss": 0.0
  },
  {
    "epoch": 335,
    "D loss": 7.719965934753418,
    "D acc": 0.453125,
    "g loss": 0.0
  },
  {
    "epoch": 336,
    "D loss": 7.721236705780029,
    "D acc": 0.453125,
    "g loss": 0.0
  },
  {
    "epoch": 337,
    "D loss": 7.696230888366699,
    "D acc": 0.484375,
    "g loss": 0.0
  },
  {
    "epoch": 338,
    "D loss": 7.702428817749023,
    "D acc": 0.46875,
    "g loss": 0.0
  },
  {
    "epoch": 339,
    "D loss": 7.717787742614746,
    "D acc": 0.453125,
    "g loss": 0.0
  },
  {
    "epoch": 340,
    "D loss": 7.700793266296387,
    "D acc": 0.46875,
    "g loss": 0.0
  },
  {
    "epoch": 341,
    "D loss": 7.706180095672607,
    "D acc": 0.46875,
    "g loss": 0.0
  },
  {
    "epoch": 342,
    "D loss": 7.685300350189209,
    "D acc": 0.484375,
    "g loss": 0.0
  },
  {
    "epoch": 343,
    "D loss": 7.732173442840576,
    "D acc": 0.4375,
    "g loss": 0.0
  },
  {
    "epoch": 344,
    "D loss": 7.6739349365234375,
    "D acc": 0.5,
    "g loss": 0.0
  },
  {
    "epoch": 345,
    "D loss": 7.714786529541016,
    "D acc": 0.453125,
    "g loss": 0.0
  },
  {
    "epoch": 346,
    "D loss": 7.697873592376709,
    "D acc": 0.46875,
    "g loss": 0.0
  },
  {
    "epoch": 347,
    "D loss": 7.7024006843566895,
    "D acc": 0.46875,
    "g loss": 0.0
  },
  {
    "epoch": 348,
    "D loss": 7.764588832855225,
    "D acc": 0.421875,
    "g loss": 0.0
  },
  {
    "epoch": 349,
    "D loss": 7.666619300842285,
    "D acc": 0.5,
    "g loss": 0.0
  },
  {
    "epoch": 350,
    "D loss": 7.666619300842285,
    "D acc": 0.5,
    "g loss": 0.0
  },
  {
    "epoch": 351,
    "D loss": 7.682949542999268,
    "D acc": 0.484375,
    "g loss": 0.0
  },
  {
    "epoch": 352,
    "D loss": 7.666619300842285,
    "D acc": 0.5,
    "g loss": 0.0
  },
  {
    "epoch": 353,
    "D loss": 7.685060501098633,
    "D acc": 0.484375,
    "g loss": 0.0
  },
  {
    "epoch": 354,
    "D loss": 7.7162041664123535,
    "D acc": 0.453125,
    "g loss": 0.0
  },
  {
    "epoch": 355,
    "D loss": 7.684926509857178,
    "D acc": 0.484375,
    "g loss": 0.0
  },
  {
    "epoch": 356,
    "D loss": 7.728366851806641,
    "D acc": 0.4375,
    "g loss": 0.0
  },
  {
    "epoch": 357,
    "D loss": 7.684516429901123,
    "D acc": 0.484375,
    "g loss": 0.0
  },
  {
    "epoch": 358,
    "D loss": 7.698913097381592,
    "D acc": 0.46875,
    "g loss": 0.0
  },
  {
    "epoch": 359,
    "D loss": 7.6914238929748535,
    "D acc": 0.484375,
    "g loss": 0.0
  },
  {
    "epoch": 360,
    "D loss": 7.689297199249268,
    "D acc": 0.484375,
    "g loss": 0.0
  },
  {
    "epoch": 361,
    "D loss": 7.712539196014404,
    "D acc": 0.453125,
    "g loss": 0.0
  },
  {
    "epoch": 362,
    "D loss": 7.684491157531738,
    "D acc": 0.484375,
    "g loss": 0.0
  },
  {
    "epoch": 363,
    "D loss": 7.6989545822143555,
    "D acc": 0.46875,
    "g loss": 0.0
  },
  {
    "epoch": 364,
    "D loss": 7.7204108238220215,
    "D acc": 0.453125,
    "g loss": 0.0
  },
  {
    "epoch": 365,
    "D loss": 7.688565731048584,
    "D acc": 0.484375,
    "g loss": 0.0
  },
  {
    "epoch": 366,
    "D loss": 7.666619300842285,
    "D acc": 0.5,
    "g loss": 0.0
  },
  {
    "epoch": 367,
    "D loss": 7.747315406799316,
    "D acc": 0.421875,
    "g loss": 0.0
  },
  {
    "epoch": 368,
    "D loss": 7.688511371612549,
    "D acc": 0.484375,
    "g loss": 0.0
  },
  {
    "epoch": 369,
    "D loss": 7.728611469268799,
    "D acc": 0.4375,
    "g loss": 0.0
  },
  {
    "epoch": 370,
    "D loss": 7.69541072845459,
    "D acc": 0.46875,
    "g loss": 0.0
  },
  {
    "epoch": 371,
    "D loss": 7.7108330726623535,
    "D acc": 0.453125,
    "g loss": 0.0
  },
  {
    "epoch": 372,
    "D loss": 7.689647197723389,
    "D acc": 0.484375,
    "g loss": 0.0
  },
  {
    "epoch": 373,
    "D loss": 7.666619300842285,
    "D acc": 0.5,
    "g loss": 0.0
  },
  {
    "epoch": 374,
    "D loss": 7.696695804595947,
    "D acc": 0.46875,
    "g loss": 0.0
  },
  {
    "epoch": 375,
    "D loss": 7.6836442947387695,
    "D acc": 0.484375,
    "g loss": 0.0
  },
  {
    "epoch": 376,
    "D loss": 7.711809158325195,
    "D acc": 0.453125,
    "g loss": 0.0
  },
  {
    "epoch": 377,
    "D loss": 7.681381702423096,
    "D acc": 0.484375,
    "g loss": 0.0
  },
  {
    "epoch": 378,
    "D loss": 7.683655261993408,
    "D acc": 0.484375,
    "g loss": 0.0
  },
  {
    "epoch": 379,
    "D loss": 7.698135852813721,
    "D acc": 0.46875,
    "g loss": 0.0
  },
  {
    "epoch": 380,
    "D loss": 7.683557510375977,
    "D acc": 0.484375,
    "g loss": 0.0
  },
  {
    "epoch": 381,
    "D loss": 7.6818389892578125,
    "D acc": 0.484375,
    "g loss": 0.0
  },
  {
    "epoch": 382,
    "D loss": 7.683365821838379,
    "D acc": 0.484375,
    "g loss": 0.0
  },
  {
    "epoch": 383,
    "D loss": 7.701839923858643,
    "D acc": 0.46875,
    "g loss": 0.0
  },
  {
    "epoch": 384,
    "D loss": 7.706417560577393,
    "D acc": 0.46875,
    "g loss": 0.0
  },
  {
    "epoch": 385,
    "D loss": 7.699784755706787,
    "D acc": 0.46875,
    "g loss": 0.0
  },
  {
    "epoch": 386,
    "D loss": 7.69729471206665,
    "D acc": 0.46875,
    "g loss": 0.0
  },
  {
    "epoch": 387,
    "D loss": 7.697443008422852,
    "D acc": 0.46875,
    "g loss": 0.0
  },
  {
    "epoch": 388,
    "D loss": 7.698105812072754,
    "D acc": 0.46875,
    "g loss": 0.0
  },
  {
    "epoch": 389,
    "D loss": 7.666619300842285,
    "D acc": 0.5,
    "g loss": 0.0
  },
  {
    "epoch": 390,
    "D loss": 7.697874546051025,
    "D acc": 0.46875,
    "g loss": 0.0
  },
  {
    "epoch": 391,
    "D loss": 7.68134069442749,
    "D acc": 0.484375,
    "g loss": 0.0
  },
  {
    "epoch": 392,
    "D loss": 7.682830810546875,
    "D acc": 0.484375,
    "g loss": 0.0
  },
  {
    "epoch": 393,
    "D loss": 7.716394901275635,
    "D acc": 0.453125,
    "g loss": 0.0
  },
  {
    "epoch": 394,
    "D loss": 7.66667366027832,
    "D acc": 0.5,
    "g loss": 0.0
  },
  {
    "epoch": 395,
    "D loss": 7.4396514892578125,
    "D acc": 0.5,
    "g loss": 0.01853090710937977
  },
  {
    "epoch": 396,
    "D loss": 7.465264797210693,
    "D acc": 0.484375,
    "g loss": 0.03455105796456337
  },
  {
    "epoch": 397,
    "D loss": 7.671492576599121,
    "D acc": 0.5,
    "g loss": 0.0
  },
  {
    "epoch": 398,
    "D loss": 7.666619300842285,
    "D acc": 0.5,
    "g loss": 0.0
  },
  {
    "epoch": 399,
    "D loss": 7.6804914474487305,
    "D acc": 0.484375,
    "g loss": 0.0
  },
  {
    "epoch": 400,
    "D loss": 7.692946910858154,
    "D acc": 0.46875,
    "g loss": 0.0
  }
]