[
  {
    "epoch": 0,
    "D loss": 7.081892967224121,
    "D acc": 0.515625,
    "g loss": 0.07645674049854279
  },
  {
    "epoch": 1,
    "D loss": 3.835183620452881,
    "D acc": 0.515625,
    "g loss": 0.07386594265699387
  },
  {
    "epoch": 2,
    "D loss": 3.679628372192383,
    "D acc": 0.5,
    "g loss": 0.002999121556058526
  },
  {
    "epoch": 3,
    "D loss": 3.0159265995025635,
    "D acc": 0.5,
    "g loss": 0.011553056538105011
  },
  {
    "epoch": 4,
    "D loss": 2.937317371368408,
    "D acc": 0.5,
    "g loss": 0.007099964655935764
  },
  {
    "epoch": 5,
    "D loss": 2.505777597427368,
    "D acc": 0.546875,
    "g loss": 0.22431054711341858
  },
  {
    "epoch": 6,
    "D loss": 3.040695905685425,
    "D acc": 0.5,
    "g loss": 0.005798296071588993
  },
  {
    "epoch": 7,
    "D loss": 2.5627729892730713,
    "D acc": 0.515625,
    "g loss": 0.0551396906375885
  },
  {
    "epoch": 8,
    "D loss": 2.728121280670166,
    "D acc": 0.515625,
    "g loss": 0.05669931322336197
  },
  {
    "epoch": 9,
    "D loss": 2.5993497371673584,
    "D acc": 0.5,
    "g loss": 0.00821225717663765
  },
  {
    "epoch": 10,
    "D loss": 2.8456811904907227,
    "D acc": 0.5,
    "g loss": 0.02049352042376995
  },
  {
    "epoch": 11,
    "D loss": 2.57871675491333,
    "D acc": 0.5,
    "g loss": 0.008856615051627159
  },
  {
    "epoch": 12,
    "D loss": 2.131774663925171,
    "D acc": 0.5625,
    "g loss": 0.3287394642829895
  },
  {
    "epoch": 13,
    "D loss": 2.247553825378418,
    "D acc": 0.5,
    "g loss": 0.04073532670736313
  },
  {
    "epoch": 14,
    "D loss": 2.7172086238861084,
    "D acc": 0.515625,
    "g loss": 0.11101186275482178
  },
  {
    "epoch": 15,
    "D loss": 2.421327590942383,
    "D acc": 0.5,
    "g loss": 0.02706974931061268
  },
  {
    "epoch": 16,
    "D loss": 2.1404473781585693,
    "D acc": 0.515625,
    "g loss": 0.09011071920394897
  },
  {
    "epoch": 17,
    "D loss": 2.345336437225342,
    "D acc": 0.515625,
    "g loss": 0.08401217311620712
  },
  {
    "epoch": 18,
    "D loss": 2.7317733764648438,
    "D acc": 0.5,
    "g loss": 0.011438648216426373
  },
  {
    "epoch": 19,
    "D loss": 2.387077569961548,
    "D acc": 0.5,
    "g loss": 0.012180734425783157
  },
  {
    "epoch": 20,
    "D loss": 2.099870204925537,
    "D acc": 0.515625,
    "g loss": 0.08870615065097809
  },
  {
    "epoch": 21,
    "D loss": 2.40165376663208,
    "D acc": 0.53125,
    "g loss": 0.13491006195545197
  },
  {
    "epoch": 22,
    "D loss": 2.137848138809204,
    "D acc": 0.5,
    "g loss": 0.020227989181876183
  },
  {
    "epoch": 23,
    "D loss": 2.1503236293792725,
    "D acc": 0.53125,
    "g loss": 0.16795431077480316
  },
  {
    "epoch": 24,
    "D loss": 2.300788640975952,
    "D acc": 0.5,
    "g loss": 0.014325756579637527
  },
  {
    "epoch": 25,
    "D loss": 2.2575175762176514,
    "D acc": 0.5,
    "g loss": 0.017936378717422485
  },
  {
    "epoch": 26,
    "D loss": 2.10965633392334,
    "D acc": 0.53125,
    "g loss": 0.1660630702972412
  },
  {
    "epoch": 27,
    "D loss": 2.0564017295837402,
    "D acc": 0.5,
    "g loss": 0.02056073397397995
  },
  {
    "epoch": 28,
    "D loss": 2.3951170444488525,
    "D acc": 0.5,
    "g loss": 0.023269494995474815
  },
  {
    "epoch": 29,
    "D loss": 2.083846092224121,
    "D acc": 0.5,
    "g loss": 0.017246589064598083
  },
  {
    "epoch": 30,
    "D loss": 1.9950153827667236,
    "D acc": 0.515625,
    "g loss": 0.08957798779010773
  },
  {
    "epoch": 31,
    "D loss": 2.04809832572937,
    "D acc": 0.5,
    "g loss": 0.017671845853328705
  },
  {
    "epoch": 32,
    "D loss": 1.9700517654418945,
    "D acc": 0.515625,
    "g loss": 0.09130016714334488
  },
  {
    "epoch": 33,
    "D loss": 1.9306640625,
    "D acc": 0.515625,
    "g loss": 0.10491923987865448
  },
  {
    "epoch": 34,
    "D loss": 1.9591583013534546,
    "D acc": 0.515625,
    "g loss": 0.05902938172221184
  },
  {
    "epoch": 35,
    "D loss": 2.0066754817962646,
    "D acc": 0.5,
    "g loss": 0.01929163746535778
  },
  {
    "epoch": 36,
    "D loss": 2.4344260692596436,
    "D acc": 0.515625,
    "g loss": 0.05365820974111557
  },
  {
    "epoch": 37,
    "D loss": 1.9990543127059937,
    "D acc": 0.5,
    "g loss": 0.02708570286631584
  },
  {
    "epoch": 38,
    "D loss": 1.9623475074768066,
    "D acc": 0.5,
    "g loss": 0.020647786557674408
  },
  {
    "epoch": 39,
    "D loss": 2.0623977184295654,
    "D acc": 0.515625,
    "g loss": 0.09391851723194122
  },
  {
    "epoch": 40,
    "D loss": 1.852689504623413,
    "D acc": 0.515625,
    "g loss": 0.10959529131650925
  },
  {
    "epoch": 41,
    "D loss": 1.9549152851104736,
    "D acc": 0.484375,
    "g loss": 0.02178073301911354
  },
  {
    "epoch": 42,
    "D loss": 1.9242321252822876,
    "D acc": 0.46875,
    "g loss": 0.029599884524941444
  },
  {
    "epoch": 43,
    "D loss": 1.8770081996917725,
    "D acc": 0.5,
    "g loss": 0.09495417773723602
  },
  {
    "epoch": 44,
    "D loss": 1.8573782444000244,
    "D acc": 0.515625,
    "g loss": 0.09542758017778397
  },
  {
    "epoch": 45,
    "D loss": 1.8028678894042969,
    "D acc": 0.53125,
    "g loss": 0.13413812220096588
  },
  {
    "epoch": 46,
    "D loss": 1.7892570495605469,
    "D acc": 0.484375,
    "g loss": 0.10560663789510727
  },
  {
    "epoch": 47,
    "D loss": 1.8089077472686768,
    "D acc": 0.515625,
    "g loss": 0.09870466589927673
  },
  {
    "epoch": 48,
    "D loss": 1.9419373273849487,
    "D acc": 0.5,
    "g loss": 0.024170247837901115
  },
  {
    "epoch": 49,
    "D loss": 1.8719151020050049,
    "D acc": 0.5,
    "g loss": 0.024793704971671104
  },
  {
    "epoch": 50,
    "D loss": 1.8238753080368042,
    "D acc": 0.5,
    "g loss": 0.06001501530408859
  },
  {
    "epoch": 51,
    "D loss": 1.8169502019882202,
    "D acc": 0.5,
    "g loss": 0.03774823993444443
  },
  {
    "epoch": 52,
    "D loss": 1.8622372150421143,
    "D acc": 0.484375,
    "g loss": 0.025887764990329742
  },
  {
    "epoch": 53,
    "D loss": 1.8161442279815674,
    "D acc": 0.484375,
    "g loss": 0.0363636314868927
  },
  {
    "epoch": 54,
    "D loss": 1.932389736175537,
    "D acc": 0.515625,
    "g loss": 0.07223150134086609
  },
  {
    "epoch": 55,
    "D loss": 1.8434839248657227,
    "D acc": 0.46875,
    "g loss": 0.02908051386475563
  },
  {
    "epoch": 56,
    "D loss": 1.805441975593567,
    "D acc": 0.5,
    "g loss": 0.030024290084838867
  },
  {
    "epoch": 57,
    "D loss": 1.8298957347869873,
    "D acc": 0.5,
    "g loss": 0.027677584439516068
  },
  {
    "epoch": 58,
    "D loss": 1.7846299409866333,
    "D acc": 0.515625,
    "g loss": 0.10051867365837097
  },
  {
    "epoch": 59,
    "D loss": 1.8110620975494385,
    "D acc": 0.484375,
    "g loss": 0.028836797922849655
  },
  {
    "epoch": 60,
    "D loss": 1.6931058168411255,
    "D acc": 0.53125,
    "g loss": 0.17379821836948395
  },
  {
    "epoch": 61,
    "D loss": 1.7894431352615356,
    "D acc": 0.484375,
    "g loss": 0.030972043052315712
  },
  {
    "epoch": 62,
    "D loss": 1.7679365873336792,
    "D acc": 0.484375,
    "g loss": 0.043525516986846924
  },
  {
    "epoch": 63,
    "D loss": 1.9377357959747314,
    "D acc": 0.5,
    "g loss": 0.03547639772295952
  },
  {
    "epoch": 64,
    "D loss": 1.7478917837142944,
    "D acc": 0.5,
    "g loss": 0.10258640348911285
  },
  {
    "epoch": 65,
    "D loss": 1.7852957248687744,
    "D acc": 0.484375,
    "g loss": 0.03031281940639019
  },
  {
    "epoch": 66,
    "D loss": 1.7005828619003296,
    "D acc": 0.484375,
    "g loss": 0.12041296064853668
  },
  {
    "epoch": 67,
    "D loss": 1.6120693683624268,
    "D acc": 0.546875,
    "g loss": 0.21187254786491394
  },
  {
    "epoch": 68,
    "D loss": 1.7561748027801514,
    "D acc": 0.484375,
    "g loss": 0.03598897159099579
  },
  {
    "epoch": 69,
    "D loss": 1.6240788698196411,
    "D acc": 0.515625,
    "g loss": 0.19363665580749512
  },
  {
    "epoch": 70,
    "D loss": 1.7147159576416016,
    "D acc": 0.5,
    "g loss": 0.04388465732336044
  },
  {
    "epoch": 71,
    "D loss": 1.747641682624817,
    "D acc": 0.5,
    "g loss": 0.03385968878865242
  },
  {
    "epoch": 72,
    "D loss": 1.7296966314315796,
    "D acc": 0.5,
    "g loss": 0.0346217155456543
  },
  {
    "epoch": 73,
    "D loss": 1.7344011068344116,
    "D acc": 0.5,
    "g loss": 0.03290749713778496
  },
  {
    "epoch": 74,
    "D loss": 1.9101064205169678,
    "D acc": 0.515625,
    "g loss": 0.104762002825737
  },
  {
    "epoch": 75,
    "D loss": 1.678613543510437,
    "D acc": 0.515625,
    "g loss": 0.10642530024051666
  },
  {
    "epoch": 76,
    "D loss": 1.7207300662994385,
    "D acc": 0.5,
    "g loss": 0.03407054394483566
  },
  {
    "epoch": 77,
    "D loss": 1.6803910732269287,
    "D acc": 0.484375,
    "g loss": 0.04171779751777649
  },
  {
    "epoch": 78,
    "D loss": 1.736925721168518,
    "D acc": 0.46875,
    "g loss": 0.03471829369664192
  },
  {
    "epoch": 79,
    "D loss": 1.7131221294403076,
    "D acc": 0.484375,
    "g loss": 0.03558904677629471
  },
  {
    "epoch": 80,
    "D loss": 1.6731914281845093,
    "D acc": 0.515625,
    "g loss": 0.06252849847078323
  },
  {
    "epoch": 81,
    "D loss": 1.624115228652954,
    "D acc": 0.5,
    "g loss": 0.18116167187690735
  },
  {
    "epoch": 82,
    "D loss": 1.71218740940094,
    "D acc": 0.484375,
    "g loss": 0.03598718345165253
  },
  {
    "epoch": 83,
    "D loss": 1.6853591203689575,
    "D acc": 0.5,
    "g loss": 0.036716192960739136
  },
  {
    "epoch": 84,
    "D loss": 1.682919979095459,
    "D acc": 0.484375,
    "g loss": 0.03822341561317444
  },
  {
    "epoch": 85,
    "D loss": 1.6583446264266968,
    "D acc": 0.484375,
    "g loss": 0.1097111701965332
  },
  {
    "epoch": 86,
    "D loss": 1.8676308393478394,
    "D acc": 0.5,
    "g loss": 0.038398370146751404
  },
  {
    "epoch": 87,
    "D loss": 1.661689043045044,
    "D acc": 0.5,
    "g loss": 0.040749385952949524
  },
  {
    "epoch": 88,
    "D loss": 1.6273115873336792,
    "D acc": 0.5,
    "g loss": 0.05692404508590698
  },
  {
    "epoch": 89,
    "D loss": 1.6627172231674194,
    "D acc": 0.5,
    "g loss": 0.03818265721201897
  },
  {
    "epoch": 90,
    "D loss": 1.5643068552017212,
    "D acc": 0.53125,
    "g loss": 0.12447351217269897
  },
  {
    "epoch": 91,
    "D loss": 1.6023091077804565,
    "D acc": 0.5,
    "g loss": 0.07178434729576111
  },
  {
    "epoch": 92,
    "D loss": 1.6264231204986572,
    "D acc": 0.5,
    "g loss": 0.04508965462446213
  },
  {
    "epoch": 93,
    "D loss": 1.612546682357788,
    "D acc": 0.5,
    "g loss": 0.0544004812836647
  },
  {
    "epoch": 94,
    "D loss": 1.6488882303237915,
    "D acc": 0.5,
    "g loss": 0.04306474328041077
  },
  {
    "epoch": 95,
    "D loss": 1.6362464427947998,
    "D acc": 0.5,
    "g loss": 0.041554927825927734
  },
  {
    "epoch": 96,
    "D loss": 1.6470900774002075,
    "D acc": 0.5,
    "g loss": 0.040313269942998886
  },
  {
    "epoch": 97,
    "D loss": 1.641546368598938,
    "D acc": 0.5,
    "g loss": 0.04062465950846672
  },
  {
    "epoch": 98,
    "D loss": 1.682159423828125,
    "D acc": 0.453125,
    "g loss": 0.0409354567527771
  },
  {
    "epoch": 99,
    "D loss": 1.6326348781585693,
    "D acc": 0.5,
    "g loss": 0.04523798078298569
  },
  {
    "epoch": 100,
    "D loss": 1.6417779922485352,
    "D acc": 0.484375,
    "g loss": 0.05194255709648132
  },
  {
    "epoch": 101,
    "D loss": 1.614677906036377,
    "D acc": 0.5,
    "g loss": 0.04395483434200287
  },
  {
    "epoch": 102,
    "D loss": 1.6260896921157837,
    "D acc": 0.5,
    "g loss": 0.04215245693922043
  },
  {
    "epoch": 103,
    "D loss": 1.6491894721984863,
    "D acc": 0.5,
    "g loss": 0.04392457380890846
  },
  {
    "epoch": 104,
    "D loss": 1.6236035823822021,
    "D acc": 0.484375,
    "g loss": 0.04318586736917496
  },
  {
    "epoch": 105,
    "D loss": 1.5714919567108154,
    "D acc": 0.46875,
    "g loss": 0.06443268060684204
  },
  {
    "epoch": 106,
    "D loss": 1.6129553318023682,
    "D acc": 0.5,
    "g loss": 0.043528687208890915
  },
  {
    "epoch": 107,
    "D loss": 1.4906679391860962,
    "D acc": 0.515625,
    "g loss": 0.1421068161725998
  },
  {
    "epoch": 108,
    "D loss": 1.604772925376892,
    "D acc": 0.5,
    "g loss": 0.043998271226882935
  },
  {
    "epoch": 109,
    "D loss": 1.5958387851715088,
    "D acc": 0.5,
    "g loss": 0.05081028863787651
  },
  {
    "epoch": 110,
    "D loss": 1.5922718048095703,
    "D acc": 0.5,
    "g loss": 0.04459165781736374
  },
  {
    "epoch": 111,
    "D loss": 1.5933566093444824,
    "D acc": 0.5,
    "g loss": 0.044892407953739166
  },
  {
    "epoch": 112,
    "D loss": 1.6006497144699097,
    "D acc": 0.5,
    "g loss": 0.04519306495785713
  },
  {
    "epoch": 113,
    "D loss": 1.5847816467285156,
    "D acc": 0.5,
    "g loss": 0.04550168663263321
  },
  {
    "epoch": 114,
    "D loss": 1.5933952331542969,
    "D acc": 0.484375,
    "g loss": 0.04579414799809456
  },
  {
    "epoch": 115,
    "D loss": 1.5743651390075684,
    "D acc": 0.5,
    "g loss": 0.046093884855508804
  },
  {
    "epoch": 116,
    "D loss": 1.5742193460464478,
    "D acc": 0.484375,
    "g loss": 0.04781237244606018
  },
  {
    "epoch": 117,
    "D loss": 1.5821439027786255,
    "D acc": 0.484375,
    "g loss": 0.04672856628894806
  },
  {
    "epoch": 118,
    "D loss": 1.5544480085372925,
    "D acc": 0.484375,
    "g loss": 0.06744927912950516
  },
  {
    "epoch": 119,
    "D loss": 1.514212727546692,
    "D acc": 0.515625,
    "g loss": 0.0774017870426178
  },
  {
    "epoch": 120,
    "D loss": 1.5800522565841675,
    "D acc": 0.484375,
    "g loss": 0.04755368456244469
  },
  {
    "epoch": 121,
    "D loss": 1.55982506275177,
    "D acc": 0.5,
    "g loss": 0.04784795269370079
  },
  {
    "epoch": 122,
    "D loss": 1.5708802938461304,
    "D acc": 0.484375,
    "g loss": 0.0481429323554039
  },
  {
    "epoch": 123,
    "D loss": 1.5142507553100586,
    "D acc": 0.515625,
    "g loss": 0.12148623168468475
  },
  {
    "epoch": 124,
    "D loss": 1.5137172937393188,
    "D acc": 0.515625,
    "g loss": 0.07773979008197784
  },
  {
    "epoch": 125,
    "D loss": 1.518080234527588,
    "D acc": 0.5,
    "g loss": 0.05894070491194725
  },
  {
    "epoch": 126,
    "D loss": 1.5366467237472534,
    "D acc": 0.46875,
    "g loss": 0.07559934258460999
  },
  {
    "epoch": 127,
    "D loss": 1.562220573425293,
    "D acc": 0.5,
    "g loss": 0.04957440868020058
  },
  {
    "epoch": 128,
    "D loss": 1.540809154510498,
    "D acc": 0.5,
    "g loss": 0.051585741341114044
  },
  {
    "epoch": 129,
    "D loss": 1.5368826389312744,
    "D acc": 0.5,
    "g loss": 0.05015130713582039
  },
  {
    "epoch": 130,
    "D loss": 1.5230342149734497,
    "D acc": 0.5,
    "g loss": 0.05212362855672836
  },
  {
    "epoch": 131,
    "D loss": 1.5540530681610107,
    "D acc": 0.5,
    "g loss": 0.05251147598028183
  },
  {
    "epoch": 132,
    "D loss": 1.4792529344558716,
    "D acc": 0.515625,
    "g loss": 0.09310512989759445
  },
  {
    "epoch": 133,
    "D loss": 1.5221396684646606,
    "D acc": 0.5,
    "g loss": 0.05208485573530197
  },
  {
    "epoch": 134,
    "D loss": 1.517907738685608,
    "D acc": 0.5,
    "g loss": 0.052777111530303955
  },
  {
    "epoch": 135,
    "D loss": 1.4798271656036377,
    "D acc": 0.515625,
    "g loss": 0.12498889118432999
  },
  {
    "epoch": 136,
    "D loss": 1.5419952869415283,
    "D acc": 0.5,
    "g loss": 0.052133709192276
  },
  {
    "epoch": 137,
    "D loss": 1.5229029655456543,
    "D acc": 0.5,
    "g loss": 0.052419714629650116
  },
  {
    "epoch": 138,
    "D loss": 1.5013184547424316,
    "D acc": 0.5,
    "g loss": 0.054682016372680664
  },
  {
    "epoch": 139,
    "D loss": 1.5241730213165283,
    "D acc": 0.5,
    "g loss": 0.05298851802945137
  },
  {
    "epoch": 140,
    "D loss": 1.523356556892395,
    "D acc": 0.5,
    "g loss": 0.05333814024925232
  },
  {
    "epoch": 141,
    "D loss": 1.5101593732833862,
    "D acc": 0.5,
    "g loss": 0.05355890467762947
  },
  {
    "epoch": 142,
    "D loss": 1.4776415824890137,
    "D acc": 0.5,
    "g loss": 0.08504658192396164
  },
  {
    "epoch": 143,
    "D loss": 1.511115550994873,
    "D acc": 0.5,
    "g loss": 0.05463996157050133
  },
  {
    "epoch": 144,
    "D loss": 1.478796362876892,
    "D acc": 0.5,
    "g loss": 0.05902884900569916
  },
  {
    "epoch": 145,
    "D loss": 1.4541159868240356,
    "D acc": 0.5,
    "g loss": 0.07580141723155975
  },
  {
    "epoch": 146,
    "D loss": 1.4987819194793701,
    "D acc": 0.5,
    "g loss": 0.05494708940386772
  },
  {
    "epoch": 147,
    "D loss": 1.48956298828125,
    "D acc": 0.5,
    "g loss": 0.05606522411108017
  },
  {
    "epoch": 148,
    "D loss": 1.493775486946106,
    "D acc": 0.5,
    "g loss": 0.058694399893283844
  },
  {
    "epoch": 149,
    "D loss": 1.4882965087890625,
    "D acc": 0.5,
    "g loss": 0.055783070623874664
  },
  {
    "epoch": 150,
    "D loss": 1.4392516613006592,
    "D acc": 0.515625,
    "g loss": 0.1293044239282608
  },
  {
    "epoch": 151,
    "D loss": 1.4810267686843872,
    "D acc": 0.5,
    "g loss": 0.056337203830480576
  },
  {
    "epoch": 152,
    "D loss": 1.4845964908599854,
    "D acc": 0.5,
    "g loss": 0.056617096066474915
  },
  {
    "epoch": 153,
    "D loss": 1.4341466426849365,
    "D acc": 0.515625,
    "g loss": 0.1301584541797638
  },
  {
    "epoch": 154,
    "D loss": 1.3830596208572388,
    "D acc": 0.53125,
    "g loss": 0.12144634127616882
  },
  {
    "epoch": 155,
    "D loss": 1.47809898853302,
    "D acc": 0.5,
    "g loss": 0.05742581561207771
  },
  {
    "epoch": 156,
    "D loss": 1.4850528240203857,
    "D acc": 0.5,
    "g loss": 0.05770178511738777
  },
  {
    "epoch": 157,
    "D loss": 1.4786404371261597,
    "D acc": 0.5,
    "g loss": 0.05797959864139557
  },
  {
    "epoch": 158,
    "D loss": 1.4763007164001465,
    "D acc": 0.5,
    "g loss": 0.05825723707675934
  },
  {
    "epoch": 159,
    "D loss": 1.4667102098464966,
    "D acc": 0.5,
    "g loss": 0.058535076677799225
  },
  {
    "epoch": 160,
    "D loss": 1.4735403060913086,
    "D acc": 0.5,
    "g loss": 0.05889178067445755
  },
  {
    "epoch": 161,
    "D loss": 1.410283088684082,
    "D acc": 0.515625,
    "g loss": 0.10759012401103973
  },
  {
    "epoch": 162,
    "D loss": 1.4573249816894531,
    "D acc": 0.5,
    "g loss": 0.06004296988248825
  },
  {
    "epoch": 163,
    "D loss": 1.4561799764633179,
    "D acc": 0.5,
    "g loss": 0.05962317809462547
  },
  {
    "epoch": 164,
    "D loss": 1.452867031097412,
    "D acc": 0.5,
    "g loss": 0.05989842489361763
  },
  {
    "epoch": 165,
    "D loss": 1.4535894393920898,
    "D acc": 0.5,
    "g loss": 0.06017399951815605
  },
  {
    "epoch": 166,
    "D loss": 1.451489806175232,
    "D acc": 0.5,
    "g loss": 0.06044958904385567
  },
  {
    "epoch": 167,
    "D loss": 1.4481260776519775,
    "D acc": 0.5,
    "g loss": 0.060819968581199646
  },
  {
    "epoch": 168,
    "D loss": 1.4016494750976562,
    "D acc": 0.515625,
    "g loss": 0.12487141042947769
  },
  {
    "epoch": 169,
    "D loss": 1.4468331336975098,
    "D acc": 0.5,
    "g loss": 0.061263564974069595
  },
  {
    "epoch": 170,
    "D loss": 1.4040896892547607,
    "D acc": 0.515625,
    "g loss": 0.09266956150531769
  },
  {
    "epoch": 171,
    "D loss": 1.4072465896606445,
    "D acc": 0.5,
    "g loss": 0.07000245898962021
  },
  {
    "epoch": 172,
    "D loss": 1.4453085660934448,
    "D acc": 0.5,
    "g loss": 0.06206076964735985
  },
  {
    "epoch": 173,
    "D loss": 1.3952393531799316,
    "D acc": 0.515625,
    "g loss": 0.1034870594739914
  },
  {
    "epoch": 174,
    "D loss": 1.4347333908081055,
    "D acc": 0.5,
    "g loss": 0.06259529292583466
  },
  {
    "epoch": 175,
    "D loss": 1.3793078660964966,
    "D acc": 0.515625,
    "g loss": 0.13863837718963623
  },
  {
    "epoch": 176,
    "D loss": 1.432328462600708,
    "D acc": 0.5,
    "g loss": 0.06312515586614609
  },
  {
    "epoch": 177,
    "D loss": 1.43142831325531,
    "D acc": 0.5,
    "g loss": 0.06339463591575623
  },
  {
    "epoch": 178,
    "D loss": 1.387183666229248,
    "D acc": 0.515625,
    "g loss": 0.13719820976257324
  },
  {
    "epoch": 179,
    "D loss": 1.4352575540542603,
    "D acc": 0.5,
    "g loss": 0.06394220888614655
  },
  {
    "epoch": 180,
    "D loss": 1.4254173040390015,
    "D acc": 0.5,
    "g loss": 0.06419607996940613
  },
  {
    "epoch": 181,
    "D loss": 1.4116075038909912,
    "D acc": 0.5,
    "g loss": 0.06805571913719177
  },
  {
    "epoch": 182,
    "D loss": 1.417541265487671,
    "D acc": 0.5,
    "g loss": 0.0647299736738205
  },
  {
    "epoch": 183,
    "D loss": 1.4192757606506348,
    "D acc": 0.5,
    "g loss": 0.06499874591827393
  },
  {
    "epoch": 184,
    "D loss": 1.4136589765548706,
    "D acc": 0.5,
    "g loss": 0.06526751816272736
  },
  {
    "epoch": 185,
    "D loss": 1.4131819009780884,
    "D acc": 0.5,
    "g loss": 0.06553573161363602
  },
  {
    "epoch": 186,
    "D loss": 1.4007084369659424,
    "D acc": 0.5,
    "g loss": 0.06753264367580414
  },
  {
    "epoch": 187,
    "D loss": 1.3942681550979614,
    "D acc": 0.5,
    "g loss": 0.07192400842905045
  },
  {
    "epoch": 188,
    "D loss": 1.4117140769958496,
    "D acc": 0.5,
    "g loss": 0.06632965803146362
  },
  {
    "epoch": 189,
    "D loss": 1.6005561351776123,
    "D acc": 0.5,
    "g loss": 0.06451135873794556
  },
  {
    "epoch": 190,
    "D loss": 1.4040114879608154,
    "D acc": 0.5,
    "g loss": 0.06777508556842804
  },
  {
    "epoch": 191,
    "D loss": 1.39823579788208,
    "D acc": 0.5,
    "g loss": 0.0671687126159668
  },
  {
    "epoch": 192,
    "D loss": 1.5971633195877075,
    "D acc": 0.5,
    "g loss": 0.06527535617351532
  },
  {
    "epoch": 193,
    "D loss": 1.5923272371292114,
    "D acc": 0.5,
    "g loss": 0.06552647054195404
  },
  {
    "epoch": 194,
    "D loss": 1.3992421627044678,
    "D acc": 0.5,
    "g loss": 0.06790141761302948
  },
  {
    "epoch": 195,
    "D loss": 1.3830589056015015,
    "D acc": 0.5,
    "g loss": 0.0725506842136383
  },
  {
    "epoch": 196,
    "D loss": 1.3957479000091553,
    "D acc": 0.5,
    "g loss": 0.06842484325170517
  },
  {
    "epoch": 197,
    "D loss": 1.3685922622680664,
    "D acc": 0.5,
    "g loss": 0.08812327682971954
  },
  {
    "epoch": 198,
    "D loss": 1.3883968591690063,
    "D acc": 0.5,
    "g loss": 0.06894624978303909
  },
  {
    "epoch": 199,
    "D loss": 1.3849952220916748,
    "D acc": 0.5,
    "g loss": 0.07005289196968079
  },
  {
    "epoch": 200,
    "D loss": 1.386732816696167,
    "D acc": 0.5,
    "g loss": 0.0694713145494461
  },
  {
    "epoch": 201,
    "D loss": 1.3851584196090698,
    "D acc": 0.5,
    "g loss": 0.06973458081483841
  },
  {
    "epoch": 202,
    "D loss": 1.3804576396942139,
    "D acc": 0.5,
    "g loss": 0.07063791900873184
  },
  {
    "epoch": 203,
    "D loss": 1.3786301612854004,
    "D acc": 0.5,
    "g loss": 0.07025960832834244
  },
  {
    "epoch": 204,
    "D loss": 1.3828556537628174,
    "D acc": 0.5,
    "g loss": 0.07052174210548401
  },
  {
    "epoch": 205,
    "D loss": 1.3703371286392212,
    "D acc": 0.5,
    "g loss": 0.07240437716245651
  },
  {
    "epoch": 206,
    "D loss": 1.3656961917877197,
    "D acc": 0.5,
    "g loss": 0.09283837676048279
  },
  {
    "epoch": 207,
    "D loss": 1.3789340257644653,
    "D acc": 0.5,
    "g loss": 0.07129909843206406
  },
  {
    "epoch": 208,
    "D loss": 1.374840497970581,
    "D acc": 0.5,
    "g loss": 0.07155996561050415
  },
  {
    "epoch": 209,
    "D loss": 1.3742555379867554,
    "D acc": 0.5,
    "g loss": 0.07182078063488007
  },
  {
    "epoch": 210,
    "D loss": 1.3688857555389404,
    "D acc": 0.5,
    "g loss": 0.07208172976970673
  },
  {
    "epoch": 211,
    "D loss": 1.332422137260437,
    "D acc": 0.515625,
    "g loss": 0.1033666729927063
  },
  {
    "epoch": 212,
    "D loss": 1.3691191673278809,
    "D acc": 0.5,
    "g loss": 0.07259510457515717
  },
  {
    "epoch": 213,
    "D loss": 1.3653044700622559,
    "D acc": 0.5,
    "g loss": 0.07285387814044952
  },
  {
    "epoch": 214,
    "D loss": 1.3237615823745728,
    "D acc": 0.515625,
    "g loss": 0.14680159091949463
  },
  {
    "epoch": 215,
    "D loss": 1.560271978378296,
    "D acc": 0.5,
    "g loss": 0.07106883823871613
  },
  {
    "epoch": 216,
    "D loss": 1.359438180923462,
    "D acc": 0.5,
    "g loss": 0.073616623878479
  },
  {
    "epoch": 217,
    "D loss": 1.3587908744812012,
    "D acc": 0.5,
    "g loss": 0.07387521117925644
  },
  {
    "epoch": 218,
    "D loss": 1.3544284105300903,
    "D acc": 0.5,
    "g loss": 0.07465647161006927
  },
  {
    "epoch": 219,
    "D loss": 1.3579643964767456,
    "D acc": 0.5,
    "g loss": 0.0743902176618576
  },
  {
    "epoch": 220,
    "D loss": 1.355932354927063,
    "D acc": 0.5,
    "g loss": 0.07471393048763275
  },
  {
    "epoch": 221,
    "D loss": 1.3549330234527588,
    "D acc": 0.5,
    "g loss": 0.07490477710962296
  },
  {
    "epoch": 222,
    "D loss": 1.3501508235931396,
    "D acc": 0.5,
    "g loss": 0.07516255229711533
  },
  {
    "epoch": 223,
    "D loss": 1.3534237146377563,
    "D acc": 0.5,
    "g loss": 0.07577016949653625
  },
  {
    "epoch": 224,
    "D loss": 1.3485651016235352,
    "D acc": 0.5,
    "g loss": 0.0756751298904419
  },
  {
    "epoch": 225,
    "D loss": 1.3475028276443481,
    "D acc": 0.5,
    "g loss": 0.07593200355768204
  },
  {
    "epoch": 226,
    "D loss": 1.3471487760543823,
    "D acc": 0.5,
    "g loss": 0.07618829607963562
  },
  {
    "epoch": 227,
    "D loss": 1.3417823314666748,
    "D acc": 0.5,
    "g loss": 0.0764453113079071
  },
  {
    "epoch": 228,
    "D loss": 1.340831995010376,
    "D acc": 0.5,
    "g loss": 0.07705435901880264
  },
  {
    "epoch": 229,
    "D loss": 1.2919120788574219,
    "D acc": 0.5,
    "g loss": 0.10143764317035675
  },
  {
    "epoch": 230,
    "D loss": 1.3394176959991455,
    "D acc": 0.5,
    "g loss": 0.07720087468624115
  },
  {
    "epoch": 231,
    "D loss": 1.3359360694885254,
    "D acc": 0.5,
    "g loss": 0.07749469578266144
  },
  {
    "epoch": 232,
    "D loss": 1.337046504020691,
    "D acc": 0.5,
    "g loss": 0.07771018892526627
  },
  {
    "epoch": 233,
    "D loss": 1.3307641744613647,
    "D acc": 0.5,
    "g loss": 0.07831842452287674
  },
  {
    "epoch": 234,
    "D loss": 1.3337061405181885,
    "D acc": 0.5,
    "g loss": 0.07821924239397049
  },
  {
    "epoch": 235,
    "D loss": 1.3330026865005493,
    "D acc": 0.5,
    "g loss": 0.07854805886745453
  },
  {
    "epoch": 236,
    "D loss": 1.264777421951294,
    "D acc": 0.53125,
    "g loss": 0.1307634860277176
  },
  {
    "epoch": 237,
    "D loss": 1.3292012214660645,
    "D acc": 0.5,
    "g loss": 0.07896764576435089
  },
  {
    "epoch": 238,
    "D loss": 1.3296244144439697,
    "D acc": 0.5,
    "g loss": 0.07921942323446274
  },
  {
    "epoch": 239,
    "D loss": 1.329517126083374,
    "D acc": 0.5,
    "g loss": 0.07947199046611786
  },
  {
    "epoch": 240,
    "D loss": 1.3242623805999756,
    "D acc": 0.5,
    "g loss": 0.07972479611635208
  },
  {
    "epoch": 241,
    "D loss": 1.322536826133728,
    "D acc": 0.5,
    "g loss": 0.07997800409793854
  },
  {
    "epoch": 242,
    "D loss": 1.3055845499038696,
    "D acc": 0.5,
    "g loss": 0.086839959025383
  },
  {
    "epoch": 243,
    "D loss": 1.284624457359314,
    "D acc": 0.515625,
    "g loss": 0.15436682105064392
  },
  {
    "epoch": 244,
    "D loss": 1.2798023223876953,
    "D acc": 0.515625,
    "g loss": 0.1546180248260498
  },
  {
    "epoch": 245,
    "D loss": 1.3194735050201416,
    "D acc": 0.5,
    "g loss": 0.08096566051244736
  },
  {
    "epoch": 246,
    "D loss": 1.3059152364730835,
    "D acc": 0.5,
    "g loss": 0.1089230328798294
  },
  {
    "epoch": 247,
    "D loss": 1.3164494037628174,
    "D acc": 0.5,
    "g loss": 0.08146345615386963
  },
  {
    "epoch": 248,
    "D loss": 1.3035449981689453,
    "D acc": 0.5,
    "g loss": 0.08353380858898163
  },
  {
    "epoch": 249,
    "D loss": 1.3129748106002808,
    "D acc": 0.5,
    "g loss": 0.081962451338768
  },
  {
    "epoch": 250,
    "D loss": 1.2717639207839966,
    "D acc": 0.515625,
    "g loss": 0.1561514437198639
  },
  {
    "epoch": 251,
    "D loss": 1.3104054927825928,
    "D acc": 0.5,
    "g loss": 0.0824577584862709
  },
  {
    "epoch": 252,
    "D loss": 1.3096482753753662,
    "D acc": 0.5,
    "g loss": 0.08270744979381561
  },
  {
    "epoch": 253,
    "D loss": 1.3070168495178223,
    "D acc": 0.5,
    "g loss": 0.08295725286006927
  },
  {
    "epoch": 254,
    "D loss": 1.2962404489517212,
    "D acc": 0.5,
    "g loss": 0.08615722507238388
  },
  {
    "epoch": 255,
    "D loss": 1.3037514686584473,
    "D acc": 0.5,
    "g loss": 0.08345364034175873
  },
  {
    "epoch": 256,
    "D loss": 1.2798656225204468,
    "D acc": 0.5,
    "g loss": 0.09307016432285309
  },
  {
    "epoch": 257,
    "D loss": 1.2814726829528809,
    "D acc": 0.5,
    "g loss": 0.09674838185310364
  },
  {
    "epoch": 258,
    "D loss": 1.2980928421020508,
    "D acc": 0.5,
    "g loss": 0.08419111371040344
  },
  {
    "epoch": 259,
    "D loss": 1.3019431829452515,
    "D acc": 0.5,
    "g loss": 0.0844392254948616
  },
  {
    "epoch": 260,
    "D loss": 1.2953557968139648,
    "D acc": 0.5,
    "g loss": 0.08468830585479736
  },
  {
    "epoch": 261,
    "D loss": 1.297954797744751,
    "D acc": 0.5,
    "g loss": 0.08493679761886597
  },
  {
    "epoch": 262,
    "D loss": 1.293943166732788,
    "D acc": 0.5,
    "g loss": 0.08518560975790024
  },
  {
    "epoch": 263,
    "D loss": 1.2939362525939941,
    "D acc": 0.5,
    "g loss": 0.0854337066411972
  },
  {
    "epoch": 264,
    "D loss": 1.2889602184295654,
    "D acc": 0.5,
    "g loss": 0.08568263798952103
  },
  {
    "epoch": 265,
    "D loss": 1.290713906288147,
    "D acc": 0.5,
    "g loss": 0.08602205663919449
  },
  {
    "epoch": 266,
    "D loss": 1.2887309789657593,
    "D acc": 0.5,
    "g loss": 0.08617829531431198
  },
  {
    "epoch": 267,
    "D loss": 1.2657170295715332,
    "D acc": 0.5,
    "g loss": 0.1211487427353859
  },
  {
    "epoch": 268,
    "D loss": 1.2871558666229248,
    "D acc": 0.5,
    "g loss": 0.08666828274726868
  },
  {
    "epoch": 269,
    "D loss": 1.2858631610870361,
    "D acc": 0.5,
    "g loss": 0.0869145393371582
  },
  {
    "epoch": 270,
    "D loss": 1.2833188772201538,
    "D acc": 0.5,
    "g loss": 0.08716215938329697
  },
  {
    "epoch": 271,
    "D loss": 1.286044955253601,
    "D acc": 0.5,
    "g loss": 0.08741728961467743
  },
  {
    "epoch": 272,
    "D loss": 1.2835707664489746,
    "D acc": 0.5,
    "g loss": 0.08765509724617004
  },
  {
    "epoch": 273,
    "D loss": 1.2429711818695068,
    "D acc": 0.515625,
    "g loss": 0.16199931502342224
  },
  {
    "epoch": 274,
    "D loss": 1.2764214277267456,
    "D acc": 0.5,
    "g loss": 0.08814150840044022
  },
  {
    "epoch": 275,
    "D loss": 1.277457356452942,
    "D acc": 0.5,
    "g loss": 0.08838741481304169
  },
  {
    "epoch": 276,
    "D loss": 1.271012783050537,
    "D acc": 0.5,
    "g loss": 0.08971083164215088
  },
  {
    "epoch": 277,
    "D loss": 1.2726174592971802,
    "D acc": 0.5,
    "g loss": 0.08887867629528046
  },
  {
    "epoch": 278,
    "D loss": 1.2381943464279175,
    "D acc": 0.515625,
    "g loss": 0.16325654089450836
  },
  {
    "epoch": 279,
    "D loss": 1.2762236595153809,
    "D acc": 0.5,
    "g loss": 0.08936165273189545
  },
  {
    "epoch": 280,
    "D loss": 1.2734684944152832,
    "D acc": 0.5,
    "g loss": 0.08960609138011932
  },
  {
    "epoch": 281,
    "D loss": 1.2316220998764038,
    "D acc": 0.515625,
    "g loss": 0.16400575637817383
  },
  {
    "epoch": 282,
    "D loss": 1.2632179260253906,
    "D acc": 0.5,
    "g loss": 0.09099843353033066
  },
  {
    "epoch": 283,
    "D loss": 1.267493486404419,
    "D acc": 0.5,
    "g loss": 0.09033507108688354
  },
  {
    "epoch": 284,
    "D loss": 1.2690900564193726,
    "D acc": 0.5,
    "g loss": 0.09062109142541885
  },
  {
    "epoch": 285,
    "D loss": 1.2505242824554443,
    "D acc": 0.5,
    "g loss": 0.09623603522777557
  },
  {
    "epoch": 286,
    "D loss": 1.261398434638977,
    "D acc": 0.5,
    "g loss": 0.09106289595365524
  },
  {
    "epoch": 287,
    "D loss": 1.264420509338379,
    "D acc": 0.5,
    "g loss": 0.09130663424730301
  },
  {
    "epoch": 288,
    "D loss": 1.2593141794204712,
    "D acc": 0.5,
    "g loss": 0.09290607273578644
  },
  {
    "epoch": 289,
    "D loss": 1.262118935585022,
    "D acc": 0.5,
    "g loss": 0.09179176390171051
  },
  {
    "epoch": 290,
    "D loss": 1.2595341205596924,
    "D acc": 0.5,
    "g loss": 0.09203588217496872
  },
  {
    "epoch": 291,
    "D loss": 1.252581000328064,
    "D acc": 0.5,
    "g loss": 0.09367047250270844
  },
  {
    "epoch": 292,
    "D loss": 1.257928490638733,
    "D acc": 0.5,
    "g loss": 0.09252247959375381
  },
  {
    "epoch": 293,
    "D loss": 1.2541522979736328,
    "D acc": 0.5,
    "g loss": 0.09357626736164093
  },
  {
    "epoch": 294,
    "D loss": 1.2566355466842651,
    "D acc": 0.5,
    "g loss": 0.09300694614648819
  },
  {
    "epoch": 295,
    "D loss": 1.2539736032485962,
    "D acc": 0.5,
    "g loss": 0.09324973076581955
  },
  {
    "epoch": 296,
    "D loss": 1.2886662483215332,
    "D acc": 0.5,
    "g loss": 0.10158653557300568
  },
  {
    "epoch": 297,
    "D loss": 1.2492014169692993,
    "D acc": 0.5,
    "g loss": 0.09396091103553772
  },
  {
    "epoch": 298,
    "D loss": 1.255324363708496,
    "D acc": 0.5,
    "g loss": 0.09403453767299652
  },
  {
    "epoch": 299,
    "D loss": 1.2502325773239136,
    "D acc": 0.5,
    "g loss": 0.09427783638238907
  },
  {
    "epoch": 300,
    "D loss": 1.2513210773468018,
    "D acc": 0.5,
    "g loss": 0.09455761313438416
  },
  {
    "epoch": 301,
    "D loss": 1.2513478994369507,
    "D acc": 0.5,
    "g loss": 0.09476053714752197
  },
  {
    "epoch": 302,
    "D loss": 1.2503740787506104,
    "D acc": 0.5,
    "g loss": 0.09500125795602798
  },
  {
    "epoch": 303,
    "D loss": 1.2297829389572144,
    "D acc": 0.5,
    "g loss": 0.1035679280757904
  },
  {
    "epoch": 304,
    "D loss": 1.2450840473175049,
    "D acc": 0.5,
    "g loss": 0.09547748416662216
  },
  {
    "epoch": 305,
    "D loss": 1.2458914518356323,
    "D acc": 0.5,
    "g loss": 0.09571719914674759
  },
  {
    "epoch": 306,
    "D loss": 1.2456485033035278,
    "D acc": 0.5,
    "g loss": 0.09595709294080734
  },
  {
    "epoch": 307,
    "D loss": 1.2396148443222046,
    "D acc": 0.5,
    "g loss": 0.09641419351100922
  },
  {
    "epoch": 308,
    "D loss": 1.240770936012268,
    "D acc": 0.5,
    "g loss": 0.09643850475549698
  },
  {
    "epoch": 309,
    "D loss": 1.2393221855163574,
    "D acc": 0.5,
    "g loss": 0.09667956084012985
  },
  {
    "epoch": 310,
    "D loss": 1.2379175424575806,
    "D acc": 0.5,
    "g loss": 0.0969199538230896
  },
  {
    "epoch": 311,
    "D loss": 1.240070104598999,
    "D acc": 0.5,
    "g loss": 0.09715942293405533
  },
  {
    "epoch": 312,
    "D loss": 1.2316008806228638,
    "D acc": 0.5,
    "g loss": 0.09900712966918945
  },
  {
    "epoch": 313,
    "D loss": 1.2369847297668457,
    "D acc": 0.5,
    "g loss": 0.09763536602258682
  },
  {
    "epoch": 314,
    "D loss": 1.2355031967163086,
    "D acc": 0.5,
    "g loss": 0.09787394851446152
  },
  {
    "epoch": 315,
    "D loss": 1.2309761047363281,
    "D acc": 0.5,
    "g loss": 0.09811383485794067
  },
  {
    "epoch": 316,
    "D loss": 1.2312318086624146,
    "D acc": 0.5,
    "g loss": 0.09835346043109894
  },
  {
    "epoch": 317,
    "D loss": 1.2301729917526245,
    "D acc": 0.5,
    "g loss": 0.09859273582696915
  },
  {
    "epoch": 318,
    "D loss": 1.2281219959259033,
    "D acc": 0.5,
    "g loss": 0.09883254021406174
  },
  {
    "epoch": 319,
    "D loss": 1.229005217552185,
    "D acc": 0.5,
    "g loss": 0.09907101094722748
  },
  {
    "epoch": 320,
    "D loss": 1.2269946336746216,
    "D acc": 0.5,
    "g loss": 0.09930967539548874
  },
  {
    "epoch": 321,
    "D loss": 1.2277069091796875,
    "D acc": 0.5,
    "g loss": 0.0995476022362709
  },
  {
    "epoch": 322,
    "D loss": 1.2263180017471313,
    "D acc": 0.5,
    "g loss": 0.09978591650724411
  },
  {
    "epoch": 323,
    "D loss": 1.2276033163070679,
    "D acc": 0.5,
    "g loss": 0.10002357512712479
  },
  {
    "epoch": 324,
    "D loss": 1.225366473197937,
    "D acc": 0.5,
    "g loss": 0.10032200813293457
  },
  {
    "epoch": 325,
    "D loss": 1.2222667932510376,
    "D acc": 0.5,
    "g loss": 0.10104705393314362
  },
  {
    "epoch": 326,
    "D loss": 1.2165391445159912,
    "D acc": 0.5,
    "g loss": 0.10073520988225937
  },
  {
    "epoch": 327,
    "D loss": 1.2210633754730225,
    "D acc": 0.5,
    "g loss": 0.10097295045852661
  },
  {
    "epoch": 328,
    "D loss": 1.2215198278427124,
    "D acc": 0.5,
    "g loss": 0.10123550891876221
  },
  {
    "epoch": 329,
    "D loss": 1.215314507484436,
    "D acc": 0.5,
    "g loss": 0.10144655406475067
  },
  {
    "epoch": 330,
    "D loss": 1.2164812088012695,
    "D acc": 0.5,
    "g loss": 0.1016843393445015
  },
  {
    "epoch": 331,
    "D loss": 1.2174667119979858,
    "D acc": 0.5,
    "g loss": 0.10192092508077621
  },
  {
    "epoch": 332,
    "D loss": 1.2133195400238037,
    "D acc": 0.5,
    "g loss": 0.10215795040130615
  },
  {
    "epoch": 333,
    "D loss": 1.214274287223816,
    "D acc": 0.5,
    "g loss": 0.10239425301551819
  },
  {
    "epoch": 334,
    "D loss": 1.2085896730422974,
    "D acc": 0.5,
    "g loss": 0.10372982919216156
  },
  {
    "epoch": 335,
    "D loss": 1.2132407426834106,
    "D acc": 0.5,
    "g loss": 0.102864108979702
  },
  {
    "epoch": 336,
    "D loss": 1.2118053436279297,
    "D acc": 0.5,
    "g loss": 0.10309964418411255
  },
  {
    "epoch": 337,
    "D loss": 1.1991881132125854,
    "D acc": 0.5,
    "g loss": 0.1054912656545639
  },
  {
    "epoch": 338,
    "D loss": 1.2070295810699463,
    "D acc": 0.5,
    "g loss": 0.10357056558132172
  },
  {
    "epoch": 339,
    "D loss": 1.177339792251587,
    "D acc": 0.515625,
    "g loss": 0.13458137214183807
  },
  {
    "epoch": 340,
    "D loss": 1.2083282470703125,
    "D acc": 0.5,
    "g loss": 0.10403554141521454
  },
  {
    "epoch": 341,
    "D loss": 1.2078036069869995,
    "D acc": 0.5,
    "g loss": 0.10427070409059525
  },
  {
    "epoch": 342,
    "D loss": 1.2047828435897827,
    "D acc": 0.5,
    "g loss": 0.10450690984725952
  },
  {
    "epoch": 343,
    "D loss": 1.2056001424789429,
    "D acc": 0.5,
    "g loss": 0.10474203526973724
  },
  {
    "epoch": 344,
    "D loss": 1.2032629251480103,
    "D acc": 0.5,
    "g loss": 0.10497815161943436
  },
  {
    "epoch": 345,
    "D loss": 1.2010151147842407,
    "D acc": 0.5,
    "g loss": 0.10521484911441803
  },
  {
    "epoch": 346,
    "D loss": 1.2029242515563965,
    "D acc": 0.5,
    "g loss": 0.10545048117637634
  },
  {
    "epoch": 347,
    "D loss": 1.2035973072052002,
    "D acc": 0.5,
    "g loss": 0.10568484663963318
  },
  {
    "epoch": 348,
    "D loss": 1.200716495513916,
    "D acc": 0.5,
    "g loss": 0.10591965913772583
  },
  {
    "epoch": 349,
    "D loss": 1.1997789144515991,
    "D acc": 0.5,
    "g loss": 0.10615459084510803
  },
  {
    "epoch": 350,
    "D loss": 1.1739503145217896,
    "D acc": 0.5,
    "g loss": 0.1209317073225975
  },
  {
    "epoch": 351,
    "D loss": 1.1979254484176636,
    "D acc": 0.5,
    "g loss": 0.10661991685628891
  },
  {
    "epoch": 352,
    "D loss": 1.1921806335449219,
    "D acc": 0.5,
    "g loss": 0.10726495087146759
  },
  {
    "epoch": 353,
    "D loss": 1.1910622119903564,
    "D acc": 0.5,
    "g loss": 0.10708937793970108
  },
  {
    "epoch": 354,
    "D loss": 1.1968202590942383,
    "D acc": 0.5,
    "g loss": 0.10732326656579971
  },
  {
    "epoch": 355,
    "D loss": 1.1911137104034424,
    "D acc": 0.5,
    "g loss": 0.10755866020917892
  },
  {
    "epoch": 356,
    "D loss": 1.1867961883544922,
    "D acc": 0.5,
    "g loss": 0.10779570043087006
  },
  {
    "epoch": 357,
    "D loss": 1.1908867359161377,
    "D acc": 0.5,
    "g loss": 0.1080310195684433
  },
  {
    "epoch": 358,
    "D loss": 1.1881475448608398,
    "D acc": 0.5,
    "g loss": 0.108265720307827
  },
  {
    "epoch": 359,
    "D loss": 1.1905463933944702,
    "D acc": 0.5,
    "g loss": 0.10849960893392563
  },
  {
    "epoch": 360,
    "D loss": 1.186245322227478,
    "D acc": 0.5,
    "g loss": 0.10873455554246902
  },
  {
    "epoch": 361,
    "D loss": 1.1890358924865723,
    "D acc": 0.5,
    "g loss": 0.1089395135641098
  },
  {
    "epoch": 362,
    "D loss": 1.1536959409713745,
    "D acc": 0.515625,
    "g loss": 0.18392764031887054
  },
  {
    "epoch": 363,
    "D loss": 1.1886627674102783,
    "D acc": 0.5,
    "g loss": 0.10942701250314713
  },
  {
    "epoch": 364,
    "D loss": 1.1843557357788086,
    "D acc": 0.5,
    "g loss": 0.10965971648693085
  },
  {
    "epoch": 365,
    "D loss": 1.1851738691329956,
    "D acc": 0.5,
    "g loss": 0.10989240556955338
  },
  {
    "epoch": 366,
    "D loss": 1.180928111076355,
    "D acc": 0.5,
    "g loss": 0.11012587696313858
  },
  {
    "epoch": 367,
    "D loss": 1.1833012104034424,
    "D acc": 0.5,
    "g loss": 0.110380619764328
  },
  {
    "epoch": 368,
    "D loss": 1.1809556484222412,
    "D acc": 0.5,
    "g loss": 0.11059192568063736
  },
  {
    "epoch": 369,
    "D loss": 1.1764994859695435,
    "D acc": 0.5,
    "g loss": 0.11082582920789719
  },
  {
    "epoch": 370,
    "D loss": 1.17900550365448,
    "D acc": 0.5,
    "g loss": 0.11105918884277344
  },
  {
    "epoch": 371,
    "D loss": 1.1775109767913818,
    "D acc": 0.5,
    "g loss": 0.11189790070056915
  },
  {
    "epoch": 372,
    "D loss": 1.174667239189148,
    "D acc": 0.5,
    "g loss": 0.11173303425312042
  },
  {
    "epoch": 373,
    "D loss": 1.2006698846817017,
    "D acc": 0.5,
    "g loss": 0.11041120439767838
  },
  {
    "epoch": 374,
    "D loss": 1.1754283905029297,
    "D acc": 0.5,
    "g loss": 0.11200857907533646
  },
  {
    "epoch": 375,
    "D loss": 1.1770622730255127,
    "D acc": 0.5,
    "g loss": 0.11224187910556793
  },
  {
    "epoch": 376,
    "D loss": 1.1739317178726196,
    "D acc": 0.5,
    "g loss": 0.11247377097606659
  },
  {
    "epoch": 377,
    "D loss": 1.1674761772155762,
    "D acc": 0.5,
    "g loss": 0.113157719373703
  },
  {
    "epoch": 378,
    "D loss": 1.172210693359375,
    "D acc": 0.5,
    "g loss": 0.1129361093044281
  },
  {
    "epoch": 379,
    "D loss": 1.1710911989212036,
    "D acc": 0.5,
    "g loss": 0.11316775530576706
  },
  {
    "epoch": 380,
    "D loss": 1.1741938591003418,
    "D acc": 0.5,
    "g loss": 0.11339811980724335
  },
  {
    "epoch": 381,
    "D loss": 1.1658332347869873,
    "D acc": 0.5,
    "g loss": 0.11363108456134796
  },
  {
    "epoch": 382,
    "D loss": 1.1715072393417358,
    "D acc": 0.5,
    "g loss": 0.11400166153907776
  },
  {
    "epoch": 383,
    "D loss": 1.1500318050384521,
    "D acc": 0.5,
    "g loss": 0.12164315581321716
  },
  {
    "epoch": 384,
    "D loss": 1.1654800176620483,
    "D acc": 0.5,
    "g loss": 0.11431913077831268
  },
  {
    "epoch": 385,
    "D loss": 1.1288543939590454,
    "D acc": 0.515625,
    "g loss": 0.15912577509880066
  },
  {
    "epoch": 386,
    "D loss": 1.1672035455703735,
    "D acc": 0.5,
    "g loss": 0.11476841568946838
  },
  {
    "epoch": 387,
    "D loss": 1.162719488143921,
    "D acc": 0.5,
    "g loss": 0.11499828100204468
  },
  {
    "epoch": 388,
    "D loss": 1.1658298969268799,
    "D acc": 0.5,
    "g loss": 0.11522827297449112
  },
  {
    "epoch": 389,
    "D loss": 1.1595406532287598,
    "D acc": 0.5,
    "g loss": 0.11545912176370621
  },
  {
    "epoch": 390,
    "D loss": 1.1604418754577637,
    "D acc": 0.5,
    "g loss": 0.1156894788146019
  },
  {
    "epoch": 391,
    "D loss": 1.161095142364502,
    "D acc": 0.5,
    "g loss": 0.11594089865684509
  },
  {
    "epoch": 392,
    "D loss": 1.160245656967163,
    "D acc": 0.5,
    "g loss": 0.11614929139614105
  },
  {
    "epoch": 393,
    "D loss": 1.156058430671692,
    "D acc": 0.5,
    "g loss": 0.11637914180755615
  },
  {
    "epoch": 394,
    "D loss": 1.1318209171295166,
    "D acc": 0.515625,
    "g loss": 0.15098364651203156
  },
  {
    "epoch": 395,
    "D loss": 1.1568083763122559,
    "D acc": 0.5,
    "g loss": 0.11683270335197449
  },
  {
    "epoch": 396,
    "D loss": 1.1539034843444824,
    "D acc": 0.5,
    "g loss": 0.11707378923892975
  },
  {
    "epoch": 397,
    "D loss": 1.1562386751174927,
    "D acc": 0.5,
    "g loss": 0.1172923669219017
  },
  {
    "epoch": 398,
    "D loss": 1.1571266651153564,
    "D acc": 0.5,
    "g loss": 0.11752154678106308
  },
  {
    "epoch": 399,
    "D loss": 1.1581569910049438,
    "D acc": 0.5,
    "g loss": 0.11774983257055283
  },
  {
    "epoch": 400,
    "D loss": 1.154224157333374,
    "D acc": 0.5,
    "g loss": 0.11797871440649033
  }
]