{
  "drinks": [
    {
      "idDrink": "11006",
      "strDrink": "Daiquiri",
      "strDrinkAlternate": null,
      "strDrinkES": null,
      "strDrinkDE": null,
      "strDrinkFR": null,
      "strDrinkZH-HANS": null,
      "strDrinkZH-HANT": null,
      "strTags": "IBA,Classic,Beach",
      "strVideo": null,
      "strCategory": "Ordinary Drink",
      "strIBA": null,
      "strAlcoholic": "Alcoholic",
      "strGlass": "Cocktail glass",
      "strInstructions": "Pour all ingredients into shaker with ice cubes. Shake well. Strain in chilled cocktail glass.",
      "strInstructionsES": null,
      "strInstructionsDE": "Alle Zutaten in den Shaker mit Eisw\u00fcrfel geben. Gut sch\u00fctteln. In einem gek\u00fchlten Cocktailglas abseihen.",
      "strInstructionsFR": null,
      "strInstructionsZH-HANS": null,
      "strInstructionsZH-HANT": null,
      "strDrinkThumb": "https://www.thecocktaildb.com/images/media/drink/mrz9091589574515.jpg",
      "strIngredient1": "Light rum",
      "strIngredient2": "Lime",
      "strIngredient3": "Powdered sugar",
      "strIngredient4": null,
      "strIngredient5": null,
      "strIngredient6": null,
      "strIngredient7": null,
      "strIngredient8": null,
      "strIngredient9": null,
      "strIngredient10": null,
      "strIngredient11": null,
      "strIngredient12": null,
      "strIngredient13": null,
      "strIngredient14": null,
      "strIngredient15": null,
      "strMeasure1": "1 1/2 oz ",
      "strMeasure2": "Juice of 1/2 ",
      "strMeasure3": "1 tsp ",
      "strMeasure4": null,
      "strMeasure5": null,
      "strMeasure6": null,
      "strMeasure7": null,
      "strMeasure8": null,
      "strMeasure9": null,
      "strMeasure10": null,
      "strMeasure11": null,
      "strMeasure12": null,
      "strMeasure13": null,
      "strMeasure14": null,
      "strMeasure15": null,
      "strCreativeCommonsConfirmed": "Yes",
      "dateModified": "2015-08-18 15:06:37"
    }
  ]
}