{
  "drinks": [
    {
      "idDrink": "11004",
      "strDrink": "Whiskey Sour",
      "strDrinkAlternate": null,
      "strDrinkES": null,
      "strDrinkDE": null,
      "strDrinkFR": null,
      "strDrinkZH-HANS": null,
      "strDrinkZH-HANT": null,
      "strTags": "IBA,Classic,Alcoholic",
      "strVideo": "https://www.youtube.com/watch?v=hFKZPzfngcU",
      "strCategory": "Ordinary Drink",
      "strIBA": "Unforgettables",
      "strAlcoholic": "Alcoholic",
      "strGlass": "Old-fashioned glass",
      "strInstructions": "Shake with ice. Strain into chilled glass, garnish and serve. If served 'On the rocks', strain ingredients into old-fashioned glass filled with ice.",
      "strInstructionsES": null,
      "strInstructionsDE": "Mit Eis sch\u00fctteln. In ein gek\u00fchltes Glas abseihen, garnieren und servieren. Wenn Sie \"On the rocks\" servieren, die Zutaten in ein old-fashioned, mit Eis gef\u00fclltes Glas geben.",
      "strInstructionsFR": null,
      "strInstructionsZH-HANS": null,
      "strInstructionsZH-HANT": null,
      "strDrinkThumb": "https://www.thecocktaildb.com/images/media/drink/hbkfsh1589574990.jpg",
      "strIngredient1": "Blended whiskey",
      "strIngredient2": "Lemon",
      "strIngredient3": "Powdered sugar",
      "strIngredient4": "Cherry",
      "strIngredient5": "Lemon",
      "strIngredient6": null,
      "strIngredient7": null,
      "strIngredient8": null,
      "strIngredient9": null,
      "strIngredient10": null,
      "strIngredient11": null,
      "strIngredient12": null,
      "strIngredient13": null,
      "strIngredient14": null,
      "strIngredient15": null,
      "strMeasure1": "2 oz ",
      "strMeasure2": "Juice of 1/2 ",
      "strMeasure3": "1/2 tsp ",
      "strMeasure4": "1 ",
      "strMeasure5": "1/2 slice ",
      "strMeasure6": null,
      "strMeasure7": null,
      "strMeasure8": null,
      "strMeasure9": null,
      "strMeasure10": null,
      "strMeasure11": null,
      "strMeasure12": null,
      "strMeasure13": null,
      "strMeasure14": null,
      "strMeasure15": null,
      "strCreativeCommonsConfirmed": "Yes",
      "dateModified": "2017-09-02 12:45:25"
    }
  ]
}