{
  "drinks": [
    {
      "idDrink": "11034",
      "strDrink": "Angel Face",
      "strDrinkAlternate": null,
      "strDrinkES": null,
      "strDrinkDE": null,
      "strDrinkFR": null,
      "strDrinkZH-HANS": null,
      "strDrinkZH-HANT": null,
      "strTags": "IBA,Classic",
      "strVideo": "https://www.youtube.com/watch?v=esjMkuXO7aw",
      "strCategory": "Ordinary Drink",
      "strIBA": "Unforgettables",
      "strAlcoholic": "Alcoholic",
      "strGlass": "Cocktail glass",
      "strInstructions": "Shake all ingredients with ice and strain contents into a cocktail glass.",
      "strInstructionsES": null,
      "strInstructionsDE": "Alle Zutaten mit Eis sch\u00fctteln und in ein Cocktailglas abseihen.",
      "strInstructionsFR": null,
      "strInstructionsZH-HANS": null,
      "strInstructionsZH-HANT": null,
      "strDrinkThumb": "https://www.thecocktaildb.com/images/media/drink/vqpptp1478253178.jpg",
      "strIngredient1": "Apricot brandy",
      "strIngredient2": "Apple brandy",
      "strIngredient3": "Gin",
      "strIngredient4": null,
      "strIngredient5": null,
      "strIngredient6": null,
      "strIngredient7": null,
      "strIngredient8": null,
      "strIngredient9": null,
      "strIngredient10": null,
      "strIngredient11": null,
      "strIngredient12": null,
      "strIngredient13": null,
      "strIngredient14": null,
      "strIngredient15": null,
      "strMeasure1": "1/2 oz ",
      "strMeasure2": "1/2 oz ",
      "strMeasure3": "1 oz ",
      "strMeasure4": null,
      "strMeasure5": null,
      "strMeasure6": null,
      "strMeasure7": null,
      "strMeasure8": null,
      "strMeasure9": null,
      "strMeasure10": null,
      "strMeasure11": null,
      "strMeasure12": null,
      "strMeasure13": null,
      "strMeasure14": null,
      "strMeasure15": null,
      "strCreativeCommonsConfirmed": "No",
      "dateModified": "2016-11-04 09:52:58"
    }
  ]
}