{
  "drinks": [
    {
      "idDrink": "11064",
      "strDrink": "Banana Daiquiri",
      "strDrinkAlternate": null,
      "strDrinkES": null,
      "strDrinkDE": null,
      "strDrinkFR": null,
      "strDrinkZH-HANS": null,
      "strDrinkZH-HANT": null,
      "strTags": "Fruity",
      "strVideo": null,
      "strCategory": "Ordinary Drink",
      "strIBA": null,
      "strAlcoholic": "Alcoholic",
      "strGlass": "Champagne flute",
      "strInstructions": "Pour all ingredients into shaker with ice cubes. Shake well. Strain in chilled cocktail glass.",
      "strInstructionsES": null,
      "strInstructionsDE": "Alle Zutaten in den Shaker mit Eisw\u00fcrfeln geben. Gut sch\u00fctteln. In einem gek\u00fchlten Cocktailglas abseihen.",
      "strInstructionsFR": null,
      "strInstructionsZH-HANS": null,
      "strInstructionsZH-HANT": null,
      "strDrinkThumb": "https://www.thecocktaildb.com/images/media/drink/k1xatq1504389300.jpg",
      "strIngredient1": "Light rum",
      "strIngredient2": "Triple sec",
      "strIngredient3": "Banana",
      "strIngredient4": "Lime juice",
      "strIngredient5": "Sugar",
      "strIngredient6": "Cherry",
      "strIngredient7": null,
      "strIngredient8": null,
      "strIngredient9": null,
      "strIngredient10": null,
      "strIngredient11": null,
      "strIngredient12": null,
      "strIngredient13": null,
      "strIngredient14": null,
      "strIngredient15": null,
      "strMeasure1": "1 1/2 oz ",
      "strMeasure2": "1 tblsp ",
      "strMeasure3": "1 ",
      "strMeasure4": "1 1/2 oz ",
      "strMeasure5": "1 tsp ",
      "strMeasure6": "1 ",
      "strMeasure7": null,
      "strMeasure8": null,
      "strMeasure9": null,
      "strMeasure10": null,
      "strMeasure11": null,
      "strMeasure12": null,
      "strMeasure13": null,
      "strMeasure14": null,
      "strMeasure15": null,
      "strCreativeCommonsConfirmed": "No",
      "dateModified": "2017-09-02 22:55:01"
    }
  ]
}