{
  "drinks": [
    {
      "idDrink": "11084",
      "strDrink": "Bermuda Highball",
      "strDrinkAlternate": null,
      "strDrinkES": null,
      "strDrinkDE": null,
      "strDrinkFR": null,
      "strDrinkZH-HANS": null,
      "strDrinkZH-HANT": null,
      "strTags": null,
      "strVideo": null,
      "strCategory": "Ordinary Drink",
      "strIBA": null,
      "strAlcoholic": "Alcoholic",
      "strGlass": "Highball glass",
      "strInstructions": "Pour brandy, gin, and dry vermouth into a highball glass over ice cubes. Fill with carbonated water and stir. Add the twist of lemon and serve. (Ginger ale may be substituted for carbonated water, if preferred.)",
      "strInstructionsES": null,
      "strInstructionsDE": "Gie\u00dfen Sie Brandy, Gin und trockenen Wermut in ein Highball-Glas \u00fcber Eisw\u00fcrfel. Mit kohlens\u00e4urehaltigem Wasser auff\u00fcllen und umr\u00fchren. Die Zitrone hinzuf\u00fcgen und servieren. (Wasser kann durch Ginger Ale ersetzt werden, wenn gew\u00fcnscht.)",
      "strInstructionsFR": null,
      "strInstructionsZH-HANS": null,
      "strInstructionsZH-HANT": null,
      "strDrinkThumb": "https://www.thecocktaildb.com/images/media/drink/qrvtww1441206528.jpg",
      "strIngredient1": "Brandy",
      "strIngredient2": "Gin",
      "strIngredient3": "Dry Vermouth",
      "strIngredient4": "Carbonated water",
      "strIngredient5": "Lemon peel",
      "strIngredient6": null,
      "strIngredient7": null,
      "strIngredient8": null,
      "strIngredient9": null,
      "strIngredient10": null,
      "strIngredient11": null,
      "strIngredient12": null,
      "strIngredient13": null,
      "strIngredient14": null,
      "strIngredient15": null,
      "strMeasure1": "3/4 oz ",
      "strMeasure2": "3/4 oz ",
      "strMeasure3": "3/4 oz ",
      "strMeasure4": null,
      "strMeasure5": null,
      "strMeasure6": null,
      "strMeasure7": null,
      "strMeasure8": null,
      "strMeasure9": null,
      "strMeasure10": null,
      "strMeasure11": null,
      "strMeasure12": null,
      "strMeasure13": null,
      "strMeasure14": null,
      "strMeasure15": null,
      "strCreativeCommonsConfirmed": "No",
      "dateModified": "2015-09-02 16:08:48"
    }
  ]
}