{
  "drinks": [
    {
      "idDrink": "11113",
      "strDrink": "Bloody Mary",
      "strDrinkAlternate": null,
      "strDrinkES": null,
      "strDrinkDE": null,
      "strDrinkFR": null,
      "strDrinkZH-HANS": null,
      "strDrinkZH-HANT": null,
      "strTags": "IBA,ContemporaryClassic",
      "strVideo": null,
      "strCategory": "Ordinary Drink",
      "strIBA": "Contemporary Classics",
      "strAlcoholic": "Alcoholic",
      "strGlass": "Old-fashioned glass",
      "strInstructions": "Stirring gently, pour all ingredients into highball glass. Garnish.",
      "strInstructionsES": null,
      "strInstructionsDE": "Unter leichtem R\u00fchren alle Zutaten in ein Highball-Glas geben. Garnieren.",
      "strInstructionsFR": null,
      "strInstructionsZH-HANS": null,
      "strInstructionsZH-HANT": null,
      "strDrinkThumb": "https://www.thecocktaildb.com/images/media/drink/t6caa21582485702.jpg",
      "strIngredient1": "Vodka",
      "strIngredient2": "Tomato juice",
      "strIngredient3": "Lemon juice",
      "strIngredient4": "Worcestershire sauce",
      "strIngredient5": "Tabasco sauce",
      "strIngredient6": "Lime",
      "strIngredient7": null,
      "strIngredient8": null,
      "strIngredient9": null,
      "strIngredient10": null,
      "strIngredient11": null,
      "strIngredient12": null,
      "strIngredient13": null,
      "strIngredient14": null,
      "strIngredient15": null,
      "strMeasure1": "1 1/2 oz ",
      "strMeasure2": "3 oz ",
      "strMeasure3": "1 dash ",
      "strMeasure4": "1/2 tsp ",
      "strMeasure5": "2-3 drops ",
      "strMeasure6": "1 wedge ",
      "strMeasure7": null,
      "strMeasure8": null,
      "strMeasure9": null,
      "strMeasure10": null,
      "strMeasure11": null,
      "strMeasure12": null,
      "strMeasure13": null,
      "strMeasure14": null,
      "strMeasure15": null,
      "strCreativeCommonsConfirmed": "Yes",
      "dateModified": "2015-08-18 15:09:14"
    }
  ]
}