{
  "drinks": [
    {
      "idDrink": "11121",
      "strDrink": "Bobby Burns Cocktail",
      "strDrinkAlternate": null,
      "strDrinkES": null,
      "strDrinkDE": null,
      "strDrinkFR": null,
      "strDrinkZH-HANS": null,
      "strDrinkZH-HANT": null,
      "strTags": null,
      "strVideo": null,
      "strCategory": "Ordinary Drink",
      "strIBA": null,
      "strAlcoholic": "Alcoholic",
      "strGlass": "Cocktail glass",
      "strInstructions": "Stir all ingredients (except lemon peel) with ice and strain into a cocktail glass. Add the twist of lemon peel and serve.",
      "strInstructionsES": null,
      "strInstructionsDE": "Alle Zutaten (au\u00dfer Zitronenschale) mit Eis verr\u00fchren und in ein Cocktailglas abseihen. Die Zitronenschale hinzuf\u00fcgen und servieren.",
      "strInstructionsFR": null,
      "strInstructionsZH-HANS": null,
      "strInstructionsZH-HANT": null,
      "strDrinkThumb": "https://www.thecocktaildb.com/images/media/drink/km6se51484411608.jpg",
      "strIngredient1": "Sweet Vermouth",
      "strIngredient2": "Scotch",
      "strIngredient3": "Benedictine",
      "strIngredient4": "Lemon peel",
      "strIngredient5": null,
      "strIngredient6": null,
      "strIngredient7": null,
      "strIngredient8": null,
      "strIngredient9": null,
      "strIngredient10": null,
      "strIngredient11": null,
      "strIngredient12": null,
      "strIngredient13": null,
      "strIngredient14": null,
      "strIngredient15": null,
      "strMeasure1": "1 1/2 oz ",
      "strMeasure2": "1 1/2 oz ",
      "strMeasure3": "1 1/4 tsp ",
      "strMeasure4": "1 twist of ",
      "strMeasure5": null,
      "strMeasure6": null,
      "strMeasure7": null,
      "strMeasure8": null,
      "strMeasure9": null,
      "strMeasure10": null,
      "strMeasure11": null,
      "strMeasure12": null,
      "strMeasure13": null,
      "strMeasure14": null,
      "strMeasure15": null,
      "strCreativeCommonsConfirmed": "No",
      "dateModified": "2017-01-14 16:33:28"
    }
  ]
}