{
  "drinks": [
    {
      "idDrink": "11145",
      "strDrink": "Classic Old-Fashioned",
      "strDrinkAlternate": null,
      "strDrinkES": null,
      "strDrinkDE": null,
      "strDrinkFR": null,
      "strDrinkZH-HANS": null,
      "strDrinkZH-HANT": null,
      "strTags": null,
      "strVideo": null,
      "strCategory": "Ordinary Drink",
      "strIBA": null,
      "strAlcoholic": "Alcoholic",
      "strGlass": "Old-fashioned glass",
      "strInstructions": "In an old-fashioned glass, muddle the bitters and water into the sugar cube, using the back of a teaspoon. Almost fill the glass with ice cubes and add the bourbon. Garnish with the orange slice and the cherry. Serve with a swizzle stick.",
      "strInstructionsES": null,
      "strInstructionsDE": "In einem old-fashioned Glas die Bitter und das Wasser mit der R\u00fcckseite eines Teel\u00f6ffels in den Zuckerw\u00fcrfel mischen. F\u00fcllen Sie das Glas fast mit Eisw\u00fcrfeln und f\u00fcgen Sie den Bourbon hinzu. Mit der Orangenscheibe und der Kirsche garnieren. Mit einem Quirlstab servieren.",
      "strInstructionsFR": null,
      "strInstructionsZH-HANS": null,
      "strInstructionsZH-HANT": null,
      "strDrinkThumb": "https://www.thecocktaildb.com/images/media/drink/w8cxqv1582485254.jpg",
      "strIngredient1": "Bitters",
      "strIngredient2": "Water",
      "strIngredient3": "Sugar",
      "strIngredient4": "Bourbon",
      "strIngredient5": "Orange",
      "strIngredient6": "Maraschino cherry",
      "strIngredient7": null,
      "strIngredient8": null,
      "strIngredient9": null,
      "strIngredient10": null,
      "strIngredient11": null,
      "strIngredient12": null,
      "strIngredient13": null,
      "strIngredient14": null,
      "strIngredient15": null,
      "strMeasure1": "3 dashes ",
      "strMeasure2": "1 tsp ",
      "strMeasure3": "1 ",
      "strMeasure4": "3 oz ",
      "strMeasure5": "1 ",
      "strMeasure6": "1 ",
      "strMeasure7": null,
      "strMeasure8": null,
      "strMeasure9": null,
      "strMeasure10": null,
      "strMeasure11": null,
      "strMeasure12": null,
      "strMeasure13": null,
      "strMeasure14": null,
      "strMeasure15": null,
      "strCreativeCommonsConfirmed": "Yes",
      "dateModified": "2017-09-02 16:29:33"
    }
  ]
}