{
  "drinks": [
    {
      "idDrink": "11157",
      "strDrink": "Brandy Cobbler",
      "strDrinkAlternate": null,
      "strDrinkES": null,
      "strDrinkDE": null,
      "strDrinkFR": null,
      "strDrinkZH-HANS": null,
      "strDrinkZH-HANT": null,
      "strTags": null,
      "strVideo": null,
      "strCategory": "Ordinary Drink",
      "strIBA": null,
      "strAlcoholic": "Alcoholic",
      "strGlass": "Old-fashioned glass",
      "strInstructions": "In an old-fashioned glass, dissolve the sugar in the club soda. Add crushed ice until the glass is almost full. Add the brandy. Stir well. Garnish with the cherry and the orange and lemon slices.",
      "strInstructionsES": null,
      "strInstructionsDE": "In einem old-fashioned Glas den Zucker in der Soda aufl\u00f6sen. F\u00fcge Crushed Ice hinzu, bis das Glas fast voll ist. F\u00fcge den Brandy hinzu. Gut umr\u00fchren. Mit der Kirsche und den Orangen- und Zitronenscheiben garnieren.",
      "strInstructionsFR": null,
      "strInstructionsZH-HANS": null,
      "strInstructionsZH-HANT": null,
      "strDrinkThumb": "https://www.thecocktaildb.com/images/media/drink/5xgu591582580586.jpg",
      "strIngredient1": "Sugar",
      "strIngredient2": "Club soda",
      "strIngredient3": "Lemon",
      "strIngredient4": "Brandy",
      "strIngredient5": "Maraschino cherry",
      "strIngredient6": "Orange",
      "strIngredient7": null,
      "strIngredient8": null,
      "strIngredient9": null,
      "strIngredient10": null,
      "strIngredient11": null,
      "strIngredient12": null,
      "strIngredient13": null,
      "strIngredient14": null,
      "strIngredient15": null,
      "strMeasure1": "1 tsp superfine ",
      "strMeasure2": "3 oz ",
      "strMeasure3": "1 ",
      "strMeasure4": "2 oz ",
      "strMeasure5": "1 ",
      "strMeasure6": "1 ",
      "strMeasure7": null,
      "strMeasure8": null,
      "strMeasure9": null,
      "strMeasure10": null,
      "strMeasure11": null,
      "strMeasure12": null,
      "strMeasure13": null,
      "strMeasure14": null,
      "strMeasure15": null,
      "strCreativeCommonsConfirmed": "Yes",
      "dateModified": "2015-08-13 12:37:16"
    }
  ]
}