{
  "drinks": [
    {
      "idDrink": "11170",
      "strDrink": "Brandy Sour",
      "strDrinkAlternate": null,
      "strDrinkES": null,
      "strDrinkDE": null,
      "strDrinkFR": null,
      "strDrinkZH-HANS": null,
      "strDrinkZH-HANT": null,
      "strTags": null,
      "strVideo": null,
      "strCategory": "Ordinary Drink",
      "strIBA": null,
      "strAlcoholic": "Alcoholic",
      "strGlass": "Whiskey sour glass",
      "strInstructions": "Shake brandy, juice of lemon, and powdered sugar with ice and strain into a whiskey sour glass. Decorate with the lemon slice, top with the cherry, and serve.",
      "strInstructionsES": null,
      "strInstructionsDE": "Brandy, Zitronensaft und Puderzucker mit Eis sch\u00fctteln und in ein Whiskey Sour Glas abseihen. Mit der Zitronenscheibe dekorieren, mit der Kirsche garnieren und servieren.",
      "strInstructionsFR": null,
      "strInstructionsZH-HANS": null,
      "strInstructionsZH-HANT": null,
      "strDrinkThumb": "https://www.thecocktaildb.com/images/media/drink/b1bxgq1582484872.jpg",
      "strIngredient1": "Brandy",
      "strIngredient2": "Lemon",
      "strIngredient3": "Powdered sugar",
      "strIngredient4": "Lemon",
      "strIngredient5": "Cherry",
      "strIngredient6": null,
      "strIngredient7": null,
      "strIngredient8": null,
      "strIngredient9": null,
      "strIngredient10": null,
      "strIngredient11": null,
      "strIngredient12": null,
      "strIngredient13": null,
      "strIngredient14": null,
      "strIngredient15": null,
      "strMeasure1": "2 oz ",
      "strMeasure2": "Juice of 1/2 ",
      "strMeasure3": "1/2 tsp ",
      "strMeasure4": "1/2 slice ",
      "strMeasure5": "1 ",
      "strMeasure6": null,
      "strMeasure7": null,
      "strMeasure8": null,
      "strMeasure9": null,
      "strMeasure10": null,
      "strMeasure11": null,
      "strMeasure12": null,
      "strMeasure13": null,
      "strMeasure14": null,
      "strMeasure15": null,
      "strCreativeCommonsConfirmed": "Yes",
      "dateModified": "2017-09-02 16:35:40"
    }
  ]
}