{
  "drinks": [
    {
      "idDrink": "11202",
      "strDrink": "Caipirinha",
      "strDrinkAlternate": null,
      "strDrinkES": null,
      "strDrinkDE": null,
      "strDrinkFR": null,
      "strDrinkZH-HANS": null,
      "strDrinkZH-HANT": null,
      "strTags": "ContemporaryClassic,IBA",
      "strVideo": null,
      "strCategory": "Ordinary Drink",
      "strIBA": "Contemporary Classics",
      "strAlcoholic": "Alcoholic",
      "strGlass": "Old-fashioned glass",
      "strInstructions": "Place lime and sugar into old fashioned glass and muddle (mash the two ingredients together using a muddler or a wooden spoon). Fill the glass with ice and add the Cacha\u00e7a.",
      "strInstructionsES": null,
      "strInstructionsDE": "Limette und Zucker in ein old-fashioned Glas geben und vermengen (die beiden Zutaten mit einem Mixer oder einem Holzl\u00f6ffel vermengen). F\u00fcllen Sie das Glas mit Eis und geben Sie den Cacha dazu.",
      "strInstructionsFR": null,
      "strInstructionsZH-HANS": null,
      "strInstructionsZH-HANT": null,
      "strDrinkThumb": "https://www.thecocktaildb.com/images/media/drink/jgvn7p1582484435.jpg",
      "strIngredient1": "Sugar",
      "strIngredient2": "Lime",
      "strIngredient3": "Cachaca",
      "strIngredient4": null,
      "strIngredient5": null,
      "strIngredient6": null,
      "strIngredient7": null,
      "strIngredient8": null,
      "strIngredient9": null,
      "strIngredient10": null,
      "strIngredient11": null,
      "strIngredient12": null,
      "strIngredient13": null,
      "strIngredient14": null,
      "strIngredient15": null,
      "strMeasure1": "2 tsp",
      "strMeasure2": "1 ",
      "strMeasure3": "2 1/2 oz ",
      "strMeasure4": null,
      "strMeasure5": null,
      "strMeasure6": null,
      "strMeasure7": null,
      "strMeasure8": null,
      "strMeasure9": null,
      "strMeasure10": null,
      "strMeasure11": null,
      "strMeasure12": null,
      "strMeasure13": null,
      "strMeasure14": null,
      "strMeasure15": null,
      "strCreativeCommonsConfirmed": "Yes",
      "dateModified": "2016-07-21 09:42:01"
    }
  ]
}