{
  "drinks": [
    {
      "idDrink": "11324",
      "strDrink": "Dry Rob Roy",
      "strDrinkAlternate": null,
      "strDrinkES": null,
      "strDrinkDE": null,
      "strDrinkFR": null,
      "strDrinkZH-HANS": null,
      "strDrinkZH-HANT": null,
      "strTags": null,
      "strVideo": null,
      "strCategory": "Ordinary Drink",
      "strIBA": null,
      "strAlcoholic": "Alcoholic",
      "strGlass": "Cocktail glass",
      "strInstructions": "In a mixing glass half-filled with ice cubes, combine the Scotch and vermouth. Stir well. Strain into a cocktail glass. Garnish with the lemon twist.",
      "strInstructionsES": null,
      "strInstructionsDE": "In einem Mischglas, das halb mit Eisw\u00fcrfeln gef\u00fcllt ist, den Scotch mit Wermut kombinieren. Gut umr\u00fchren. In ein Cocktailglas abseihen. Mit der Zitronenscheibe garnieren.",
      "strInstructionsFR": null,
      "strInstructionsZH-HANS": null,
      "strInstructionsZH-HANT": null,
      "strDrinkThumb": "https://www.thecocktaildb.com/images/media/drink/typuyq1439456976.jpg",
      "strIngredient1": "Scotch",
      "strIngredient2": "Dry Vermouth",
      "strIngredient3": "Lemon peel",
      "strIngredient4": null,
      "strIngredient5": null,
      "strIngredient6": null,
      "strIngredient7": null,
      "strIngredient8": null,
      "strIngredient9": null,
      "strIngredient10": null,
      "strIngredient11": null,
      "strIngredient12": null,
      "strIngredient13": null,
      "strIngredient14": null,
      "strIngredient15": null,
      "strMeasure1": "2 1/2 oz ",
      "strMeasure2": "1 1/2 tsp ",
      "strMeasure3": "1 twist of ",
      "strMeasure4": null,
      "strMeasure5": null,
      "strMeasure6": null,
      "strMeasure7": null,
      "strMeasure8": null,
      "strMeasure9": null,
      "strMeasure10": null,
      "strMeasure11": null,
      "strMeasure12": null,
      "strMeasure13": null,
      "strMeasure14": null,
      "strMeasure15": null,
      "strCreativeCommonsConfirmed": "No",
      "dateModified": null
    }
  ]
}