{
  "drinks": [
    {
      "idDrink": "11382",
      "strDrink": "Frisco Sour",
      "strDrinkAlternate": null,
      "strDrinkES": null,
      "strDrinkDE": null,
      "strDrinkFR": null,
      "strDrinkZH-HANS": null,
      "strDrinkZH-HANT": null,
      "strTags": null,
      "strVideo": null,
      "strCategory": "Ordinary Drink",
      "strIBA": null,
      "strAlcoholic": "Alcoholic",
      "strGlass": "Whiskey sour glass",
      "strInstructions": "Shake all ingredients (except slices of lemon and lime) with ice and strain into a whiskey sour glass. Decorate with the slices of lemon and lime and serve.",
      "strInstructionsES": null,
      "strInstructionsDE": "Alle Zutaten (au\u00dfer Zitronen- und Limonenscheiben) mit Eis sch\u00fctteln und in ein Whiskey Sour Glas abseihen. Mit den Zitronen- und Limonenscheiben dekorieren und servieren.",
      "strInstructionsFR": null,
      "strInstructionsZH-HANS": null,
      "strInstructionsZH-HANT": null,
      "strDrinkThumb": "https://www.thecocktaildb.com/images/media/drink/acuvjz1582482022.jpg",
      "strIngredient1": "Blended whiskey",
      "strIngredient2": "Benedictine",
      "strIngredient3": "Lemon",
      "strIngredient4": "Lime",
      "strIngredient5": "Lemon",
      "strIngredient6": "Lime",
      "strIngredient7": null,
      "strIngredient8": null,
      "strIngredient9": null,
      "strIngredient10": null,
      "strIngredient11": null,
      "strIngredient12": null,
      "strIngredient13": null,
      "strIngredient14": null,
      "strIngredient15": null,
      "strMeasure1": "2 oz ",
      "strMeasure2": "1/2 oz ",
      "strMeasure3": "Juice of 1/4 ",
      "strMeasure4": "Juice of 1/2 ",
      "strMeasure5": "1 slice ",
      "strMeasure6": "1 slice ",
      "strMeasure7": null,
      "strMeasure8": null,
      "strMeasure9": null,
      "strMeasure10": null,
      "strMeasure11": null,
      "strMeasure12": null,
      "strMeasure13": null,
      "strMeasure14": null,
      "strMeasure15": null,
      "strCreativeCommonsConfirmed": "Yes",
      "dateModified": "2017-09-08 16:22:30"
    }
  ]
}