{
  "drinks": [
    {
      "idDrink": "11387",
      "strDrink": "Frozen Daiquiri",
      "strDrinkAlternate": null,
      "strDrinkES": null,
      "strDrinkDE": null,
      "strDrinkFR": null,
      "strDrinkZH-HANS": null,
      "strDrinkZH-HANT": null,
      "strTags": null,
      "strVideo": null,
      "strCategory": "Ordinary Drink",
      "strIBA": null,
      "strAlcoholic": "Alcoholic",
      "strGlass": "Champagne flute",
      "strInstructions": "Combine all ingredients (except for the cherry) in an electric blender and blend at a low speed for five seconds, then blend at a high speed until firm. Pour contents into a champagne flute, top with the cherry, and serve.",
      "strInstructionsES": null,
      "strInstructionsDE": "Alle Zutaten (au\u00dfer der Kirsche) in einem Elektromixer f\u00fcr f\u00fcnf Sekunden bei niedriger Geschwindigkeit, dann bei hoher Geschwindigkeit bis zum festen Stand mischen. Den Inhalt in ein Champagner Glas geben, mit der Kirsche verzieren und servieren.",
      "strInstructionsFR": null,
      "strInstructionsZH-HANS": null,
      "strInstructionsZH-HANT": null,
      "strDrinkThumb": "https://www.thecocktaildb.com/images/media/drink/7oyrj91504884412.jpg",
      "strIngredient1": "Light rum",
      "strIngredient2": "Triple sec",
      "strIngredient3": "Lime juice",
      "strIngredient4": "Sugar",
      "strIngredient5": "Cherry",
      "strIngredient6": "Ice",
      "strIngredient7": null,
      "strIngredient8": null,
      "strIngredient9": null,
      "strIngredient10": null,
      "strIngredient11": null,
      "strIngredient12": null,
      "strIngredient13": null,
      "strIngredient14": null,
      "strIngredient15": null,
      "strMeasure1": "1 1/2 oz ",
      "strMeasure2": "1 tblsp ",
      "strMeasure3": "1 1/2 oz ",
      "strMeasure4": "1 tsp ",
      "strMeasure5": "1 ",
      "strMeasure6": "1 cup crushed ",
      "strMeasure7": null,
      "strMeasure8": null,
      "strMeasure9": null,
      "strMeasure10": null,
      "strMeasure11": null,
      "strMeasure12": null,
      "strMeasure13": null,
      "strMeasure14": null,
      "strMeasure15": null,
      "strCreativeCommonsConfirmed": "No",
      "dateModified": "2017-09-08 16:26:53"
    }
  ]
}