{
  "drinks": [
    {
      "idDrink": "11390",
      "strDrink": "Frozen Mint Daiquiri",
      "strDrinkAlternate": null,
      "strDrinkES": null,
      "strDrinkDE": null,
      "strDrinkFR": null,
      "strDrinkZH-HANS": null,
      "strDrinkZH-HANT": null,
      "strTags": null,
      "strVideo": null,
      "strCategory": "Ordinary Drink",
      "strIBA": null,
      "strAlcoholic": "Alcoholic",
      "strGlass": "Old-fashioned glass",
      "strInstructions": "Combine all ingredients with 1 cup of crushed ice in an electric blender. Blend at a low speed for a short length of time. Pour into an old-fashioned glass and serve.",
      "strInstructionsES": null,
      "strInstructionsDE": "Alle Zutaten mit 1 Tasse Crushed Ice in einem Elektromixer bei niedriger Geschwindigkeit f\u00fcr kurze Zeit mischen. In ein old-fashioned Glas geben und servieren.",
      "strInstructionsFR": null,
      "strInstructionsZH-HANS": null,
      "strInstructionsZH-HANT": null,
      "strDrinkThumb": "https://www.thecocktaildb.com/images/media/drink/jrhn1q1504884469.jpg",
      "strIngredient1": "Light rum",
      "strIngredient2": "Lime juice",
      "strIngredient3": "Mint",
      "strIngredient4": "Sugar",
      "strIngredient5": null,
      "strIngredient6": null,
      "strIngredient7": null,
      "strIngredient8": null,
      "strIngredient9": null,
      "strIngredient10": null,
      "strIngredient11": null,
      "strIngredient12": null,
      "strIngredient13": null,
      "strIngredient14": null,
      "strIngredient15": null,
      "strMeasure1": "2 oz ",
      "strMeasure2": "1 tblsp ",
      "strMeasure3": "6 ",
      "strMeasure4": "1 tsp ",
      "strMeasure5": null,
      "strMeasure6": null,
      "strMeasure7": null,
      "strMeasure8": null,
      "strMeasure9": null,
      "strMeasure10": null,
      "strMeasure11": null,
      "strMeasure12": null,
      "strMeasure13": null,
      "strMeasure14": null,
      "strMeasure15": null,
      "strCreativeCommonsConfirmed": "No",
      "dateModified": "2017-09-08 16:27:49"
    }
  ]
}