{
  "drinks": [
    {
      "idDrink": "11419",
      "strDrink": "Gin Swizzle",
      "strDrinkAlternate": null,
      "strDrinkES": null,
      "strDrinkDE": null,
      "strDrinkFR": null,
      "strDrinkZH-HANS": null,
      "strDrinkZH-HANT": null,
      "strTags": null,
      "strVideo": null,
      "strCategory": "Ordinary Drink",
      "strIBA": null,
      "strAlcoholic": "Alcoholic",
      "strGlass": "Highball glass",
      "strInstructions": "In a shaker half-filled with ice cubes, combine the lime juice, sugar, gin, and bitters. Shake well. Almost fill a colling glass with ice cubes. Stir until the glass is frosted. Strain the mixture in the shaker into the glass and add the club soda.",
      "strInstructionsES": null,
      "strInstructionsDE": "In einem Shaker, der halb mit Eisw\u00fcrfeln gef\u00fcllt ist, Limettensaft, Zucker, Gin und Bitter vermengen. Gut sch\u00fctteln. F\u00fcllen Sie ein gek\u00fchltes Glas mit Eisw\u00fcrfel. R\u00fchren Sie, bis das Glas mattiert ist. Die Mischung im Shaker in das Glas abseihen und das Club-Soda hinzuf\u00fcgen.",
      "strInstructionsFR": null,
      "strInstructionsZH-HANS": null,
      "strInstructionsZH-HANT": null,
      "strDrinkThumb": "https://www.thecocktaildb.com/images/media/drink/sybce31504884026.jpg",
      "strIngredient1": "Lime juice",
      "strIngredient2": "Sugar",
      "strIngredient3": "Gin",
      "strIngredient4": "Bitters",
      "strIngredient5": "Club soda",
      "strIngredient6": null,
      "strIngredient7": null,
      "strIngredient8": null,
      "strIngredient9": null,
      "strIngredient10": null,
      "strIngredient11": null,
      "strIngredient12": null,
      "strIngredient13": null,
      "strIngredient14": null,
      "strIngredient15": null,
      "strMeasure1": "1 1/2 oz ",
      "strMeasure2": "1 tsp superfine ",
      "strMeasure3": "2 oz ",
      "strMeasure4": "1 dash ",
      "strMeasure5": "3 oz ",
      "strMeasure6": null,
      "strMeasure7": null,
      "strMeasure8": null,
      "strMeasure9": null,
      "strMeasure10": null,
      "strMeasure11": null,
      "strMeasure12": null,
      "strMeasure13": null,
      "strMeasure14": null,
      "strMeasure15": null,
      "strCreativeCommonsConfirmed": "No",
      "dateModified": "2017-09-08 16:20:26"
    }
  ]
}