{
  "drinks": [
    {
      "idDrink": "11433",
      "strDrink": "Grass Skirt",
      "strDrinkAlternate": null,
      "strDrinkES": null,
      "strDrinkDE": null,
      "strDrinkFR": null,
      "strDrinkZH-HANS": null,
      "strDrinkZH-HANT": null,
      "strTags": null,
      "strVideo": null,
      "strCategory": "Ordinary Drink",
      "strIBA": null,
      "strAlcoholic": "Alcoholic",
      "strGlass": "Old-fashioned glass",
      "strInstructions": "In a shaker half-filled with ice cubes, combine the gin, triple sec, pineapple juice, and grenadine. Shake well. Pour into an old-fashioned glass and garnish with the pineapple slice.",
      "strInstructionsES": null,
      "strInstructionsDE": "In einem Shaker, der halb mit Eisw\u00fcrfel gef\u00fcllt ist, den Gin, die Triple Sec, Ananassaft und Grenadine miteinander vermengen. Gut sch\u00fctteln. In ein old-fashioned Glas geben und mit der Ananasscheibe garnieren.",
      "strInstructionsFR": null,
      "strInstructionsZH-HANS": null,
      "strInstructionsZH-HANT": null,
      "strDrinkThumb": "https://www.thecocktaildb.com/images/media/drink/qyvprp1473891585.jpg",
      "strIngredient1": "Gin",
      "strIngredient2": "Triple sec",
      "strIngredient3": "Pineapple juice",
      "strIngredient4": "Grenadine",
      "strIngredient5": "Pineapple",
      "strIngredient6": null,
      "strIngredient7": null,
      "strIngredient8": null,
      "strIngredient9": null,
      "strIngredient10": null,
      "strIngredient11": null,
      "strIngredient12": null,
      "strIngredient13": null,
      "strIngredient14": null,
      "strIngredient15": null,
      "strMeasure1": "1 1/2 oz ",
      "strMeasure2": "1 oz ",
      "strMeasure3": "1 oz ",
      "strMeasure4": "1/2 tsp ",
      "strMeasure5": "1 ",
      "strMeasure6": null,
      "strMeasure7": null,
      "strMeasure8": null,
      "strMeasure9": null,
      "strMeasure10": null,
      "strMeasure11": null,
      "strMeasure12": null,
      "strMeasure13": null,
      "strMeasure14": null,
      "strMeasure15": null,
      "strCreativeCommonsConfirmed": "No",
      "dateModified": "2016-09-14 23:19:46"
    }
  ]
}