{
  "drinks": [
    {
      "idDrink": "11558",
      "strDrink": "Japanese Fizz",
      "strDrinkAlternate": null,
      "strDrinkES": null,
      "strDrinkDE": null,
      "strDrinkFR": null,
      "strDrinkZH-HANS": null,
      "strDrinkZH-HANT": null,
      "strTags": null,
      "strVideo": null,
      "strCategory": "Ordinary Drink",
      "strIBA": null,
      "strAlcoholic": "Alcoholic",
      "strGlass": "Highball glass",
      "strInstructions": "Shake all ingredients (except carbonated water) with ice and strain into a highball glass over two ice cubes. Fill with carbonated water, stir, and serve.",
      "strInstructionsES": null,
      "strInstructionsDE": "Alle Zutaten (au\u00dfer kohlens\u00e4urehaltigem Wasser) mit Eis sch\u00fctteln und \u00fcber zwei Eisw\u00fcrfel in ein Highball-Glas abseihen. Mit kohlens\u00e4urehaltigem Wasser auff\u00fcllen, umr\u00fchren und servieren.",
      "strInstructionsFR": null,
      "strInstructionsZH-HANS": null,
      "strInstructionsZH-HANT": null,
      "strDrinkThumb": "https://www.thecocktaildb.com/images/media/drink/37vzv11504884831.jpg",
      "strIngredient1": "Blended whiskey",
      "strIngredient2": "Lemon",
      "strIngredient3": "Powdered sugar",
      "strIngredient4": "Port",
      "strIngredient5": "Egg white",
      "strIngredient6": "Carbonated water",
      "strIngredient7": null,
      "strIngredient8": null,
      "strIngredient9": null,
      "strIngredient10": null,
      "strIngredient11": null,
      "strIngredient12": null,
      "strIngredient13": null,
      "strIngredient14": null,
      "strIngredient15": null,
      "strMeasure1": "1 1/2 oz ",
      "strMeasure2": "Juice of 1/2 ",
      "strMeasure3": "1 tsp ",
      "strMeasure4": "1 tblsp",
      "strMeasure5": "1 ",
      "strMeasure6": null,
      "strMeasure7": null,
      "strMeasure8": null,
      "strMeasure9": null,
      "strMeasure10": null,
      "strMeasure11": null,
      "strMeasure12": null,
      "strMeasure13": null,
      "strMeasure14": null,
      "strMeasure15": null,
      "strCreativeCommonsConfirmed": "No",
      "dateModified": "2017-09-08 16:33:51"
    }
  ]
}