{
  "drinks": [
    {
      "idDrink": "11662",
      "strDrink": "London Town",
      "strDrinkAlternate": null,
      "strDrinkES": null,
      "strDrinkDE": null,
      "strDrinkFR": null,
      "strDrinkZH-HANS": null,
      "strDrinkZH-HANT": null,
      "strTags": null,
      "strVideo": null,
      "strCategory": "Ordinary Drink",
      "strIBA": null,
      "strAlcoholic": "Alcoholic",
      "strGlass": "Cocktail glass",
      "strInstructions": "In a mixing glass half-filled with ice cubes, combine all of the ingredients. Stir well. Strain into a cocktail glass.",
      "strInstructionsES": null,
      "strInstructionsDE": "In einem Mischglas, das halb mit Eisw\u00fcrfeln gef\u00fcllt ist, alle Zutaten vermengen. Gut umr\u00fchren. In ein Cocktailglas abseihen.",
      "strInstructionsFR": null,
      "strInstructionsZH-HANS": null,
      "strInstructionsZH-HANT": null,
      "strDrinkThumb": "https://www.thecocktaildb.com/images/media/drink/rpsrqv1468923507.jpg",
      "strIngredient1": "Gin",
      "strIngredient2": "Maraschino liqueur",
      "strIngredient3": "Orange bitters",
      "strIngredient4": null,
      "strIngredient5": null,
      "strIngredient6": null,
      "strIngredient7": null,
      "strIngredient8": null,
      "strIngredient9": null,
      "strIngredient10": null,
      "strIngredient11": null,
      "strIngredient12": null,
      "strIngredient13": null,
      "strIngredient14": null,
      "strIngredient15": null,
      "strMeasure1": "1 1/2 oz ",
      "strMeasure2": "1/2 oz ",
      "strMeasure3": "2 dashes ",
      "strMeasure4": null,
      "strMeasure5": null,
      "strMeasure6": null,
      "strMeasure7": null,
      "strMeasure8": null,
      "strMeasure9": null,
      "strMeasure10": null,
      "strMeasure11": null,
      "strMeasure12": null,
      "strMeasure13": null,
      "strMeasure14": null,
      "strMeasure15": null,
      "strCreativeCommonsConfirmed": "No",
      "dateModified": "2016-07-19 11:18:27"
    }
  ]
}