{
  "drinks": [
    {
      "idDrink": "11872",
      "strDrink": "Orgasm",
      "strDrinkAlternate": null,
      "strDrinkES": null,
      "strDrinkDE": null,
      "strDrinkFR": null,
      "strDrinkZH-HANS": null,
      "strDrinkZH-HANT": null,
      "strTags": null,
      "strVideo": null,
      "strCategory": "Ordinary Drink",
      "strIBA": null,
      "strAlcoholic": "Alcoholic",
      "strGlass": "Cocktail glass",
      "strInstructions": "Shake all ingredients with ice, strain into a chilled cocktail glass, and serve.",
      "strInstructionsES": null,
      "strInstructionsDE": null,
      "strInstructionsFR": null,
      "strInstructionsZH-HANS": null,
      "strInstructionsZH-HANT": null,
      "strDrinkThumb": "https://www.thecocktaildb.com/images/media/drink/vr6kle1504886114.jpg",
      "strIngredient1": "Creme de Cacao",
      "strIngredient2": "Amaretto",
      "strIngredient3": "Triple sec",
      "strIngredient4": "Vodka",
      "strIngredient5": "Light cream",
      "strIngredient6": null,
      "strIngredient7": null,
      "strIngredient8": null,
      "strIngredient9": null,
      "strIngredient10": null,
      "strIngredient11": null,
      "strIngredient12": null,
      "strIngredient13": null,
      "strIngredient14": null,
      "strIngredient15": null,
      "strMeasure1": "1/2 oz white ",
      "strMeasure2": "1/2 oz ",
      "strMeasure3": "1/2 oz ",
      "strMeasure4": "1/2 oz ",
      "strMeasure5": "1 oz ",
      "strMeasure6": null,
      "strMeasure7": null,
      "strMeasure8": null,
      "strMeasure9": null,
      "strMeasure10": null,
      "strMeasure11": null,
      "strMeasure12": null,
      "strMeasure13": null,
      "strMeasure14": null,
      "strMeasure15": null,
      "strCreativeCommonsConfirmed": "No",
      "dateModified": "2017-09-08 16:55:14"
    }
  ]
}