{
  "drinks": [
    {
      "idDrink": "11961",
      "strDrink": "Port And Starboard",
      "strDrinkAlternate": null,
      "strDrinkES": null,
      "strDrinkDE": null,
      "strDrinkFR": null,
      "strDrinkZH-HANS": null,
      "strDrinkZH-HANT": null,
      "strTags": null,
      "strVideo": null,
      "strCategory": "Ordinary Drink",
      "strIBA": null,
      "strAlcoholic": "Alcoholic",
      "strGlass": "Pousse cafe glass",
      "strInstructions": "Pour carefully into a pousse-cafe glass, so that creme de menthe floats on grenadine. Serve without mixing.",
      "strInstructionsES": null,
      "strInstructionsDE": "Vorsichtig in ein Pousse-Caf\u00e9-Glas gie\u00dfen, damit die Creme de Menthe auf Grenadine schwimmt. Ohne zu mischen servieren.",
      "strInstructionsFR": null,
      "strInstructionsZH-HANS": null,
      "strInstructionsZH-HANT": null,
      "strDrinkThumb": "https://www.thecocktaildb.com/images/media/drink/wxvupx1441553911.jpg",
      "strIngredient1": "Grenadine",
      "strIngredient2": "Green Creme de Menthe",
      "strIngredient3": null,
      "strIngredient4": null,
      "strIngredient5": null,
      "strIngredient6": null,
      "strIngredient7": null,
      "strIngredient8": null,
      "strIngredient9": null,
      "strIngredient10": null,
      "strIngredient11": null,
      "strIngredient12": null,
      "strIngredient13": null,
      "strIngredient14": null,
      "strIngredient15": null,
      "strMeasure1": "1 tblsp ",
      "strMeasure2": "1/2 oz ",
      "strMeasure3": null,
      "strMeasure4": null,
      "strMeasure5": null,
      "strMeasure6": null,
      "strMeasure7": null,
      "strMeasure8": null,
      "strMeasure9": null,
      "strMeasure10": null,
      "strMeasure11": null,
      "strMeasure12": null,
      "strMeasure13": null,
      "strMeasure14": null,
      "strMeasure15": null,
      "strCreativeCommonsConfirmed": "No",
      "dateModified": "2015-09-06 16:38:31"
    }
  ]
}