{
  "drinks": [
    {
      "idDrink": "11993",
      "strDrink": "Quentin",
      "strDrinkAlternate": null,
      "strDrinkES": null,
      "strDrinkDE": null,
      "strDrinkFR": null,
      "strDrinkZH-HANS": null,
      "strDrinkZH-HANT": null,
      "strTags": null,
      "strVideo": null,
      "strCategory": "Ordinary Drink",
      "strIBA": null,
      "strAlcoholic": "Alcoholic",
      "strGlass": "Cocktail glass",
      "strInstructions": "In a shaker half-filled with ice cubes, combine the rum, Kahlua, and cream. Shake well. Strain into a cocktail glass and garnish with the nutmeg.",
      "strInstructionsES": null,
      "strInstructionsDE": "In einem Shaker, der halb mit Eisw\u00fcrfeln gef\u00fcllt ist, Rum, Kahlua und Sahne mischen. Gut sch\u00fctteln. In ein Cocktailglas abseihen und mit der Muskatnuss garnieren.",
      "strInstructionsFR": null,
      "strInstructionsZH-HANS": null,
      "strInstructionsZH-HANT": null,
      "strDrinkThumb": "https://www.thecocktaildb.com/images/media/drink/spxtqp1478963398.jpg",
      "strIngredient1": "Dark rum",
      "strIngredient2": "Kahlua",
      "strIngredient3": "Light cream",
      "strIngredient4": "Nutmeg",
      "strIngredient5": null,
      "strIngredient6": null,
      "strIngredient7": null,
      "strIngredient8": null,
      "strIngredient9": null,
      "strIngredient10": null,
      "strIngredient11": null,
      "strIngredient12": null,
      "strIngredient13": null,
      "strIngredient14": null,
      "strIngredient15": null,
      "strMeasure1": "1 1/2 oz ",
      "strMeasure2": "1/2 oz ",
      "strMeasure3": "1 oz ",
      "strMeasure4": "1/8 tsp grated ",
      "strMeasure5": null,
      "strMeasure6": null,
      "strMeasure7": null,
      "strMeasure8": null,
      "strMeasure9": null,
      "strMeasure10": null,
      "strMeasure11": null,
      "strMeasure12": null,
      "strMeasure13": null,
      "strMeasure14": null,
      "strMeasure15": null,
      "strCreativeCommonsConfirmed": "No",
      "dateModified": "2016-11-12 15:09:58"
    }
  ]
}