{
  "drinks": [
    {
      "idDrink": "12097",
      "strDrink": "Rum Toddy",
      "strDrinkAlternate": null,
      "strDrinkES": null,
      "strDrinkDE": null,
      "strDrinkFR": null,
      "strDrinkZH-HANS": null,
      "strDrinkZH-HANT": null,
      "strTags": null,
      "strVideo": null,
      "strCategory": "Ordinary Drink",
      "strIBA": null,
      "strAlcoholic": "Alcoholic",
      "strGlass": "Old-fashioned glass",
      "strInstructions": "Dissolve powdered sugar in water in an old-fashioned glass. Add rum and one ice cube and stir. Add the twist of lemon peel and serve.",
      "strInstructionsES": null,
      "strInstructionsDE": "Puderzucker in Wasser in einem old-fashioned Glas aufl\u00f6sen. Rum und einen Eisw\u00fcrfel dazugeben und umr\u00fchren. Die Zitronenschale hinzuf\u00fcgen und servieren.",
      "strInstructionsFR": null,
      "strInstructionsZH-HANS": null,
      "strInstructionsZH-HANT": null,
      "strDrinkThumb": "https://www.thecocktaildb.com/images/media/drink/athdk71504886286.jpg",
      "strIngredient1": "Rum",
      "strIngredient2": "Powdered sugar",
      "strIngredient3": "Lemon peel",
      "strIngredient4": "Water",
      "strIngredient5": null,
      "strIngredient6": null,
      "strIngredient7": null,
      "strIngredient8": null,
      "strIngredient9": null,
      "strIngredient10": null,
      "strIngredient11": null,
      "strIngredient12": null,
      "strIngredient13": null,
      "strIngredient14": null,
      "strIngredient15": null,
      "strMeasure1": "2 oz light or dark ",
      "strMeasure2": "2 tsp ",
      "strMeasure3": "1 twist of ",
      "strMeasure4": "2 tsp ",
      "strMeasure5": null,
      "strMeasure6": null,
      "strMeasure7": null,
      "strMeasure8": null,
      "strMeasure9": null,
      "strMeasure10": null,
      "strMeasure11": null,
      "strMeasure12": null,
      "strMeasure13": null,
      "strMeasure14": null,
      "strMeasure15": null,
      "strCreativeCommonsConfirmed": "No",
      "dateModified": "2017-09-08 16:58:06"
    }
  ]
}