{
  "drinks": [
    {
      "idDrink": "12420",
      "strDrink": "Tuxedo Cocktail",
      "strDrinkAlternate": null,
      "strDrinkES": null,
      "strDrinkDE": null,
      "strDrinkFR": null,
      "strDrinkZH-HANS": null,
      "strDrinkZH-HANT": null,
      "strTags": "IBA,Classic",
      "strVideo": "https://www.youtube.com/watch?v=347ZY5eJFU8",
      "strCategory": "Ordinary Drink",
      "strIBA": "Unforgettables",
      "strAlcoholic": "Alcoholic",
      "strGlass": "Cocktail glass",
      "strInstructions": "Stir all ingredients with ice and strain into a cocktail glass. Garnish with a cherry and a twist of lemon zest.",
      "strInstructionsES": null,
      "strInstructionsDE": "Alle Zutaten mit Eis verr\u00fchren und in ein Cocktailglas abseihen. Mit einer Kirsche und einem Schuss Zitrone garnieren.",
      "strInstructionsFR": null,
      "strInstructionsZH-HANS": null,
      "strInstructionsZH-HANT": null,
      "strDrinkThumb": "https://www.thecocktaildb.com/images/media/drink/4u0nbl1504352551.jpg",
      "strIngredient1": "Dry Vermouth",
      "strIngredient2": "Gin",
      "strIngredient3": "Maraschino liqueur",
      "strIngredient4": "Anis",
      "strIngredient5": "Orange bitters",
      "strIngredient6": "Cherry",
      "strIngredient7": null,
      "strIngredient8": null,
      "strIngredient9": null,
      "strIngredient10": null,
      "strIngredient11": null,
      "strIngredient12": null,
      "strIngredient13": null,
      "strIngredient14": null,
      "strIngredient15": null,
      "strMeasure1": "1 1/2 oz ",
      "strMeasure2": "1 1/2 oz ",
      "strMeasure3": "1/4 tsp ",
      "strMeasure4": "1/4 tsp ",
      "strMeasure5": "2 dashes ",
      "strMeasure6": "1 ",
      "strMeasure7": null,
      "strMeasure8": null,
      "strMeasure9": null,
      "strMeasure10": null,
      "strMeasure11": null,
      "strMeasure12": null,
      "strMeasure13": null,
      "strMeasure14": null,
      "strMeasure15": null,
      "strCreativeCommonsConfirmed": "No",
      "dateModified": "2017-09-02 12:42:31"
    }
  ]
}