{
  "drinks": [
    {
      "idDrink": "12442",
      "strDrink": "Vermouth Cassis",
      "strDrinkAlternate": null,
      "strDrinkES": null,
      "strDrinkDE": null,
      "strDrinkFR": null,
      "strDrinkZH-HANS": null,
      "strDrinkZH-HANT": null,
      "strTags": null,
      "strVideo": null,
      "strCategory": "Ordinary Drink",
      "strIBA": null,
      "strAlcoholic": "Alcoholic",
      "strGlass": "Highball glass",
      "strInstructions": "Stir vermouth and creme de cassis in a highball glass with ice cubes. Fill with carbonated water, stir again, and serve.",
      "strInstructionsES": null,
      "strInstructionsDE": "Wermut und Creme de Cassis in einem Highball-Glas mit Eisw\u00fcrfeln verr\u00fchren. Mit kohlens\u00e4urehaltigem Wasser auff\u00fcllen, nochmals umr\u00fchren und servieren.",
      "strInstructionsFR": null,
      "strInstructionsZH-HANS": null,
      "strInstructionsZH-HANT": null,
      "strDrinkThumb": "https://www.thecocktaildb.com/images/media/drink/tswpxx1441554674.jpg",
      "strIngredient1": "Dry Vermouth",
      "strIngredient2": "Creme de Cassis",
      "strIngredient3": "Carbonated water",
      "strIngredient4": null,
      "strIngredient5": null,
      "strIngredient6": null,
      "strIngredient7": null,
      "strIngredient8": null,
      "strIngredient9": null,
      "strIngredient10": null,
      "strIngredient11": null,
      "strIngredient12": null,
      "strIngredient13": null,
      "strIngredient14": null,
      "strIngredient15": null,
      "strMeasure1": "1 1/2 oz ",
      "strMeasure2": "3/4 oz ",
      "strMeasure3": null,
      "strMeasure4": null,
      "strMeasure5": null,
      "strMeasure6": null,
      "strMeasure7": null,
      "strMeasure8": null,
      "strMeasure9": null,
      "strMeasure10": null,
      "strMeasure11": null,
      "strMeasure12": null,
      "strMeasure13": null,
      "strMeasure14": null,
      "strMeasure15": null,
      "strCreativeCommonsConfirmed": "No",
      "dateModified": "2015-09-06 16:51:14"
    }
  ]
}