{
  "drinks": [
    {
      "idDrink": "12460",
      "strDrink": "Vodka And Tonic",
      "strDrinkAlternate": null,
      "strDrinkES": null,
      "strDrinkDE": null,
      "strDrinkFR": null,
      "strDrinkZH-HANS": null,
      "strDrinkZH-HANT": null,
      "strTags": null,
      "strVideo": null,
      "strCategory": "Ordinary Drink",
      "strIBA": null,
      "strAlcoholic": "Alcoholic",
      "strGlass": "Highball glass",
      "strInstructions": "Pour vodka into a highball glass over ice cubes. Fill with tonic water, stir, and serve.",
      "strInstructionsES": null,
      "strInstructionsDE": "Gie\u00dfen Sie Wodka in ein Highball-Glas \u00fcber Eisw\u00fcrfel. Mit Tonic Water auff\u00fcllen, umr\u00fchren und servieren.",
      "strInstructionsFR": null,
      "strInstructionsZH-HANS": null,
      "strInstructionsZH-HANT": null,
      "strDrinkThumb": "https://www.thecocktaildb.com/images/media/drink/lmj2yt1504820500.jpg",
      "strIngredient1": "Vodka",
      "strIngredient2": "Tonic water",
      "strIngredient3": null,
      "strIngredient4": null,
      "strIngredient5": null,
      "strIngredient6": null,
      "strIngredient7": null,
      "strIngredient8": null,
      "strIngredient9": null,
      "strIngredient10": null,
      "strIngredient11": null,
      "strIngredient12": null,
      "strIngredient13": null,
      "strIngredient14": null,
      "strIngredient15": null,
      "strMeasure1": "2 oz ",
      "strMeasure2": null,
      "strMeasure3": null,
      "strMeasure4": null,
      "strMeasure5": null,
      "strMeasure6": null,
      "strMeasure7": null,
      "strMeasure8": null,
      "strMeasure9": null,
      "strMeasure10": null,
      "strMeasure11": null,
      "strMeasure12": null,
      "strMeasure13": null,
      "strMeasure14": null,
      "strMeasure15": null,
      "strCreativeCommonsConfirmed": "No",
      "dateModified": "2017-09-07 22:41:40"
    }
  ]
}