{
  "drinks": [
    {
      "idDrink": "12474",
      "strDrink": "Waikiki Beachcomber",
      "strDrinkAlternate": null,
      "strDrinkES": null,
      "strDrinkDE": null,
      "strDrinkFR": null,
      "strDrinkZH-HANS": null,
      "strDrinkZH-HANT": null,
      "strTags": null,
      "strVideo": null,
      "strCategory": "Ordinary Drink",
      "strIBA": null,
      "strAlcoholic": "Alcoholic",
      "strGlass": "Cocktail glass",
      "strInstructions": "Shake all ingredients with ice, strain into a cocktail glass, and serve.",
      "strInstructionsES": null,
      "strInstructionsDE": "Alle Zutaten mit Eis sch\u00fctteln, in ein Cocktailglas abseihen und servieren.",
      "strInstructionsFR": null,
      "strInstructionsZH-HANS": null,
      "strInstructionsZH-HANT": null,
      "strDrinkThumb": "https://www.thecocktaildb.com/images/media/drink/ysuqus1441208583.jpg",
      "strIngredient1": "Triple sec",
      "strIngredient2": "Gin",
      "strIngredient3": "Pineapple juice",
      "strIngredient4": null,
      "strIngredient5": null,
      "strIngredient6": null,
      "strIngredient7": null,
      "strIngredient8": null,
      "strIngredient9": null,
      "strIngredient10": null,
      "strIngredient11": null,
      "strIngredient12": null,
      "strIngredient13": null,
      "strIngredient14": null,
      "strIngredient15": null,
      "strMeasure1": "3/4 oz ",
      "strMeasure2": "3/4 oz ",
      "strMeasure3": "1 tblsp ",
      "strMeasure4": null,
      "strMeasure5": null,
      "strMeasure6": null,
      "strMeasure7": null,
      "strMeasure8": null,
      "strMeasure9": null,
      "strMeasure10": null,
      "strMeasure11": null,
      "strMeasure12": null,
      "strMeasure13": null,
      "strMeasure14": null,
      "strMeasure15": null,
      "strCreativeCommonsConfirmed": "No",
      "dateModified": "2015-09-02 16:43:03"
    }
  ]
}