{
  "drinks": [
    {
      "idDrink": "12658",
      "strDrink": "Banana Strawberry Shake Daiquiri-type",
      "strDrinkAlternate": null,
      "strDrinkES": null,
      "strDrinkDE": null,
      "strDrinkFR": null,
      "strDrinkZH-HANS": null,
      "strDrinkZH-HANT": null,
      "strTags": null,
      "strVideo": null,
      "strCategory": "Milk / Float / Shake",
      "strIBA": null,
      "strAlcoholic": "Non alcoholic",
      "strGlass": "Cocktail Glass",
      "strInstructions": "Blend all together in a blender until smooth.",
      "strInstructionsES": null,
      "strInstructionsDE": "Alles zusammen in einem Mixer mischen, bis es geschmeidig ist.",
      "strInstructionsFR": null,
      "strInstructionsZH-HANS": null,
      "strInstructionsZH-HANT": null,
      "strDrinkThumb": "https://www.thecocktaildb.com/images/media/drink/uvypss1472720581.jpg",
      "strIngredient1": "Strawberries",
      "strIngredient2": "Banana",
      "strIngredient3": "Apple juice",
      "strIngredient4": null,
      "strIngredient5": null,
      "strIngredient6": null,
      "strIngredient7": null,
      "strIngredient8": null,
      "strIngredient9": null,
      "strIngredient10": null,
      "strIngredient11": null,
      "strIngredient12": null,
      "strIngredient13": null,
      "strIngredient14": null,
      "strIngredient15": null,
      "strMeasure1": "1/2 lb frozen ",
      "strMeasure2": "1 frozen ",
      "strMeasure3": "2 cups fresh ",
      "strMeasure4": null,
      "strMeasure5": null,
      "strMeasure6": null,
      "strMeasure7": null,
      "strMeasure8": null,
      "strMeasure9": null,
      "strMeasure10": null,
      "strMeasure11": null,
      "strMeasure12": null,
      "strMeasure13": null,
      "strMeasure14": null,
      "strMeasure15": null,
      "strCreativeCommonsConfirmed": "No",
      "dateModified": "2016-09-01 10:03:01"
    }
  ]
}