{
  "drinks": [
    {
      "idDrink": "12688",
      "strDrink": "Just a Moonmint",
      "strDrinkAlternate": null,
      "strDrinkES": null,
      "strDrinkDE": null,
      "strDrinkFR": null,
      "strDrinkZH-HANS": null,
      "strDrinkZH-HANT": null,
      "strTags": null,
      "strVideo": null,
      "strCategory": "Milk / Float / Shake",
      "strIBA": null,
      "strAlcoholic": "Non alcoholic",
      "strGlass": "Highball Glass",
      "strInstructions": "Place all ingredients in the blender jar - cover and whiz on medium speed until well blended. Pour in one tall, 2 medium or 3 small glasses and drink up.",
      "strInstructionsES": null,
      "strInstructionsDE": "Alle Zutaten in den Mixer geben - abdecken und bei mittlerer Geschwindigkeit schaumig schlagen, bis sie gut vermischt sind. In ein gro\u00dfes, 2 mittlere oder 3 kleine Gl\u00e4ser f\u00fcllen und geniessen.",
      "strInstructionsFR": null,
      "strInstructionsZH-HANS": null,
      "strInstructionsZH-HANT": null,
      "strDrinkThumb": "https://www.thecocktaildb.com/images/media/drink/znald61487604035.jpg",
      "strIngredient1": "Milk",
      "strIngredient2": "Chocolate syrup",
      "strIngredient3": "Mint syrup",
      "strIngredient4": null,
      "strIngredient5": null,
      "strIngredient6": null,
      "strIngredient7": null,
      "strIngredient8": null,
      "strIngredient9": null,
      "strIngredient10": null,
      "strIngredient11": null,
      "strIngredient12": null,
      "strIngredient13": null,
      "strIngredient14": null,
      "strIngredient15": null,
      "strMeasure1": "2 cups ",
      "strMeasure2": null,
      "strMeasure3": null,
      "strMeasure4": null,
      "strMeasure5": null,
      "strMeasure6": null,
      "strMeasure7": null,
      "strMeasure8": null,
      "strMeasure9": null,
      "strMeasure10": null,
      "strMeasure11": null,
      "strMeasure12": null,
      "strMeasure13": null,
      "strMeasure14": null,
      "strMeasure15": null,
      "strCreativeCommonsConfirmed": "No",
      "dateModified": "2017-02-20 15:20:36"
    }
  ]
}