{
  "drinks": [
    {
      "idDrink": "12734",
      "strDrink": "Chocolate Drink",
      "strDrinkAlternate": null,
      "strDrinkES": null,
      "strDrinkDE": null,
      "strDrinkFR": null,
      "strDrinkZH-HANS": null,
      "strDrinkZH-HANT": null,
      "strTags": null,
      "strVideo": null,
      "strCategory": "Cocoa",
      "strIBA": null,
      "strAlcoholic": "Non alcoholic",
      "strGlass": "Coffee mug",
      "strInstructions": "Melt the bar in a small amount of boiling water. Add milk. Cook over low heat, whipping gently (with a whisk, i would assume) until heated well. Don't let it boil! Serve in coffee mug.",
      "strInstructionsES": null,
      "strInstructionsDE": "Schmelzen Sie den Riegel in einer kleinen Menge kochendem Wasser. Milch zugeben. Bei schwacher Hitze kochen und dabei sanft (mit einem Schneebesen) aufschlagen, bis es gut erhitzt ist. Nicht aufkochen! In einer Kaffeetasse servieren.",
      "strInstructionsFR": null,
      "strInstructionsZH-HANS": null,
      "strInstructionsZH-HANT": null,
      "strDrinkThumb": "https://www.thecocktaildb.com/images/media/drink/q7w4xu1487603180.jpg",
      "strIngredient1": "Chocolate",
      "strIngredient2": "Milk",
      "strIngredient3": "Water",
      "strIngredient4": null,
      "strIngredient5": null,
      "strIngredient6": null,
      "strIngredient7": null,
      "strIngredient8": null,
      "strIngredient9": null,
      "strIngredient10": null,
      "strIngredient11": null,
      "strIngredient12": null,
      "strIngredient13": null,
      "strIngredient14": null,
      "strIngredient15": null,
      "strMeasure1": "125 gr",
      "strMeasure2": "3/4 L ",
      "strMeasure3": null,
      "strMeasure4": null,
      "strMeasure5": null,
      "strMeasure6": null,
      "strMeasure7": null,
      "strMeasure8": null,
      "strMeasure9": null,
      "strMeasure10": null,
      "strMeasure11": null,
      "strMeasure12": null,
      "strMeasure13": null,
      "strMeasure14": null,
      "strMeasure15": null,
      "strCreativeCommonsConfirmed": "No",
      "dateModified": "2017-02-20 15:06:20"
    }
  ]
}