{
  "drinks": [
    {
      "idDrink": "12754",
      "strDrink": "Sex on the Beach",
      "strDrinkAlternate": null,
      "strDrinkES": null,
      "strDrinkDE": null,
      "strDrinkFR": null,
      "strDrinkZH-HANS": null,
      "strDrinkZH-HANT": null,
      "strTags": "IBA,ContemporaryClassic",
      "strVideo": null,
      "strCategory": "Ordinary Drink",
      "strIBA": "Contemporary Classics",
      "strAlcoholic": "Alcoholic",
      "strGlass": "Highball glass",
      "strInstructions": "Build all ingredients in a highball glass filled with ice. Garnish with orange slice.",
      "strInstructionsES": null,
      "strInstructionsDE": "Alle Zutaten in einem mit Eis gef\u00fcllten Highball-Glas geben. Mit einer Orangenscheibe garnieren.",
      "strInstructionsFR": null,
      "strInstructionsZH-HANS": null,
      "strInstructionsZH-HANT": null,
      "strDrinkThumb": "https://www.thecocktaildb.com/images/media/drink/lijtw51551455287.jpg",
      "strIngredient1": "Vodka",
      "strIngredient2": "Peach schnapps",
      "strIngredient3": "Cranberry juice",
      "strIngredient4": "Grapefruit juice",
      "strIngredient5": null,
      "strIngredient6": null,
      "strIngredient7": null,
      "strIngredient8": null,
      "strIngredient9": null,
      "strIngredient10": null,
      "strIngredient11": null,
      "strIngredient12": null,
      "strIngredient13": null,
      "strIngredient14": null,
      "strIngredient15": null,
      "strMeasure1": "1 oz ",
      "strMeasure2": "3/4 oz ",
      "strMeasure3": null,
      "strMeasure4": null,
      "strMeasure5": null,
      "strMeasure6": null,
      "strMeasure7": null,
      "strMeasure8": null,
      "strMeasure9": null,
      "strMeasure10": null,
      "strMeasure11": null,
      "strMeasure12": null,
      "strMeasure13": null,
      "strMeasure14": null,
      "strMeasure15": null,
      "strCreativeCommonsConfirmed": "No",
      "dateModified": "2016-07-21 10:12:45"
    }
  ]
}