{
  "drinks": [
    {
      "idDrink": "12756",
      "strDrink": "Autodaf\u00e9",
      "strDrinkAlternate": null,
      "strDrinkES": null,
      "strDrinkDE": null,
      "strDrinkFR": null,
      "strDrinkZH-HANS": null,
      "strDrinkZH-HANT": null,
      "strTags": null,
      "strVideo": null,
      "strCategory": "Ordinary Drink",
      "strIBA": null,
      "strAlcoholic": "Alcoholic",
      "strGlass": "Highball glass",
      "strInstructions": "Mix and fill up with soda water. Drunk by finns on a sunny day any time of the year and day.",
      "strInstructionsES": null,
      "strInstructionsDE": "Mischen und mit Sodawasser auff\u00fcllen. Getrunken von Finnen an einem sonnigen Tag zu jeder Jahreszeit und an jedem Tag.",
      "strInstructionsFR": null,
      "strInstructionsZH-HANS": null,
      "strInstructionsZH-HANT": null,
      "strDrinkThumb": "https://www.thecocktaildb.com/images/media/drink/7dkf0i1487602928.jpg",
      "strIngredient1": "Vodka",
      "strIngredient2": "Lime juice",
      "strIngredient3": "Soda water",
      "strIngredient4": null,
      "strIngredient5": null,
      "strIngredient6": null,
      "strIngredient7": null,
      "strIngredient8": null,
      "strIngredient9": null,
      "strIngredient10": null,
      "strIngredient11": null,
      "strIngredient12": null,
      "strIngredient13": null,
      "strIngredient14": null,
      "strIngredient15": null,
      "strMeasure1": "4 cl ",
      "strMeasure2": "1 dash ",
      "strMeasure3": null,
      "strMeasure4": null,
      "strMeasure5": null,
      "strMeasure6": null,
      "strMeasure7": null,
      "strMeasure8": null,
      "strMeasure9": null,
      "strMeasure10": null,
      "strMeasure11": null,
      "strMeasure12": null,
      "strMeasure13": null,
      "strMeasure14": null,
      "strMeasure15": null,
      "strCreativeCommonsConfirmed": "No",
      "dateModified": "2017-02-20 15:02:08"
    }
  ]
}