{
  "drinks": [
    {
      "idDrink": "12762",
      "strDrink": "Grizzly Bear",
      "strDrinkAlternate": null,
      "strDrinkES": null,
      "strDrinkDE": null,
      "strDrinkFR": null,
      "strDrinkZH-HANS": null,
      "strDrinkZH-HANT": null,
      "strTags": null,
      "strVideo": null,
      "strCategory": "Ordinary Drink",
      "strIBA": null,
      "strAlcoholic": "Alcoholic",
      "strGlass": "Collins Glass",
      "strInstructions": "Served over ice. Sounds nasty, but tastes great.",
      "strInstructionsES": null,
      "strInstructionsDE": "Serviert \u00fcber Eis. Klingt \u00fcbel, schmeckt aber super.",
      "strInstructionsFR": null,
      "strInstructionsZH-HANS": null,
      "strInstructionsZH-HANT": null,
      "strDrinkThumb": "https://www.thecocktaildb.com/images/media/drink/k6v97f1487602550.jpg",
      "strIngredient1": "Amaretto",
      "strIngredient2": "J\u00e4germeister",
      "strIngredient3": "Kahlua",
      "strIngredient4": "Milk",
      "strIngredient5": null,
      "strIngredient6": null,
      "strIngredient7": null,
      "strIngredient8": null,
      "strIngredient9": null,
      "strIngredient10": null,
      "strIngredient11": null,
      "strIngredient12": null,
      "strIngredient13": null,
      "strIngredient14": null,
      "strIngredient15": null,
      "strMeasure1": "1 part ",
      "strMeasure2": "1 part ",
      "strMeasure3": "1 part ",
      "strMeasure4": "2 1/2 parts ",
      "strMeasure5": null,
      "strMeasure6": null,
      "strMeasure7": null,
      "strMeasure8": null,
      "strMeasure9": null,
      "strMeasure10": null,
      "strMeasure11": null,
      "strMeasure12": null,
      "strMeasure13": null,
      "strMeasure14": null,
      "strMeasure15": null,
      "strCreativeCommonsConfirmed": "No",
      "dateModified": "2017-02-20 14:55:50"
    }
  ]
}