{
  "drinks": [
    {
      "idDrink": "12774",
      "strDrink": "Masala Chai",
      "strDrinkAlternate": null,
      "strDrinkES": null,
      "strDrinkDE": null,
      "strDrinkFR": null,
      "strDrinkZH-HANS": null,
      "strDrinkZH-HANT": null,
      "strTags": null,
      "strVideo": null,
      "strCategory": "Coffee / Tea",
      "strIBA": null,
      "strAlcoholic": "Non alcoholic",
      "strGlass": "Coffee Mug",
      "strInstructions": "Bring 2 cups of water to boil. Add all the ingredients and boil again for about 15 seconds. Let stand for a minute. Warm milk in a pot. Filter tea into cups. Add milk and sugar. That's IT.",
      "strInstructionsES": null,
      "strInstructionsDE": "2 Tassen Wasser zum Kochen bringen. Alle Zutaten zugeben und nochmals ca. 15 Sekunden kochen lassen. Eine Minute stehen lassen. Milch in einem Topf erw\u00e4rmen. Tee in Tassen filtern. Milch und Zucker hinzuf\u00fcgen. Servieren.",
      "strInstructionsFR": null,
      "strInstructionsZH-HANS": null,
      "strInstructionsZH-HANT": null,
      "strDrinkThumb": "https://www.thecocktaildb.com/images/media/drink/uyrpww1441246384.jpg",
      "strIngredient1": "Water",
      "strIngredient2": "Tea",
      "strIngredient3": "Ginger",
      "strIngredient4": "Cardamom",
      "strIngredient5": "Cloves",
      "strIngredient6": "Cinnamon",
      "strIngredient7": "Black pepper",
      "strIngredient8": "Sugar",
      "strIngredient9": "Milk",
      "strIngredient10": null,
      "strIngredient11": null,
      "strIngredient12": null,
      "strIngredient13": null,
      "strIngredient14": null,
      "strIngredient15": null,
      "strMeasure1": "2 cups ",
      "strMeasure2": "3-4 tsp ",
      "strMeasure3": "1 chunk dried ",
      "strMeasure4": "3-4 crushed ",
      "strMeasure5": "3 ",
      "strMeasure6": "1 piece ",
      "strMeasure7": "1-2 whole ",
      "strMeasure8": " to taste\n",
      "strMeasure9": null,
      "strMeasure10": null,
      "strMeasure11": null,
      "strMeasure12": null,
      "strMeasure13": null,
      "strMeasure14": null,
      "strMeasure15": null,
      "strCreativeCommonsConfirmed": "No",
      "dateModified": "2015-09-03 03:13:04"
    }
  ]
}