{
  "drinks": [
    {
      "idDrink": "12772",
      "strDrink": "Iced Coffee Fillip",
      "strDrinkAlternate": null,
      "strDrinkES": null,
      "strDrinkDE": null,
      "strDrinkFR": null,
      "strDrinkZH-HANS": null,
      "strDrinkZH-HANT": null,
      "strTags": null,
      "strVideo": null,
      "strCategory": "Coffee / Tea",
      "strIBA": null,
      "strAlcoholic": "Alcoholic",
      "strGlass": "Coffee mug",
      "strInstructions": "Mix together in a coffee mug and chill before serving.",
      "strInstructionsES": null,
      "strInstructionsDE": "In einer Kaffeetasse vermischen und vor dem Servieren kalt stellen.",
      "strInstructionsFR": null,
      "strInstructionsZH-HANS": null,
      "strInstructionsZH-HANT": null,
      "strDrinkThumb": "https://www.thecocktaildb.com/images/media/drink/sxtxrp1454514223.jpg",
      "strIngredient1": "Kahlua",
      "strIngredient2": "Coffee",
      "strIngredient3": null,
      "strIngredient4": null,
      "strIngredient5": null,
      "strIngredient6": null,
      "strIngredient7": null,
      "strIngredient8": null,
      "strIngredient9": null,
      "strIngredient10": null,
      "strIngredient11": null,
      "strIngredient12": null,
      "strIngredient13": null,
      "strIngredient14": null,
      "strIngredient15": null,
      "strMeasure1": "2 tsp ",
      "strMeasure2": "Strong cold ",
      "strMeasure3": null,
      "strMeasure4": null,
      "strMeasure5": null,
      "strMeasure6": null,
      "strMeasure7": null,
      "strMeasure8": null,
      "strMeasure9": null,
      "strMeasure10": null,
      "strMeasure11": null,
      "strMeasure12": null,
      "strMeasure13": null,
      "strMeasure14": null,
      "strMeasure15": null,
      "strCreativeCommonsConfirmed": "No",
      "dateModified": "2016-02-03 15:43:43"
    }
  ]
}