{
  "drinks": [
    {
      "idDrink": "12780",
      "strDrink": "Spiking coffee",
      "strDrinkAlternate": null,
      "strDrinkES": null,
      "strDrinkDE": null,
      "strDrinkFR": null,
      "strDrinkZH-HANS": null,
      "strDrinkZH-HANT": null,
      "strTags": null,
      "strVideo": null,
      "strCategory": "Coffee / Tea",
      "strIBA": null,
      "strAlcoholic": "Non alcoholic",
      "strGlass": "Coffee mug",
      "strInstructions": "Incidentally, a pinch of cinnamon is indeed a nice addition to coffee but true heaven is a cardamom seed. Of course, you serve it in a coffee mug.",
      "strInstructionsES": null,
      "strInstructionsDE": "\u00dcbrigens ist eine Prise Zimt in der Tat eine sch\u00f6ne Erg\u00e4nzung zum Kaffee, aber der wahre Himmel ist ein Kardamomkern. Nat\u00fcrlich servieren Sie es in einer Kaffeetasse.",
      "strInstructionsFR": null,
      "strInstructionsZH-HANS": null,
      "strInstructionsZH-HANT": null,
      "strDrinkThumb": "https://www.thecocktaildb.com/images/media/drink/isql6y1487602375.jpg",
      "strIngredient1": "Coffee",
      "strIngredient2": "Cinnamon",
      "strIngredient3": null,
      "strIngredient4": null,
      "strIngredient5": null,
      "strIngredient6": null,
      "strIngredient7": null,
      "strIngredient8": null,
      "strIngredient9": null,
      "strIngredient10": null,
      "strIngredient11": null,
      "strIngredient12": null,
      "strIngredient13": null,
      "strIngredient14": null,
      "strIngredient15": null,
      "strMeasure1": null,
      "strMeasure2": null,
      "strMeasure3": null,
      "strMeasure4": null,
      "strMeasure5": null,
      "strMeasure6": null,
      "strMeasure7": null,
      "strMeasure8": null,
      "strMeasure9": null,
      "strMeasure10": null,
      "strMeasure11": null,
      "strMeasure12": null,
      "strMeasure13": null,
      "strMeasure14": null,
      "strMeasure15": null,
      "strCreativeCommonsConfirmed": "No",
      "dateModified": "2017-02-20 14:52:55"
    }
  ]
}