{
  "drinks": [
    {
      "idDrink": "12808",
      "strDrink": "Creme de Menthe",
      "strDrinkAlternate": null,
      "strDrinkES": null,
      "strDrinkDE": null,
      "strDrinkFR": null,
      "strDrinkZH-HANS": null,
      "strDrinkZH-HANT": null,
      "strTags": null,
      "strVideo": null,
      "strCategory": "Homemade Liqueur",
      "strIBA": null,
      "strAlcoholic": "Alcoholic",
      "strGlass": "Collins Glass",
      "strInstructions": "Bring sugar and water to a boil and simmer for 10 minutes. Cool. Add the remaining ingredients and stir. Cover and let ripen for 1 month.",
      "strInstructionsES": null,
      "strInstructionsDE": "Zucker und Wasser zum Kochen bringen und 10 Minuten k\u00f6cheln lassen. Abk\u00fchlen. Die restlichen Zutaten zugeben und umr\u00fchren. Zugedeckt 1 Monat reifen lassen.",
      "strInstructionsFR": null,
      "strInstructionsZH-HANS": null,
      "strInstructionsZH-HANT": null,
      "strDrinkThumb": "https://www.thecocktaildb.com/images/media/drink/yxswtp1441253918.jpg",
      "strIngredient1": "Sugar",
      "strIngredient2": "Water",
      "strIngredient3": "Grain alcohol",
      "strIngredient4": "Peppermint extract",
      "strIngredient5": "Food coloring",
      "strIngredient6": null,
      "strIngredient7": null,
      "strIngredient8": null,
      "strIngredient9": null,
      "strIngredient10": null,
      "strIngredient11": null,
      "strIngredient12": null,
      "strIngredient13": null,
      "strIngredient14": null,
      "strIngredient15": null,
      "strMeasure1": "8 cups ",
      "strMeasure2": "6 cups ",
      "strMeasure3": "1 pint ",
      "strMeasure4": "1 oz pure ",
      "strMeasure5": "1 tblsp green ",
      "strMeasure6": null,
      "strMeasure7": null,
      "strMeasure8": null,
      "strMeasure9": null,
      "strMeasure10": null,
      "strMeasure11": null,
      "strMeasure12": null,
      "strMeasure13": null,
      "strMeasure14": null,
      "strMeasure15": null,
      "strCreativeCommonsConfirmed": "No",
      "dateModified": "2015-09-03 05:18:38"
    }
  ]
}