{
  "drinks": [
    {
      "idDrink": "13032",
      "strDrink": "Spiced Peach Punch",
      "strDrinkAlternate": null,
      "strDrinkES": null,
      "strDrinkDE": null,
      "strDrinkFR": null,
      "strDrinkZH-HANS": null,
      "strDrinkZH-HANT": null,
      "strTags": null,
      "strVideo": null,
      "strCategory": "Punch / Party Drink",
      "strIBA": null,
      "strAlcoholic": "Non alcoholic",
      "strGlass": "Collins Glass",
      "strInstructions": "Combine peach nectar, orange juice and brown sugar in a large saucepan. Tie cinnamon and cloves in a small cheesecloth bag. Drop into saucepan. Heat slowly, stirring constantly, until sugar dissolves. Simmer 10 minutes. Stir in lime juice. Serve in hot mugs.",
      "strInstructionsES": null,
      "strInstructionsDE": "Pfirsichnektar, Orangensaft und braunen Zucker in einem gro\u00dfen Topf vermengen, Zimt und Nelken in einem kleinen Seihtuchbeutel binden. In den Topf eintauchen, langsam unter st\u00e4ndigem R\u00fchren erhitzen, bis sich der Zucker aufl\u00f6st. 10 Minuten k\u00f6cheln lassen. Limettensaft unterr\u00fchren. In hei\u00dfen Tassen servieren.",
      "strInstructionsFR": null,
      "strInstructionsZH-HANS": null,
      "strInstructionsZH-HANT": null,
      "strDrinkThumb": "https://www.thecocktaildb.com/images/media/drink/qxvypq1468924331.jpg",
      "strIngredient1": "Peach nectar",
      "strIngredient2": "Orange juice",
      "strIngredient3": "Brown sugar",
      "strIngredient4": "Cinnamon",
      "strIngredient5": "Cloves",
      "strIngredient6": "Lime juice",
      "strIngredient7": null,
      "strIngredient8": null,
      "strIngredient9": null,
      "strIngredient10": null,
      "strIngredient11": null,
      "strIngredient12": null,
      "strIngredient13": null,
      "strIngredient14": null,
      "strIngredient15": null,
      "strMeasure1": "46 oz ",
      "strMeasure2": "20 oz ",
      "strMeasure3": "1/2 cup ",
      "strMeasure4": "3 3-inch ",
      "strMeasure5": "1/2 tsp ",
      "strMeasure6": "2 tblsp ",
      "strMeasure7": null,
      "strMeasure8": null,
      "strMeasure9": null,
      "strMeasure10": null,
      "strMeasure11": null,
      "strMeasure12": null,
      "strMeasure13": null,
      "strMeasure14": null,
      "strMeasure15": null,
      "strCreativeCommonsConfirmed": "No",
      "dateModified": "2016-07-19 11:32:11"
    }
  ]
}