{
  "drinks": [
    {
      "idDrink": "13070",
      "strDrink": "Fahrenheit 5000",
      "strDrinkAlternate": null,
      "strDrinkES": null,
      "strDrinkDE": null,
      "strDrinkFR": null,
      "strDrinkZH-HANS": null,
      "strDrinkZH-HANT": null,
      "strTags": null,
      "strVideo": null,
      "strCategory": "Shot",
      "strIBA": null,
      "strAlcoholic": "Alcoholic",
      "strGlass": "Shot glass",
      "strInstructions": "Cover bottom of shot glass with Tabasco Sauce and then fill with half Firewater and half Absolut Peppar.",
      "strInstructionsES": null,
      "strInstructionsDE": "Den Boden des Schnapsglases mit Tabasco-Sauce bedecken und dann mit halb Feuerwasser und halb Absolut Peppar f\u00fcllen.",
      "strInstructionsFR": null,
      "strInstructionsZH-HANS": null,
      "strInstructionsZH-HANT": null,
      "strDrinkThumb": "https://www.thecocktaildb.com/images/media/drink/tysssx1473344692.jpg",
      "strIngredient1": "Firewater",
      "strIngredient2": "Absolut Peppar",
      "strIngredient3": "Tabasco sauce",
      "strIngredient4": null,
      "strIngredient5": null,
      "strIngredient6": null,
      "strIngredient7": null,
      "strIngredient8": null,
      "strIngredient9": null,
      "strIngredient10": null,
      "strIngredient11": null,
      "strIngredient12": null,
      "strIngredient13": null,
      "strIngredient14": null,
      "strIngredient15": null,
      "strMeasure1": "1/2 oz ",
      "strMeasure2": "1/2 oz ",
      "strMeasure3": "1 dash ",
      "strMeasure4": null,
      "strMeasure5": null,
      "strMeasure6": null,
      "strMeasure7": null,
      "strMeasure8": null,
      "strMeasure9": null,
      "strMeasure10": null,
      "strMeasure11": null,
      "strMeasure12": null,
      "strMeasure13": null,
      "strMeasure14": null,
      "strMeasure15": null,
      "strCreativeCommonsConfirmed": "No",
      "dateModified": "2016-09-08 15:24:52"
    }
  ]
}