{
  "drinks": [
    {
      "idDrink": "13086",
      "strDrink": "Atomic Lokade",
      "strDrinkAlternate": null,
      "strDrinkES": null,
      "strDrinkDE": null,
      "strDrinkFR": null,
      "strDrinkZH-HANS": null,
      "strDrinkZH-HANT": null,
      "strTags": null,
      "strVideo": null,
      "strCategory": "Ordinary Drink",
      "strIBA": null,
      "strAlcoholic": "Alcoholic",
      "strGlass": "Collins Glass",
      "strInstructions": "In a shaker, place lemonade, vodka, blue Curacao, and triple sec together. Shake with ice and strain into glass. Add sugar to taste",
      "strInstructionsES": null,
      "strInstructionsDE": "In einem Shaker Limonade, Wodka, blauen Curacao und Triple Sec vermengen. Mit Eis sch\u00fctteln und in ein Glas abseihen. Nach Belieben Zucker hinzuf\u00fcgen",
      "strInstructionsFR": null,
      "strInstructionsZH-HANS": null,
      "strInstructionsZH-HANT": null,
      "strDrinkThumb": "https://www.thecocktaildb.com/images/media/drink/n3zfrh1493067412.jpg",
      "strIngredient1": "Lemonade",
      "strIngredient2": "Vodka",
      "strIngredient3": "Blue Curacao",
      "strIngredient4": "Triple sec",
      "strIngredient5": "Sugar",
      "strIngredient6": "Ice",
      "strIngredient7": null,
      "strIngredient8": null,
      "strIngredient9": null,
      "strIngredient10": null,
      "strIngredient11": null,
      "strIngredient12": null,
      "strIngredient13": null,
      "strIngredient14": null,
      "strIngredient15": null,
      "strMeasure1": "5 oz ",
      "strMeasure2": "1 oz ",
      "strMeasure3": "1/2 oz ",
      "strMeasure4": "1/2 oz ",
      "strMeasure5": null,
      "strMeasure6": null,
      "strMeasure7": null,
      "strMeasure8": null,
      "strMeasure9": null,
      "strMeasure10": null,
      "strMeasure11": null,
      "strMeasure12": null,
      "strMeasure13": null,
      "strMeasure14": null,
      "strMeasure15": null,
      "strCreativeCommonsConfirmed": "No",
      "dateModified": "2017-04-24 21:56:52"
    }
  ]
}