{
  "drinks": [
    {
      "idDrink": "13196",
      "strDrink": "Long vodka",
      "strDrinkAlternate": null,
      "strDrinkES": null,
      "strDrinkDE": null,
      "strDrinkFR": null,
      "strDrinkZH-HANS": null,
      "strDrinkZH-HANT": null,
      "strTags": null,
      "strVideo": null,
      "strCategory": "Ordinary Drink",
      "strIBA": null,
      "strAlcoholic": "Alcoholic",
      "strGlass": "Highball glass",
      "strInstructions": "Shake a tall glass with ice cubes and Angostura, coating the inside of the glass. Por the vodka onto this, add 1 slice of lime and squeeze juice out of remainder, mix with tonic, stir and voila you have a Long Vodka",
      "strInstructionsES": null,
      "strInstructionsDE": "Sch\u00fctteln Sie ein hohes Glas mit Eisw\u00fcrfeln und Angostura und beschichten Sie so die Innenseite des Glases. Den Wodka dar\u00fcber gie\u00dfen, 1 Scheibe Limette hinzuf\u00fcgen und den Saft aus dem Rest herausquetschen, mit Tonic mischen, umr\u00fchren und voila, Sie haben einen langen Wodka.",
      "strInstructionsFR": null,
      "strInstructionsZH-HANS": null,
      "strInstructionsZH-HANT": null,
      "strDrinkThumb": "https://www.thecocktaildb.com/images/media/drink/9179i01503565212.jpg",
      "strIngredient1": "Vodka",
      "strIngredient2": "Lime",
      "strIngredient3": "Angostura bitters",
      "strIngredient4": "Tonic water",
      "strIngredient5": "Ice",
      "strIngredient6": null,
      "strIngredient7": null,
      "strIngredient8": null,
      "strIngredient9": null,
      "strIngredient10": null,
      "strIngredient11": null,
      "strIngredient12": null,
      "strIngredient13": null,
      "strIngredient14": null,
      "strIngredient15": null,
      "strMeasure1": "5 cl ",
      "strMeasure2": "1/2 ",
      "strMeasure3": "4 dashes ",
      "strMeasure4": "1 dl Schweppes ",
      "strMeasure5": "4 ",
      "strMeasure6": null,
      "strMeasure7": null,
      "strMeasure8": null,
      "strMeasure9": null,
      "strMeasure10": null,
      "strMeasure11": null,
      "strMeasure12": null,
      "strMeasure13": null,
      "strMeasure14": null,
      "strMeasure15": null,
      "strCreativeCommonsConfirmed": "No",
      "dateModified": "2017-08-24 10:00:12"
    }
  ]
}