{
  "drinks": [
    {
      "idDrink": "13625",
      "strDrink": "Screaming Orgasm",
      "strDrinkAlternate": null,
      "strDrinkES": null,
      "strDrinkDE": null,
      "strDrinkFR": null,
      "strDrinkZH-HANS": null,
      "strDrinkZH-HANT": null,
      "strTags": null,
      "strVideo": null,
      "strCategory": "Ordinary Drink",
      "strIBA": null,
      "strAlcoholic": "Alcoholic",
      "strGlass": "Cocktail glass",
      "strInstructions": "Pour first vodka, then Bailey's, then Kahlua into a cocktail glass over crushed ice. Stir. Caution: use only high quality vodka. Cheap vodka can cause the Bailey's to curdle. Test your brand of vodka by mixing 1 Tsp each of vodka and Bailey's first.",
      "strInstructionsES": null,
      "strInstructionsDE": "Gie\u00dfen Sie zuerst Wodka, dann Bailey's, dann Kahlua in ein Cocktailglas \u00fcber zersto\u00dfenes Eis. R\u00fchren. Achtung: Verwenden Sie nur hochwertigen Wodka. Billiger Wodka kann dazu f\u00fchren, dass der Bailey's gerinnt. Testen Sie Ihre Wodka-Marke, indem Sie jeweils 1 Teel\u00f6ffel Wodka und einen Teel\u00f6ffel Bailey's mischen.",
      "strInstructionsFR": null,
      "strInstructionsZH-HANS": null,
      "strInstructionsZH-HANT": null,
      "strDrinkThumb": "https://www.thecocktaildb.com/images/media/drink/x894cs1504388670.jpg",
      "strIngredient1": "Vodka",
      "strIngredient2": "Baileys irish cream",
      "strIngredient3": "Kahlua",
      "strIngredient4": null,
      "strIngredient5": null,
      "strIngredient6": null,
      "strIngredient7": null,
      "strIngredient8": null,
      "strIngredient9": null,
      "strIngredient10": null,
      "strIngredient11": null,
      "strIngredient12": null,
      "strIngredient13": null,
      "strIngredient14": null,
      "strIngredient15": null,
      "strMeasure1": "1 oz ",
      "strMeasure2": "1 1/2 oz ",
      "strMeasure3": "1/2 oz ",
      "strMeasure4": null,
      "strMeasure5": null,
      "strMeasure6": null,
      "strMeasure7": null,
      "strMeasure8": null,
      "strMeasure9": null,
      "strMeasure10": null,
      "strMeasure11": null,
      "strMeasure12": null,
      "strMeasure13": null,
      "strMeasure14": null,
      "strMeasure15": null,
      "strCreativeCommonsConfirmed": "No",
      "dateModified": "2017-09-02 22:44:30"
    }
  ]
}