{
  "drinks": [
    {
      "idDrink": "13683",
      "strDrink": "Apple Slammer",
      "strDrinkAlternate": null,
      "strDrinkES": null,
      "strDrinkDE": null,
      "strDrinkFR": null,
      "strDrinkZH-HANS": null,
      "strDrinkZH-HANT": null,
      "strTags": null,
      "strVideo": null,
      "strCategory": "Shot",
      "strIBA": null,
      "strAlcoholic": "Alcoholic",
      "strGlass": "Shot glass",
      "strInstructions": "pour into a shot glass and present to consumer, they are expected to cover the top of the shotglass with thier palm, raise the glass, slam it on the bar and the swallow quickly.",
      "strInstructionsES": null,
      "strInstructionsDE": "in ein Schnapsglas gie\u00dfen und dem Verbraucher pr\u00e4sentieren, dabei wird erwartet, dass sie die Oberseite des Schnapsglases mit ihrer Handfl\u00e4che bedecken, das Glas anheben, es auf den Tisch schlagen und schnell schlucken.",
      "strInstructionsFR": null,
      "strInstructionsZH-HANS": null,
      "strInstructionsZH-HANT": null,
      "strDrinkThumb": "https://www.thecocktaildb.com/images/media/drink/09yd5f1493069852.jpg",
      "strIngredient1": "7-Up",
      "strIngredient2": "Apple schnapps",
      "strIngredient3": null,
      "strIngredient4": null,
      "strIngredient5": null,
      "strIngredient6": null,
      "strIngredient7": null,
      "strIngredient8": null,
      "strIngredient9": null,
      "strIngredient10": null,
      "strIngredient11": null,
      "strIngredient12": null,
      "strIngredient13": null,
      "strIngredient14": null,
      "strIngredient15": null,
      "strMeasure1": "1 part ",
      "strMeasure2": "1 part ",
      "strMeasure3": null,
      "strMeasure4": null,
      "strMeasure5": null,
      "strMeasure6": null,
      "strMeasure7": null,
      "strMeasure8": null,
      "strMeasure9": null,
      "strMeasure10": null,
      "strMeasure11": null,
      "strMeasure12": null,
      "strMeasure13": null,
      "strMeasure14": null,
      "strMeasure15": null,
      "strCreativeCommonsConfirmed": "No",
      "dateModified": "2017-04-24 22:37:32"
    }
  ]
}