{
  "drinks": [
    {
      "idDrink": "13837",
      "strDrink": "Kir Royale",
      "strDrinkAlternate": null,
      "strDrinkES": null,
      "strDrinkDE": null,
      "strDrinkFR": null,
      "strDrinkZH-HANS": null,
      "strDrinkZH-HANT": null,
      "strTags": null,
      "strVideo": null,
      "strCategory": "Ordinary Drink",
      "strIBA": null,
      "strAlcoholic": "Alcoholic",
      "strGlass": "Champagne Flute",
      "strInstructions": "Pour Creme de cassis in glass, gently pour champagne on top",
      "strInstructionsES": null,
      "strInstructionsDE": "Creme de Cassis in ein Glas geben, vorsichtig Champagner dar\u00fcber gie\u00dfen.",
      "strInstructionsFR": null,
      "strInstructionsZH-HANS": null,
      "strInstructionsZH-HANT": null,
      "strDrinkThumb": "https://www.thecocktaildb.com/images/media/drink/yt9i7n1504370388.jpg",
      "strIngredient1": "Creme de Cassis",
      "strIngredient2": "Champagne",
      "strIngredient3": null,
      "strIngredient4": null,
      "strIngredient5": null,
      "strIngredient6": null,
      "strIngredient7": null,
      "strIngredient8": null,
      "strIngredient9": null,
      "strIngredient10": null,
      "strIngredient11": null,
      "strIngredient12": null,
      "strIngredient13": null,
      "strIngredient14": null,
      "strIngredient15": null,
      "strMeasure1": "1 part ",
      "strMeasure2": "5 parts ",
      "strMeasure3": null,
      "strMeasure4": null,
      "strMeasure5": null,
      "strMeasure6": null,
      "strMeasure7": null,
      "strMeasure8": null,
      "strMeasure9": null,
      "strMeasure10": null,
      "strMeasure11": null,
      "strMeasure12": null,
      "strMeasure13": null,
      "strMeasure14": null,
      "strMeasure15": null,
      "strCreativeCommonsConfirmed": "No",
      "dateModified": "2017-09-02 17:39:48"
    }
  ]
}