{
  "drinks": [
    {
      "idDrink": "13861",
      "strDrink": "Nutty Irishman",
      "strDrinkAlternate": null,
      "strDrinkES": null,
      "strDrinkDE": null,
      "strDrinkFR": null,
      "strDrinkZH-HANS": null,
      "strDrinkZH-HANT": null,
      "strTags": null,
      "strVideo": null,
      "strCategory": "Milk / Float / Shake",
      "strIBA": null,
      "strAlcoholic": "Alcoholic",
      "strGlass": "Highball Glass",
      "strInstructions": "Serve over ice",
      "strInstructionsES": null,
      "strInstructionsDE": "Auf Eis servieren",
      "strInstructionsFR": null,
      "strInstructionsZH-HANS": null,
      "strInstructionsZH-HANT": null,
      "strDrinkThumb": "https://www.thecocktaildb.com/images/media/drink/xspupx1441248014.jpg",
      "strIngredient1": "Baileys irish cream",
      "strIngredient2": "Frangelico",
      "strIngredient3": "Milk",
      "strIngredient4": null,
      "strIngredient5": null,
      "strIngredient6": null,
      "strIngredient7": null,
      "strIngredient8": null,
      "strIngredient9": null,
      "strIngredient10": null,
      "strIngredient11": null,
      "strIngredient12": null,
      "strIngredient13": null,
      "strIngredient14": null,
      "strIngredient15": null,
      "strMeasure1": "1 part ",
      "strMeasure2": "1 part ",
      "strMeasure3": "1 part ",
      "strMeasure4": null,
      "strMeasure5": null,
      "strMeasure6": null,
      "strMeasure7": null,
      "strMeasure8": null,
      "strMeasure9": null,
      "strMeasure10": null,
      "strMeasure11": null,
      "strMeasure12": null,
      "strMeasure13": null,
      "strMeasure14": null,
      "strMeasure15": null,
      "strCreativeCommonsConfirmed": "No",
      "dateModified": "2015-09-03 03:40:14"
    }
  ]
}