{
  "drinks": [
    {
      "idDrink": "13971",
      "strDrink": "Irish Coffee",
      "strDrinkAlternate": null,
      "strDrinkES": null,
      "strDrinkDE": null,
      "strDrinkFR": null,
      "strDrinkZH-HANS": null,
      "strDrinkZH-HANT": null,
      "strTags": "IBA,ContemporaryClassic",
      "strVideo": null,
      "strCategory": "Coffee / Tea",
      "strIBA": "Contemporary Classics",
      "strAlcoholic": "Alcoholic",
      "strGlass": "Irish coffee cup",
      "strInstructions": "Heat the coffee, whiskey and sugar; do not boil. Pour into glass and top with cream; serve hot.",
      "strInstructionsES": null,
      "strInstructionsDE": "Kaffee, Whiskey und Zucker erhitzen; nicht kochen lassen. In ein Glas geben und mit Sahne \u00fcbergie\u00dfen; hei\u00df servieren.",
      "strInstructionsFR": null,
      "strInstructionsZH-HANS": null,
      "strInstructionsZH-HANT": null,
      "strDrinkThumb": "https://www.thecocktaildb.com/images/media/drink/sywsqw1439906999.jpg",
      "strIngredient1": "Irish whiskey",
      "strIngredient2": "Coffee",
      "strIngredient3": "Sugar",
      "strIngredient4": "Whipped cream",
      "strIngredient5": null,
      "strIngredient6": null,
      "strIngredient7": null,
      "strIngredient8": null,
      "strIngredient9": null,
      "strIngredient10": null,
      "strIngredient11": null,
      "strIngredient12": null,
      "strIngredient13": null,
      "strIngredient14": null,
      "strIngredient15": null,
      "strMeasure1": "1 1/2 oz ",
      "strMeasure2": "8 oz ",
      "strMeasure3": "1 tsp ",
      "strMeasure4": "1 tblsp ",
      "strMeasure5": null,
      "strMeasure6": null,
      "strMeasure7": null,
      "strMeasure8": null,
      "strMeasure9": null,
      "strMeasure10": null,
      "strMeasure11": null,
      "strMeasure12": null,
      "strMeasure13": null,
      "strMeasure14": null,
      "strMeasure15": null,
      "strCreativeCommonsConfirmed": "No",
      "dateModified": "2015-08-18 15:09:59"
    }
  ]
}