{
  "drinks": [
    {
      "idDrink": "14095",
      "strDrink": "Jamaica Kiss",
      "strDrinkAlternate": null,
      "strDrinkES": null,
      "strDrinkDE": null,
      "strDrinkFR": null,
      "strDrinkZH-HANS": null,
      "strDrinkZH-HANT": null,
      "strTags": null,
      "strVideo": null,
      "strCategory": "Milk / Float / Shake",
      "strIBA": null,
      "strAlcoholic": "Alcoholic",
      "strGlass": "Hurricane glass",
      "strInstructions": "Fill a tumbler with ice cubes. Add a shot of Tia Maria and a shot of Jamaican light rum. Fill the tumbler with milk. Blend until smooth and serve immediately.",
      "strInstructionsES": null,
      "strInstructionsDE": "F\u00fcllen Sie einen Becher mit Eisw\u00fcrfeln. F\u00fcge einen Schuss Tia Maria und einen Schuss jamaikanischen leichten Rum hinzu. F\u00fcllen Sie den Becher mit Milch. Mischen, bis sie glatt sind und sofort servieren.",
      "strInstructionsFR": null,
      "strInstructionsZH-HANS": null,
      "strInstructionsZH-HANT": null,
      "strDrinkThumb": "https://www.thecocktaildb.com/images/media/drink/urpvvv1441249549.jpg",
      "strIngredient1": "Coffee liqueur",
      "strIngredient2": "Light rum",
      "strIngredient3": "Ice",
      "strIngredient4": "Milk",
      "strIngredient5": null,
      "strIngredient6": null,
      "strIngredient7": null,
      "strIngredient8": null,
      "strIngredient9": null,
      "strIngredient10": null,
      "strIngredient11": null,
      "strIngredient12": null,
      "strIngredient13": null,
      "strIngredient14": null,
      "strIngredient15": null,
      "strMeasure1": "1 shot ",
      "strMeasure2": "1 shot Jamaican ",
      "strMeasure3": "cubes",
      "strMeasure4": null,
      "strMeasure5": null,
      "strMeasure6": null,
      "strMeasure7": null,
      "strMeasure8": null,
      "strMeasure9": null,
      "strMeasure10": null,
      "strMeasure11": null,
      "strMeasure12": null,
      "strMeasure13": null,
      "strMeasure14": null,
      "strMeasure15": null,
      "strCreativeCommonsConfirmed": "No",
      "dateModified": "2015-09-03 04:05:49"
    }
  ]
}