{
  "drinks": [
    {
      "idDrink": "14133",
      "strDrink": "Cosmopolitan Martini",
      "strDrinkAlternate": null,
      "strDrinkES": null,
      "strDrinkDE": null,
      "strDrinkFR": null,
      "strDrinkZH-HANS": null,
      "strDrinkZH-HANT": null,
      "strTags": null,
      "strVideo": null,
      "strCategory": "Cocktail",
      "strIBA": null,
      "strAlcoholic": "Alcoholic",
      "strGlass": "Cocktail Glass",
      "strInstructions": "Pour all ingredients in mixing glass half filled with ice, shake and strain into chilled Martini glass.",
      "strInstructionsES": null,
      "strInstructionsDE": "Alle Zutaten in ein halb mit Eis gef\u00fclltes Mischglas geben, sch\u00fctteln und in ein gek\u00fchltes Martini-Glas abseihen.",
      "strInstructionsFR": null,
      "strInstructionsZH-HANS": null,
      "strInstructionsZH-HANT": null,
      "strDrinkThumb": "https://www.thecocktaildb.com/images/media/drink/upxxpq1439907580.jpg",
      "strIngredient1": "Cointreau",
      "strIngredient2": "Vodka",
      "strIngredient3": "Lime",
      "strIngredient4": "Cranberry juice",
      "strIngredient5": null,
      "strIngredient6": null,
      "strIngredient7": null,
      "strIngredient8": null,
      "strIngredient9": null,
      "strIngredient10": null,
      "strIngredient11": null,
      "strIngredient12": null,
      "strIngredient13": null,
      "strIngredient14": null,
      "strIngredient15": null,
      "strMeasure1": "1/2 oz ",
      "strMeasure2": "1 oz ",
      "strMeasure3": "Juice of 1/2 ",
      "strMeasure4": "1 splash ",
      "strMeasure5": null,
      "strMeasure6": null,
      "strMeasure7": null,
      "strMeasure8": null,
      "strMeasure9": null,
      "strMeasure10": null,
      "strMeasure11": null,
      "strMeasure12": null,
      "strMeasure13": null,
      "strMeasure14": null,
      "strMeasure15": null,
      "strCreativeCommonsConfirmed": "No",
      "dateModified": "2015-08-18 15:19:40"
    }
  ]
}