{
  "drinks": [
    {
      "idDrink": "14167",
      "strDrink": "Vodka Martini",
      "strDrinkAlternate": null,
      "strDrinkES": null,
      "strDrinkDE": null,
      "strDrinkFR": null,
      "strDrinkZH-HANS": null,
      "strDrinkZH-HANT": null,
      "strTags": null,
      "strVideo": null,
      "strCategory": "Ordinary Drink",
      "strIBA": null,
      "strAlcoholic": "Alcoholic",
      "strGlass": "Cocktail glass",
      "strInstructions": "Shake the vodka and vermouth together with a number of ice cubes, strain into a cocktail glass, add the olive and serve.",
      "strInstructionsES": null,
      "strInstructionsDE": "Wodka und Wermut zusammen mit einer Reihe von Eisw\u00fcrfeln sch\u00fctteln, in ein Cocktailglas abseihen, die Olive dazugeben und servieren.",
      "strInstructionsFR": null,
      "strInstructionsZH-HANS": null,
      "strInstructionsZH-HANT": null,
      "strDrinkThumb": "https://www.thecocktaildb.com/images/media/drink/qyxrqw1439906528.jpg",
      "strIngredient1": "Vodka",
      "strIngredient2": "Dry Vermouth",
      "strIngredient3": "Olive",
      "strIngredient4": null,
      "strIngredient5": null,
      "strIngredient6": null,
      "strIngredient7": null,
      "strIngredient8": null,
      "strIngredient9": null,
      "strIngredient10": null,
      "strIngredient11": null,
      "strIngredient12": null,
      "strIngredient13": null,
      "strIngredient14": null,
      "strIngredient15": null,
      "strMeasure1": "1 1/2 oz ",
      "strMeasure2": "3/4 oz ",
      "strMeasure3": "1 ",
      "strMeasure4": null,
      "strMeasure5": null,
      "strMeasure6": null,
      "strMeasure7": null,
      "strMeasure8": null,
      "strMeasure9": null,
      "strMeasure10": null,
      "strMeasure11": null,
      "strMeasure12": null,
      "strMeasure13": null,
      "strMeasure14": null,
      "strMeasure15": null,
      "strCreativeCommonsConfirmed": "No",
      "dateModified": "2015-08-18 15:02:08"
    }
  ]
}