{
  "drinks": [
    {
      "idDrink": "14195",
      "strDrink": "Snowball",
      "strDrinkAlternate": null,
      "strDrinkES": null,
      "strDrinkDE": null,
      "strDrinkFR": null,
      "strDrinkZH-HANS": null,
      "strDrinkZH-HANT": null,
      "strTags": null,
      "strVideo": null,
      "strCategory": "Ordinary Drink",
      "strIBA": null,
      "strAlcoholic": "Alcoholic",
      "strGlass": "Highball glass",
      "strInstructions": "Place one ice cube in the glass and add 1 1/2 oz of Advocaat. Fill up the glass with lemonade and decorate with a slice of lemon. Serve at once.",
      "strInstructionsES": null,
      "strInstructionsDE": "Einen Eisw\u00fcrfel in das Glas geben und 4,5 cl. Advocaat hinzuf\u00fcgen. Das Glas mit Limonade f\u00fcllen und mit einer Scheibe Zitrone dekorieren. Sofort servieren.",
      "strInstructionsFR": null,
      "strInstructionsZH-HANS": null,
      "strInstructionsZH-HANT": null,
      "strDrinkThumb": "https://www.thecocktaildb.com/images/media/drink/7ibfs61504735416.jpg",
      "strIngredient1": "Advocaat",
      "strIngredient2": "Lemonade",
      "strIngredient3": "Lemon",
      "strIngredient4": "Ice",
      "strIngredient5": null,
      "strIngredient6": null,
      "strIngredient7": null,
      "strIngredient8": null,
      "strIngredient9": null,
      "strIngredient10": null,
      "strIngredient11": null,
      "strIngredient12": null,
      "strIngredient13": null,
      "strIngredient14": null,
      "strIngredient15": null,
      "strMeasure1": "1 1/2 oz ",
      "strMeasure2": "8-10 oz cold ",
      "strMeasure3": "1 slice ",
      "strMeasure4": "cubes",
      "strMeasure5": null,
      "strMeasure6": null,
      "strMeasure7": null,
      "strMeasure8": null,
      "strMeasure9": null,
      "strMeasure10": null,
      "strMeasure11": null,
      "strMeasure12": null,
      "strMeasure13": null,
      "strMeasure14": null,
      "strMeasure15": null,
      "strCreativeCommonsConfirmed": "No",
      "dateModified": "2017-09-06 23:03:36"
    }
  ]
}