{
  "drinks": [
    {
      "idDrink": "14209",
      "strDrink": "Mocha-Berry",
      "strDrinkAlternate": null,
      "strDrinkES": null,
      "strDrinkDE": null,
      "strDrinkFR": null,
      "strDrinkZH-HANS": null,
      "strDrinkZH-HANT": null,
      "strTags": null,
      "strVideo": null,
      "strCategory": "Coffee / Tea",
      "strIBA": null,
      "strAlcoholic": "Alcoholic",
      "strGlass": "Irish coffee cup",
      "strInstructions": "pour 6 oz. of coffee in a mug or Irish coffee cup. add coca mix and chambord, mix well and top off with whipped cream.",
      "strInstructionsES": null,
      "strInstructionsDE": "Geben Sie 18 cl. Kaffee in eine Tasse oder eine irische Kaffeetasse. F\u00fcgen Sie Kokamischung und Chambord hinzu, mischen Sie gut und geben Sie Schlagsahne dazu.",
      "strInstructionsFR": null,
      "strInstructionsZH-HANS": null,
      "strInstructionsZH-HANT": null,
      "strDrinkThumb": "https://www.thecocktaildb.com/images/media/drink/vtwyyx1441246448.jpg",
      "strIngredient1": "Coffee",
      "strIngredient2": "Chambord raspberry liqueur",
      "strIngredient3": "Cocoa powder",
      "strIngredient4": "Whipped cream",
      "strIngredient5": null,
      "strIngredient6": null,
      "strIngredient7": null,
      "strIngredient8": null,
      "strIngredient9": null,
      "strIngredient10": null,
      "strIngredient11": null,
      "strIngredient12": null,
      "strIngredient13": null,
      "strIngredient14": null,
      "strIngredient15": null,
      "strMeasure1": "6 oz ",
      "strMeasure2": "2 oz ",
      "strMeasure3": "2 tblsp ",
      "strMeasure4": null,
      "strMeasure5": null,
      "strMeasure6": null,
      "strMeasure7": null,
      "strMeasure8": null,
      "strMeasure9": null,
      "strMeasure10": null,
      "strMeasure11": null,
      "strMeasure12": null,
      "strMeasure13": null,
      "strMeasure14": null,
      "strMeasure15": null,
      "strCreativeCommonsConfirmed": "No",
      "dateModified": "2015-09-03 03:14:08"
    }
  ]
}