{
  "drinks": [
    {
      "idDrink": "14272",
      "strDrink": "Addison Special",
      "strDrinkAlternate": null,
      "strDrinkES": null,
      "strDrinkDE": null,
      "strDrinkFR": null,
      "strDrinkZH-HANS": null,
      "strDrinkZH-HANT": null,
      "strTags": null,
      "strVideo": null,
      "strCategory": "Cocktail",
      "strIBA": null,
      "strAlcoholic": "Alcoholic",
      "strGlass": "Old-fashioned glass",
      "strInstructions": "Combine ingredients in the order listed into a shaker. Fill half full with ice and shake well. Strain into glass with ice and garnish with a cherry and orange wedge.",
      "strInstructionsES": null,
      "strInstructionsDE": "Mische die Zutaten in der angegebenen Reihenfolge in einem Shaker. Halb voll mit Eis f\u00fcllen und gut sch\u00fctteln. In ein Glas mit Eis abseihen und mit einem Kirsch- und Orangenkeil garnieren.",
      "strInstructionsFR": null,
      "strInstructionsZH-HANS": null,
      "strInstructionsZH-HANT": null,
      "strDrinkThumb": "https://www.thecocktaildb.com/images/media/drink/4vo5651493068493.jpg",
      "strIngredient1": "Vodka",
      "strIngredient2": "Grenadine",
      "strIngredient3": "Orange juice",
      "strIngredient4": null,
      "strIngredient5": null,
      "strIngredient6": null,
      "strIngredient7": null,
      "strIngredient8": null,
      "strIngredient9": null,
      "strIngredient10": null,
      "strIngredient11": null,
      "strIngredient12": null,
      "strIngredient13": null,
      "strIngredient14": null,
      "strIngredient15": null,
      "strMeasure1": "1 shot ",
      "strMeasure2": "1 tblsp ",
      "strMeasure3": "Fill with ",
      "strMeasure4": null,
      "strMeasure5": null,
      "strMeasure6": null,
      "strMeasure7": null,
      "strMeasure8": null,
      "strMeasure9": null,
      "strMeasure10": null,
      "strMeasure11": null,
      "strMeasure12": null,
      "strMeasure13": null,
      "strMeasure14": null,
      "strMeasure15": null,
      "strCreativeCommonsConfirmed": "No",
      "dateModified": "2017-04-24 22:14:53"
    }
  ]
}