{
  "drinks": [
    {
      "idDrink": "14282",
      "strDrink": "California Root Beer",
      "strDrinkAlternate": null,
      "strDrinkES": null,
      "strDrinkDE": null,
      "strDrinkFR": null,
      "strDrinkZH-HANS": null,
      "strDrinkZH-HANT": null,
      "strTags": null,
      "strVideo": null,
      "strCategory": "Soft Drink / Soda",
      "strIBA": null,
      "strAlcoholic": "Alcoholic",
      "strGlass": "Highball glass",
      "strInstructions": "Put Kahlua and Galliano in highball glass fill with soda",
      "strInstructionsES": null,
      "strInstructionsDE": "Kahlua und Galliano in ein Highball-Glas geben und mit Soda f\u00fcllen.",
      "strInstructionsFR": null,
      "strInstructionsZH-HANS": null,
      "strInstructionsZH-HANT": null,
      "strDrinkThumb": "https://www.thecocktaildb.com/images/media/drink/rsxuyr1472719526.jpg",
      "strIngredient1": "Kahlua",
      "strIngredient2": "Galliano",
      "strIngredient3": "Soda water",
      "strIngredient4": null,
      "strIngredient5": null,
      "strIngredient6": null,
      "strIngredient7": null,
      "strIngredient8": null,
      "strIngredient9": null,
      "strIngredient10": null,
      "strIngredient11": null,
      "strIngredient12": null,
      "strIngredient13": null,
      "strIngredient14": null,
      "strIngredient15": null,
      "strMeasure1": "3/4 oz ",
      "strMeasure2": "3/4 oz ",
      "strMeasure3": "Fill with ",
      "strMeasure4": null,
      "strMeasure5": null,
      "strMeasure6": null,
      "strMeasure7": null,
      "strMeasure8": null,
      "strMeasure9": null,
      "strMeasure10": null,
      "strMeasure11": null,
      "strMeasure12": null,
      "strMeasure13": null,
      "strMeasure14": null,
      "strMeasure15": null,
      "strCreativeCommonsConfirmed": "No",
      "dateModified": "2016-09-01 09:45:26"
    }
  ]
}