{
  "drinks": [
    {
      "idDrink": "14446",
      "strDrink": "Kool-Aid Slammer",
      "strDrinkAlternate": null,
      "strDrinkES": null,
      "strDrinkDE": null,
      "strDrinkFR": null,
      "strDrinkZH-HANS": null,
      "strDrinkZH-HANT": null,
      "strTags": null,
      "strVideo": null,
      "strCategory": "Shot",
      "strIBA": null,
      "strAlcoholic": "Alcoholic",
      "strGlass": "Shot glass",
      "strInstructions": "Fill half the shot glass with the kool-aid first. Then put a paper towel over the top of the glass and slowly pour in the vodka. If you do it right, you should be able to see that the two liquids are separated, with the vodka on top. Now slam it! The last thing you'll taste is the kool-aid.",
      "strInstructionsES": null,
      "strInstructionsDE": "F\u00fcllen Sie zuerst die H\u00e4lfte des Schnapsglases mit dem Kool-Aid. Dann legen Sie ein Papiertuch \u00fcber das Glas und gie\u00dfen Sie den Wodka langsam ein. Wenn du es richtig machst, solltest du sehen k\u00f6nnen, dass die beiden Fl\u00fcssigkeiten getrennt sind, mit dem Wodka oben drauf. Jetzt knall es rein! Das Letzte, was du schmecken wirst, ist das Kool-Aid.",
      "strInstructionsFR": null,
      "strInstructionsZH-HANS": null,
      "strInstructionsZH-HANT": null,
      "strDrinkThumb": "https://www.thecocktaildb.com/images/media/drink/kugu2m1504735473.jpg",
      "strIngredient1": "Kool-Aid",
      "strIngredient2": "Vodka",
      "strIngredient3": null,
      "strIngredient4": null,
      "strIngredient5": null,
      "strIngredient6": null,
      "strIngredient7": null,
      "strIngredient8": null,
      "strIngredient9": null,
      "strIngredient10": null,
      "strIngredient11": null,
      "strIngredient12": null,
      "strIngredient13": null,
      "strIngredient14": null,
      "strIngredient15": null,
      "strMeasure1": "1/2 oz Grape ",
      "strMeasure2": "1/2 oz ",
      "strMeasure3": null,
      "strMeasure4": null,
      "strMeasure5": null,
      "strMeasure6": null,
      "strMeasure7": null,
      "strMeasure8": null,
      "strMeasure9": null,
      "strMeasure10": null,
      "strMeasure11": null,
      "strMeasure12": null,
      "strMeasure13": null,
      "strMeasure14": null,
      "strMeasure15": null,
      "strCreativeCommonsConfirmed": "No",
      "dateModified": "2017-09-06 23:04:33"
    }
  ]
}