{
  "drinks": [
    {
      "idDrink": "14588",
      "strDrink": "151 Florida Bushwacker",
      "strDrinkAlternate": null,
      "strDrinkES": null,
      "strDrinkDE": null,
      "strDrinkFR": null,
      "strDrinkZH-HANS": null,
      "strDrinkZH-HANT": null,
      "strTags": null,
      "strVideo": null,
      "strCategory": "Milk / Float / Shake",
      "strIBA": null,
      "strAlcoholic": "Alcoholic",
      "strGlass": "Beer mug",
      "strInstructions": "Combine all ingredients. Blend until smooth. Garnish with chocolate shavings if desired.",
      "strInstructionsES": null,
      "strInstructionsDE": "Alle Zutaten vermengen. Mischen, bis alles glatt ist. Auf Wunsch mit Schokoladenraspeln garnieren.",
      "strInstructionsFR": null,
      "strInstructionsZH-HANS": null,
      "strInstructionsZH-HANT": null,
      "strDrinkThumb": "https://www.thecocktaildb.com/images/media/drink/rvwrvv1468877323.jpg",
      "strIngredient1": "Malibu rum",
      "strIngredient2": "Light rum",
      "strIngredient3": "151 proof rum",
      "strIngredient4": "Dark Creme de Cacao",
      "strIngredient5": "Cointreau",
      "strIngredient6": "Milk",
      "strIngredient7": "Coconut liqueur",
      "strIngredient8": "Vanilla ice-cream",
      "strIngredient9": null,
      "strIngredient10": null,
      "strIngredient11": null,
      "strIngredient12": null,
      "strIngredient13": null,
      "strIngredient14": null,
      "strIngredient15": null,
      "strMeasure1": "1/2 oz ",
      "strMeasure2": "1/2 oz ",
      "strMeasure3": "1/2 oz Bacardi ",
      "strMeasure4": "1 oz ",
      "strMeasure5": "1 oz ",
      "strMeasure6": "3 oz ",
      "strMeasure7": "1 oz ",
      "strMeasure8": "1 cup ",
      "strMeasure9": null,
      "strMeasure10": null,
      "strMeasure11": null,
      "strMeasure12": null,
      "strMeasure13": null,
      "strMeasure14": null,
      "strMeasure15": null,
      "strCreativeCommonsConfirmed": "No",
      "dateModified": "2016-07-18 22:28:43"
    }
  ]
}