{
  "drinks": [
    {
      "idDrink": "14598",
      "strDrink": "50/50",
      "strDrinkAlternate": null,
      "strDrinkES": null,
      "strDrinkDE": null,
      "strDrinkFR": null,
      "strDrinkZH-HANS": null,
      "strDrinkZH-HANT": null,
      "strTags": null,
      "strVideo": null,
      "strCategory": "Ordinary Drink",
      "strIBA": null,
      "strAlcoholic": "Alcoholic",
      "strGlass": "Collins Glass",
      "strInstructions": "fill glass with crushed ice. Add vodka. Add a splash of grand-marnier. Fill with o.j.",
      "strInstructionsES": null,
      "strInstructionsDE": "Glas mit zersto\u00dfenem Eis f\u00fcllen. F\u00fcge Wodka hinzu. F\u00fcge einen Spritzer Grand-Marnier hinzu. F\u00fcllen Sie mit o.j.",
      "strInstructionsFR": null,
      "strInstructionsZH-HANS": null,
      "strInstructionsZH-HANT": null,
      "strDrinkThumb": "https://www.thecocktaildb.com/images/media/drink/wwpyvr1461919316.jpg",
      "strIngredient1": "Vanilla vodka",
      "strIngredient2": "Grand Marnier",
      "strIngredient3": "Orange juice",
      "strIngredient4": null,
      "strIngredient5": null,
      "strIngredient6": null,
      "strIngredient7": null,
      "strIngredient8": null,
      "strIngredient9": null,
      "strIngredient10": null,
      "strIngredient11": null,
      "strIngredient12": null,
      "strIngredient13": null,
      "strIngredient14": null,
      "strIngredient15": null,
      "strMeasure1": "2 1/2 oz ",
      "strMeasure2": "1 splash ",
      "strMeasure3": "Fill with ",
      "strMeasure4": null,
      "strMeasure5": null,
      "strMeasure6": null,
      "strMeasure7": null,
      "strMeasure8": null,
      "strMeasure9": null,
      "strMeasure10": null,
      "strMeasure11": null,
      "strMeasure12": null,
      "strMeasure13": null,
      "strMeasure14": null,
      "strMeasure15": null,
      "strCreativeCommonsConfirmed": "No",
      "dateModified": "2016-04-29 09:41:56"
    }
  ]
}