{
  "drinks": [
    {
      "idDrink": "15106",
      "strDrink": "Apello",
      "strDrinkAlternate": null,
      "strDrinkES": null,
      "strDrinkDE": null,
      "strDrinkFR": null,
      "strDrinkZH-HANS": null,
      "strDrinkZH-HANT": null,
      "strTags": null,
      "strVideo": null,
      "strCategory": "Other/Unknown",
      "strIBA": null,
      "strAlcoholic": "Non alcoholic",
      "strGlass": "Collins Glass",
      "strInstructions": "Stirr. Grnish with maraschino cherry.",
      "strInstructionsES": null,
      "strInstructionsDE": "R\u00fchren. Mit Maraschinokirsche garnieren.",
      "strInstructionsFR": null,
      "strInstructionsZH-HANS": null,
      "strInstructionsZH-HANT": null,
      "strDrinkThumb": "https://www.thecocktaildb.com/images/media/drink/uptxtv1468876415.jpg",
      "strIngredient1": "Orange juice",
      "strIngredient2": "Grapefruit juice",
      "strIngredient3": "Apple juice",
      "strIngredient4": "Maraschino cherry",
      "strIngredient5": null,
      "strIngredient6": null,
      "strIngredient7": null,
      "strIngredient8": null,
      "strIngredient9": null,
      "strIngredient10": null,
      "strIngredient11": null,
      "strIngredient12": null,
      "strIngredient13": null,
      "strIngredient14": null,
      "strIngredient15": null,
      "strMeasure1": "4 cl ",
      "strMeasure2": "3 cl ",
      "strMeasure3": "1 cl ",
      "strMeasure4": "1 ",
      "strMeasure5": null,
      "strMeasure6": null,
      "strMeasure7": null,
      "strMeasure8": null,
      "strMeasure9": null,
      "strMeasure10": null,
      "strMeasure11": null,
      "strMeasure12": null,
      "strMeasure13": null,
      "strMeasure14": null,
      "strMeasure15": null,
      "strCreativeCommonsConfirmed": "No",
      "dateModified": "2016-07-18 22:13:35"
    }
  ]
}