{
  "drinks": [
    {
      "idDrink": "15194",
      "strDrink": "Amaretto Shake",
      "strDrinkAlternate": null,
      "strDrinkES": null,
      "strDrinkDE": null,
      "strDrinkFR": null,
      "strDrinkZH-HANS": null,
      "strDrinkZH-HANT": null,
      "strTags": null,
      "strVideo": null,
      "strCategory": "Ordinary Drink",
      "strIBA": null,
      "strAlcoholic": "Alcoholic",
      "strGlass": "Collins Glass",
      "strInstructions": "Combine all ingredients in a blender and blend at high speed until smooth. Serve in chilled glass garnished with bittersweet chocolate shavings.",
      "strInstructionsES": null,
      "strInstructionsDE": "Alle Zutaten in einem Mixer mischen und mit hoher Geschwindigkeit zu einem geschmeidigen Ganzen verarbeiten. Servieren Sie es in gek\u00fchltem Glas, garniert mit bitters\u00fc\u00dfen Schokoladenraspeln.",
      "strInstructionsFR": null,
      "strInstructionsZH-HANS": null,
      "strInstructionsZH-HANT": null,
      "strDrinkThumb": "https://www.thecocktaildb.com/images/media/drink/xk79al1493069655.jpg",
      "strIngredient1": "Chocolate ice-cream",
      "strIngredient2": "Brandy",
      "strIngredient3": "Amaretto",
      "strIngredient4": null,
      "strIngredient5": null,
      "strIngredient6": null,
      "strIngredient7": null,
      "strIngredient8": null,
      "strIngredient9": null,
      "strIngredient10": null,
      "strIngredient11": null,
      "strIngredient12": null,
      "strIngredient13": null,
      "strIngredient14": null,
      "strIngredient15": null,
      "strMeasure1": "2 scoops ",
      "strMeasure2": "2 oz ",
      "strMeasure3": "2 oz ",
      "strMeasure4": null,
      "strMeasure5": null,
      "strMeasure6": null,
      "strMeasure7": null,
      "strMeasure8": null,
      "strMeasure9": null,
      "strMeasure10": null,
      "strMeasure11": null,
      "strMeasure12": null,
      "strMeasure13": null,
      "strMeasure14": null,
      "strMeasure15": null,
      "strCreativeCommonsConfirmed": "No",
      "dateModified": "2017-04-24 22:34:16"
    }
  ]
}