{
  "drinks": [
    {
      "idDrink": "15395",
      "strDrink": "1-900-FUK-MEUP",
      "strDrinkAlternate": null,
      "strDrinkES": null,
      "strDrinkDE": null,
      "strDrinkFR": null,
      "strDrinkZH-HANS": null,
      "strDrinkZH-HANT": null,
      "strTags": null,
      "strVideo": null,
      "strCategory": "Shot",
      "strIBA": null,
      "strAlcoholic": "Alcoholic",
      "strGlass": "Old-fashioned glass",
      "strInstructions": "Shake ingredients in a mixing tin filled with ice cubes. Strain into a rocks glass.",
      "strInstructionsES": null,
      "strInstructionsDE": "Die Zutaten in einem mit Eisw\u00fcrfeln gef\u00fcllten Mischgef\u00e4\u00df sch\u00fctteln. In ein Rocks Glas abseihen.",
      "strInstructionsFR": null,
      "strInstructionsZH-HANS": null,
      "strInstructionsZH-HANT": null,
      "strDrinkThumb": "https://www.thecocktaildb.com/images/media/drink/uxywyw1468877224.jpg",
      "strIngredient1": "Absolut Kurant",
      "strIngredient2": "Grand Marnier",
      "strIngredient3": "Chambord raspberry liqueur",
      "strIngredient4": "Midori melon liqueur",
      "strIngredient5": "Malibu rum",
      "strIngredient6": "Amaretto",
      "strIngredient7": "Cranberry juice",
      "strIngredient8": "Pineapple juice",
      "strIngredient9": null,
      "strIngredient10": null,
      "strIngredient11": null,
      "strIngredient12": null,
      "strIngredient13": null,
      "strIngredient14": null,
      "strIngredient15": null,
      "strMeasure1": "1/2 oz ",
      "strMeasure2": "1/4 oz ",
      "strMeasure3": "1/4 oz ",
      "strMeasure4": "1/4 oz ",
      "strMeasure5": "1/4 oz ",
      "strMeasure6": "1/4 oz ",
      "strMeasure7": "1/2 oz ",
      "strMeasure8": "1/4 oz ",
      "strMeasure9": null,
      "strMeasure10": null,
      "strMeasure11": null,
      "strMeasure12": null,
      "strMeasure13": null,
      "strMeasure14": null,
      "strMeasure15": null,
      "strCreativeCommonsConfirmed": "No",
      "dateModified": "2016-07-18 22:27:04"
    }
  ]
}