{
  "drinks": [
    {
      "idDrink": "15515",
      "strDrink": "Tennesee Mud",
      "strDrinkAlternate": null,
      "strDrinkES": null,
      "strDrinkDE": null,
      "strDrinkFR": null,
      "strDrinkZH-HANS": null,
      "strDrinkZH-HANT": null,
      "strTags": null,
      "strVideo": null,
      "strCategory": "Coffee / Tea",
      "strIBA": null,
      "strAlcoholic": "Alcoholic",
      "strGlass": "Coffee Mug",
      "strInstructions": "Mix Coffee, Jack Daniels and Amaretto. Add Cream on top.",
      "strInstructionsES": null,
      "strInstructionsDE": "Mische Kaffee, Jack Daniels und Amaretto. Creme darauf geben.",
      "strInstructionsFR": null,
      "strInstructionsZH-HANS": null,
      "strInstructionsZH-HANT": null,
      "strDrinkThumb": "https://www.thecocktaildb.com/images/media/drink/txruqv1441245770.jpg",
      "strIngredient1": "Coffee",
      "strIngredient2": "Jack Daniels",
      "strIngredient3": "Amaretto",
      "strIngredient4": "Whipped cream",
      "strIngredient5": null,
      "strIngredient6": null,
      "strIngredient7": null,
      "strIngredient8": null,
      "strIngredient9": null,
      "strIngredient10": null,
      "strIngredient11": null,
      "strIngredient12": null,
      "strIngredient13": null,
      "strIngredient14": null,
      "strIngredient15": null,
      "strMeasure1": "8 oz ",
      "strMeasure2": "4 oz ",
      "strMeasure3": "4 oz ",
      "strMeasure4": null,
      "strMeasure5": null,
      "strMeasure6": null,
      "strMeasure7": null,
      "strMeasure8": null,
      "strMeasure9": null,
      "strMeasure10": null,
      "strMeasure11": null,
      "strMeasure12": null,
      "strMeasure13": null,
      "strMeasure14": null,
      "strMeasure15": null,
      "strCreativeCommonsConfirmed": "No",
      "dateModified": "2015-09-03 03:02:50"
    }
  ]
}