{
  "drinks": [
    {
      "idDrink": "15639",
      "strDrink": "Texas Sling",
      "strDrinkAlternate": null,
      "strDrinkES": null,
      "strDrinkDE": null,
      "strDrinkFR": null,
      "strDrinkZH-HANS": null,
      "strDrinkZH-HANT": null,
      "strTags": null,
      "strVideo": null,
      "strCategory": "Milk / Float / Shake",
      "strIBA": null,
      "strAlcoholic": "Alcoholic",
      "strGlass": "Wine Glass",
      "strInstructions": "Blend with Ice until smooth. Serve in a tulip glass, top with whip cream.",
      "strInstructionsES": null,
      "strInstructionsDE": "Mit Eis mischen, bis es glatt ist. In einem Tulpenglas servieren, mit Schlagsahne bedecken.",
      "strInstructionsFR": null,
      "strInstructionsZH-HANS": null,
      "strInstructionsZH-HANT": null,
      "strDrinkThumb": "https://www.thecocktaildb.com/images/media/drink/ypl13s1504890158.jpg",
      "strIngredient1": "Kahlua",
      "strIngredient2": "Irish cream",
      "strIngredient3": "Amaretto",
      "strIngredient4": "151 proof rum",
      "strIngredient5": "Cream",
      "strIngredient6": null,
      "strIngredient7": null,
      "strIngredient8": null,
      "strIngredient9": null,
      "strIngredient10": null,
      "strIngredient11": null,
      "strIngredient12": null,
      "strIngredient13": null,
      "strIngredient14": null,
      "strIngredient15": null,
      "strMeasure1": "1/2 oz ",
      "strMeasure2": "1/2 oz ",
      "strMeasure3": "1/2 oz ",
      "strMeasure4": "1/2 oz Bacardi ",
      "strMeasure5": "1 oz ",
      "strMeasure6": null,
      "strMeasure7": null,
      "strMeasure8": null,
      "strMeasure9": null,
      "strMeasure10": null,
      "strMeasure11": null,
      "strMeasure12": null,
      "strMeasure13": null,
      "strMeasure14": null,
      "strMeasure15": null,
      "strCreativeCommonsConfirmed": "No",
      "dateModified": "2017-09-08 18:02:39"
    }
  ]
}