{
  "drinks": [
    {
      "idDrink": "15675",
      "strDrink": "A midsummernight dream",
      "strDrinkAlternate": null,
      "strDrinkES": null,
      "strDrinkDE": null,
      "strDrinkFR": null,
      "strDrinkZH-HANS": null,
      "strDrinkZH-HANT": null,
      "strTags": null,
      "strVideo": null,
      "strCategory": "Ordinary Drink",
      "strIBA": null,
      "strAlcoholic": "Alcoholic",
      "strGlass": "Collins Glass",
      "strInstructions": "Mix the strawberrys in a blender Pour it together with the vodka,kirch and strawberry liquer over ice in a shaker. Shake well and pour in a highballglass. Fill up with the Russchian water",
      "strInstructionsES": null,
      "strInstructionsDE": "Die Erdbeeren in einem Mixer mischen. Gie\u00dfen Sie sie zusammen mit Wodka, Kirch und Erdbeerlik\u00f6r \u00fcber Eis in einen Shaker. Gut sch\u00fctteln und ein Highball Glas einf\u00fcllen. F\u00fcllen Sie das russische Wasser auf.",
      "strInstructionsFR": null,
      "strInstructionsZH-HANS": null,
      "strInstructionsZH-HANT": null,
      "strDrinkThumb": "https://www.thecocktaildb.com/images/media/drink/ysqvqp1461867292.jpg",
      "strIngredient1": "Vodka",
      "strIngredient2": "Kirschwasser",
      "strIngredient3": "Strawberry liqueur",
      "strIngredient4": "Strawberries",
      "strIngredient5": "Schweppes Russchian",
      "strIngredient6": null,
      "strIngredient7": null,
      "strIngredient8": null,
      "strIngredient9": null,
      "strIngredient10": null,
      "strIngredient11": null,
      "strIngredient12": null,
      "strIngredient13": null,
      "strIngredient14": null,
      "strIngredient15": null,
      "strMeasure1": "2 oz ",
      "strMeasure2": "1 oz ",
      "strMeasure3": "1 tsp ",
      "strMeasure4": "5 ",
      "strMeasure5": null,
      "strMeasure6": null,
      "strMeasure7": null,
      "strMeasure8": null,
      "strMeasure9": null,
      "strMeasure10": null,
      "strMeasure11": null,
      "strMeasure12": null,
      "strMeasure13": null,
      "strMeasure14": null,
      "strMeasure15": null,
      "strCreativeCommonsConfirmed": "No",
      "dateModified": "2016-04-28 19:14:52"
    }
  ]
}