{
  "drinks": [
    {
      "idDrink": "15691",
      "strDrink": "Zoksel",
      "strDrinkAlternate": null,
      "strDrinkES": null,
      "strDrinkDE": null,
      "strDrinkFR": null,
      "strDrinkZH-HANS": null,
      "strDrinkZH-HANT": null,
      "strTags": null,
      "strVideo": null,
      "strCategory": "Soft Drink / Soda",
      "strIBA": null,
      "strAlcoholic": "Alcoholic",
      "strGlass": "Beer pilsner",
      "strInstructions": "No specific mixinginstructions, just poor every ingredient in one glass. The lemon goes with it.",
      "strInstructionsES": null,
      "strInstructionsDE": "Keine spezifischen Mischungsanweisungen, nur alle Zutaten in ein Glas geben. Dazu passt Zitrone.",
      "strInstructionsFR": null,
      "strInstructionsZH-HANS": null,
      "strInstructionsZH-HANT": null,
      "strDrinkThumb": "https://www.thecocktaildb.com/images/media/drink/ft8ed01485620930.jpg",
      "strIngredient1": "Beer",
      "strIngredient2": "Root beer",
      "strIngredient3": "Lemonade",
      "strIngredient4": "Coca-Cola",
      "strIngredient5": "7-Up",
      "strIngredient6": "Creme de Cassis",
      "strIngredient7": "Lemon",
      "strIngredient8": null,
      "strIngredient9": null,
      "strIngredient10": null,
      "strIngredient11": null,
      "strIngredient12": null,
      "strIngredient13": null,
      "strIngredient14": null,
      "strIngredient15": null,
      "strMeasure1": null,
      "strMeasure2": null,
      "strMeasure3": null,
      "strMeasure4": " slice\n",
      "strMeasure5": null,
      "strMeasure6": null,
      "strMeasure7": null,
      "strMeasure8": null,
      "strMeasure9": null,
      "strMeasure10": null,
      "strMeasure11": null,
      "strMeasure12": null,
      "strMeasure13": null,
      "strMeasure14": null,
      "strMeasure15": null,
      "strCreativeCommonsConfirmed": "No",
      "dateModified": "2017-01-28 16:28:50"
    }
  ]
}