{
  "drinks": [
    {
      "idDrink": "15789",
      "strDrink": "Snakebite and Black",
      "strDrinkAlternate": null,
      "strDrinkES": null,
      "strDrinkDE": null,
      "strDrinkFR": null,
      "strDrinkZH-HANS": null,
      "strDrinkZH-HANT": null,
      "strTags": null,
      "strVideo": null,
      "strCategory": "Beer",
      "strIBA": null,
      "strAlcoholic": "Alcoholic",
      "strGlass": "Pint glass",
      "strInstructions": "Put blackcurrant squash in first up to about 1cm in glass. Then add the larger and cider one after another.",
      "strInstructionsES": null,
      "strInstructionsDE": "Zuerst den schwarzen Johannisbeer-K\u00fcrbis bis zu ca. 1 cm in ein Glas geben. Dann das Lagerbier und den Apfelwein nacheinander hinzuf\u00fcgen.",
      "strInstructionsFR": null,
      "strInstructionsZH-HANS": null,
      "strInstructionsZH-HANT": null,
      "strDrinkThumb": "https://www.thecocktaildb.com/images/media/drink/rssvwv1441248863.jpg",
      "strIngredient1": "Lager",
      "strIngredient2": "Cider",
      "strIngredient3": "Blackcurrant squash",
      "strIngredient4": null,
      "strIngredient5": null,
      "strIngredient6": null,
      "strIngredient7": null,
      "strIngredient8": null,
      "strIngredient9": null,
      "strIngredient10": null,
      "strIngredient11": null,
      "strIngredient12": null,
      "strIngredient13": null,
      "strIngredient14": null,
      "strIngredient15": null,
      "strMeasure1": "1/2 pint ",
      "strMeasure2": "1/2 pint ",
      "strMeasure3": "A little bit of ",
      "strMeasure4": null,
      "strMeasure5": null,
      "strMeasure6": null,
      "strMeasure7": null,
      "strMeasure8": null,
      "strMeasure9": null,
      "strMeasure10": null,
      "strMeasure11": null,
      "strMeasure12": null,
      "strMeasure13": null,
      "strMeasure14": null,
      "strMeasure15": null,
      "strCreativeCommonsConfirmed": "No",
      "dateModified": "2015-09-03 03:54:23"
    }
  ]
}