{
  "drinks": [
    {
      "idDrink": "15825",
      "strDrink": "Jamaican Coffee",
      "strDrinkAlternate": null,
      "strDrinkES": null,
      "strDrinkDE": null,
      "strDrinkFR": null,
      "strDrinkZH-HANS": null,
      "strDrinkZH-HANT": null,
      "strTags": null,
      "strVideo": null,
      "strCategory": "Coffee / Tea",
      "strIBA": null,
      "strAlcoholic": "Alcoholic",
      "strGlass": "Champagne flute",
      "strInstructions": "Stir the rum, coffee and water together. Top with the whipped cream. Sprinkle with a pinch of well ground coffee and drink with a straw.",
      "strInstructionsES": null,
      "strInstructionsDE": "Rum, Kaffee und Wasser miteinander verr\u00fchren. Mit der geschlagenen Sahne bedecken. Mit einer Prise gut gemahlenem Kaffee bestreuen und mit einem Strohhalm trinken.",
      "strInstructionsFR": null,
      "strInstructionsZH-HANS": null,
      "strInstructionsZH-HANT": null,
      "strDrinkThumb": "https://www.thecocktaildb.com/images/media/drink/xqptps1441247257.jpg",
      "strIngredient1": "Rum",
      "strIngredient2": "Coffee",
      "strIngredient3": "Water",
      "strIngredient4": "Whipped cream",
      "strIngredient5": null,
      "strIngredient6": null,
      "strIngredient7": null,
      "strIngredient8": null,
      "strIngredient9": null,
      "strIngredient10": null,
      "strIngredient11": null,
      "strIngredient12": null,
      "strIngredient13": null,
      "strIngredient14": null,
      "strIngredient15": null,
      "strMeasure1": "1/6 glass ",
      "strMeasure2": "1/6 glass strong black ",
      "strMeasure3": "1/2 glass cold ",
      "strMeasure4": null,
      "strMeasure5": null,
      "strMeasure6": null,
      "strMeasure7": null,
      "strMeasure8": null,
      "strMeasure9": null,
      "strMeasure10": null,
      "strMeasure11": null,
      "strMeasure12": null,
      "strMeasure13": null,
      "strMeasure14": null,
      "strMeasure15": null,
      "strCreativeCommonsConfirmed": "No",
      "dateModified": "2015-09-03 03:27:37"
    }
  ]
}