{
  "drinks": [
    {
      "idDrink": "15841",
      "strDrink": "Mojito #3",
      "strDrinkAlternate": null,
      "strDrinkES": null,
      "strDrinkDE": null,
      "strDrinkFR": null,
      "strDrinkZH-HANS": null,
      "strDrinkZH-HANT": null,
      "strTags": null,
      "strVideo": null,
      "strCategory": "Cocktail",
      "strIBA": null,
      "strAlcoholic": "Alcoholic",
      "strGlass": "Collins glass",
      "strInstructions": "Put mint with lemon juice in a glas, mash the mint with a spoon, ice, rum & fill up with club soda. Top it with Angostura.",
      "strInstructionsES": null,
      "strInstructionsDE": "Minze mit Zitronensaft in ein Glas geben, Minze mit einem L\u00f6ffel zerdr\u00fccken. Eis und Rum hinzuf\u00fcgen und mit Soda auff\u00fcllen. Kr\u00f6nen Sie es mit Angostura.",
      "strInstructionsFR": null,
      "strInstructionsZH-HANS": null,
      "strInstructionsZH-HANT": null,
      "strDrinkThumb": "https://www.thecocktaildb.com/images/media/drink/vwxrsw1478251483.jpg",
      "strIngredient1": "Mint",
      "strIngredient2": "Lemon juice",
      "strIngredient3": "Dark rum",
      "strIngredient4": "Club soda",
      "strIngredient5": "Angostura bitters",
      "strIngredient6": null,
      "strIngredient7": null,
      "strIngredient8": null,
      "strIngredient9": null,
      "strIngredient10": null,
      "strIngredient11": null,
      "strIngredient12": null,
      "strIngredient13": null,
      "strIngredient14": null,
      "strIngredient15": null,
      "strMeasure1": "1/2 handful ",
      "strMeasure2": "3 cl ",
      "strMeasure3": "1/8 L Jamaican ",
      "strMeasure4": "1/8 L ",
      "strMeasure5": "8 drops ",
      "strMeasure6": null,
      "strMeasure7": null,
      "strMeasure8": null,
      "strMeasure9": null,
      "strMeasure10": null,
      "strMeasure11": null,
      "strMeasure12": null,
      "strMeasure13": null,
      "strMeasure14": null,
      "strMeasure15": null,
      "strCreativeCommonsConfirmed": "No",
      "dateModified": "2016-11-04 09:24:43"
    }
  ]
}