{
  "drinks": [
    {
      "idDrink": "15853",
      "strDrink": "B-52",
      "strDrinkAlternate": null,
      "strDrinkES": null,
      "strDrinkDE": null,
      "strDrinkFR": null,
      "strDrinkZH-HANS": null,
      "strDrinkZH-HANT": null,
      "strTags": "IBA,NewEra",
      "strVideo": null,
      "strCategory": "Shot",
      "strIBA": "New Era Drinks",
      "strAlcoholic": "Alcoholic",
      "strGlass": "Shot glass",
      "strInstructions": "Layer ingredients into a shot glass. Serve with a stirrer.",
      "strInstructionsES": null,
      "strInstructionsDE": "Zutaten in ein Schnapsglas schichten. Mit einem R\u00fchrstab servieren.",
      "strInstructionsFR": null,
      "strInstructionsZH-HANS": null,
      "strInstructionsZH-HANT": null,
      "strDrinkThumb": "https://www.thecocktaildb.com/images/media/drink/5a3vg61504372070.jpg",
      "strIngredient1": "Baileys irish cream",
      "strIngredient2": "Grand Marnier",
      "strIngredient3": "Kahlua",
      "strIngredient4": null,
      "strIngredient5": null,
      "strIngredient6": null,
      "strIngredient7": null,
      "strIngredient8": null,
      "strIngredient9": null,
      "strIngredient10": null,
      "strIngredient11": null,
      "strIngredient12": null,
      "strIngredient13": null,
      "strIngredient14": null,
      "strIngredient15": null,
      "strMeasure1": "1/3 ",
      "strMeasure2": "1/3 ",
      "strMeasure3": "1/4 ",
      "strMeasure4": null,
      "strMeasure5": null,
      "strMeasure6": null,
      "strMeasure7": null,
      "strMeasure8": null,
      "strMeasure9": null,
      "strMeasure10": null,
      "strMeasure11": null,
      "strMeasure12": null,
      "strMeasure13": null,
      "strMeasure14": null,
      "strMeasure15": null,
      "strCreativeCommonsConfirmed": "No",
      "dateModified": "2017-09-02 18:07:51"
    }
  ]
}