{
  "drinks": [
    {
      "idDrink": "15933",
      "strDrink": "Zambeer",
      "strDrinkAlternate": null,
      "strDrinkES": null,
      "strDrinkDE": null,
      "strDrinkFR": null,
      "strDrinkZH-HANS": null,
      "strDrinkZH-HANT": null,
      "strTags": null,
      "strVideo": null,
      "strCategory": "Soft Drink / Soda",
      "strIBA": null,
      "strAlcoholic": "Alcoholic",
      "strGlass": "Collins Glass",
      "strInstructions": "Mix sambuca with rootbeer and stir. Add ice",
      "strInstructionsES": null,
      "strInstructionsDE": "Sambuca mit Root Bier mischen und umr\u00fchren. F\u00fcge Eis hinzu.",
      "strInstructionsFR": null,
      "strInstructionsZH-HANS": null,
      "strInstructionsZH-HANT": null,
      "strDrinkThumb": "https://www.thecocktaildb.com/images/media/drink/bje5401485619578.jpg",
      "strIngredient1": "Sambuca",
      "strIngredient2": "Root beer",
      "strIngredient3": "Ice",
      "strIngredient4": null,
      "strIngredient5": null,
      "strIngredient6": null,
      "strIngredient7": null,
      "strIngredient8": null,
      "strIngredient9": null,
      "strIngredient10": null,
      "strIngredient11": null,
      "strIngredient12": null,
      "strIngredient13": null,
      "strIngredient14": null,
      "strIngredient15": null,
      "strMeasure1": "1 1/2 oz ",
      "strMeasure2": "Add 10 oz ",
      "strMeasure3": "cubes",
      "strMeasure4": null,
      "strMeasure5": null,
      "strMeasure6": null,
      "strMeasure7": null,
      "strMeasure8": null,
      "strMeasure9": null,
      "strMeasure10": null,
      "strMeasure11": null,
      "strMeasure12": null,
      "strMeasure13": null,
      "strMeasure14": null,
      "strMeasure15": null,
      "strCreativeCommonsConfirmed": "No",
      "dateModified": "2017-01-28 16:06:18"
    }
  ]
}