{
  "drinks": [
    {
      "idDrink": "16041",
      "strDrink": "Mudslinger",
      "strDrinkAlternate": null,
      "strDrinkES": null,
      "strDrinkDE": null,
      "strDrinkFR": null,
      "strDrinkZH-HANS": null,
      "strDrinkZH-HANT": null,
      "strTags": null,
      "strVideo": null,
      "strCategory": "Punch / Party Drink",
      "strIBA": null,
      "strAlcoholic": "Alcoholic",
      "strGlass": "Punch bowl",
      "strInstructions": "Add all contents to a large jug or punch bowl. Stir well!",
      "strInstructionsES": null,
      "strInstructionsDE": "F\u00fcge den gesamten Inhalt in eine gro\u00dfe Kanne oder Bowle. Gut umr\u00fchren!",
      "strInstructionsFR": null,
      "strInstructionsZH-HANS": null,
      "strInstructionsZH-HANT": null,
      "strDrinkThumb": "https://www.thecocktaildb.com/images/media/drink/hepk6h1504885554.jpg",
      "strIngredient1": "Southern Comfort",
      "strIngredient2": "Orange juice",
      "strIngredient3": "Pepsi Cola",
      "strIngredient4": null,
      "strIngredient5": null,
      "strIngredient6": null,
      "strIngredient7": null,
      "strIngredient8": null,
      "strIngredient9": null,
      "strIngredient10": null,
      "strIngredient11": null,
      "strIngredient12": null,
      "strIngredient13": null,
      "strIngredient14": null,
      "strIngredient15": null,
      "strMeasure1": "750 ml ",
      "strMeasure2": "1 L ",
      "strMeasure3": "750 ml ",
      "strMeasure4": null,
      "strMeasure5": null,
      "strMeasure6": null,
      "strMeasure7": null,
      "strMeasure8": null,
      "strMeasure9": null,
      "strMeasure10": null,
      "strMeasure11": null,
      "strMeasure12": null,
      "strMeasure13": null,
      "strMeasure14": null,
      "strMeasure15": null,
      "strCreativeCommonsConfirmed": "No",
      "dateModified": "2017-09-08 16:45:55"
    }
  ]
}