{
  "drinks": [
    {
      "idDrink": "16108",
      "strDrink": "9 1/2 Weeks",
      "strDrinkAlternate": null,
      "strDrinkES": null,
      "strDrinkDE": null,
      "strDrinkFR": null,
      "strDrinkZH-HANS": null,
      "strDrinkZH-HANT": null,
      "strTags": null,
      "strVideo": null,
      "strCategory": "Cocktail",
      "strIBA": null,
      "strAlcoholic": "Alcoholic",
      "strGlass": "Cocktail glass",
      "strInstructions": "Combine all ingredients in glass mixer. Chill and strain into Cocktail glass. Garnish with sliced strawberry.",
      "strInstructionsES": null,
      "strInstructionsDE": "Alle Zutaten in einem Glasmischer vermengen. Abk\u00fchlen lassen und in das Cocktailglas abseihen. Mit Erdbeerscheiben garnieren.",
      "strInstructionsFR": null,
      "strInstructionsZH-HANS": null,
      "strInstructionsZH-HANT": null,
      "strDrinkThumb": "https://www.thecocktaildb.com/images/media/drink/xvwusr1472669302.jpg",
      "strIngredient1": "Absolut Citron",
      "strIngredient2": "Orange Curacao",
      "strIngredient3": "Strawberry liqueur",
      "strIngredient4": "Orange juice",
      "strIngredient5": null,
      "strIngredient6": null,
      "strIngredient7": null,
      "strIngredient8": null,
      "strIngredient9": null,
      "strIngredient10": null,
      "strIngredient11": null,
      "strIngredient12": null,
      "strIngredient13": null,
      "strIngredient14": null,
      "strIngredient15": null,
      "strMeasure1": "2 oz ",
      "strMeasure2": "1/2 oz ",
      "strMeasure3": "1 splash ",
      "strMeasure4": "1 oz ",
      "strMeasure5": null,
      "strMeasure6": null,
      "strMeasure7": null,
      "strMeasure8": null,
      "strMeasure9": null,
      "strMeasure10": null,
      "strMeasure11": null,
      "strMeasure12": null,
      "strMeasure13": null,
      "strMeasure14": null,
      "strMeasure15": null,
      "strCreativeCommonsConfirmed": "No",
      "dateModified": "2016-08-31 19:48:22"
    }
  ]
}