{
  "drinks": [
    {
      "idDrink": "16262",
      "strDrink": "H.D.",
      "strDrinkAlternate": null,
      "strDrinkES": null,
      "strDrinkDE": null,
      "strDrinkFR": null,
      "strDrinkZH-HANS": null,
      "strDrinkZH-HANT": null,
      "strTags": null,
      "strVideo": null,
      "strCategory": "Coffee / Tea",
      "strIBA": null,
      "strAlcoholic": "Alcoholic",
      "strGlass": "Beer mug",
      "strInstructions": "Mix the whisky and Baileys Cream in a beer-glass (at least 50 cl). Fill the rest of the glass with coffee.",
      "strInstructionsES": null,
      "strInstructionsDE": "Den Whisky und die Baileys Cream in einem Bierglas (mind. 50 cl) mischen. F\u00fcllen Sie den Rest des Glases mit Kaffee.",
      "strInstructionsFR": null,
      "strInstructionsZH-HANS": null,
      "strInstructionsZH-HANT": null,
      "strDrinkThumb": "https://www.thecocktaildb.com/images/media/drink/upusyu1472667977.jpg",
      "strIngredient1": "Whisky",
      "strIngredient2": "Baileys irish cream",
      "strIngredient3": "Coffee",
      "strIngredient4": null,
      "strIngredient5": null,
      "strIngredient6": null,
      "strIngredient7": null,
      "strIngredient8": null,
      "strIngredient9": null,
      "strIngredient10": null,
      "strIngredient11": null,
      "strIngredient12": null,
      "strIngredient13": null,
      "strIngredient14": null,
      "strIngredient15": null,
      "strMeasure1": "4 cl ",
      "strMeasure2": "8 cl ",
      "strMeasure3": null,
      "strMeasure4": null,
      "strMeasure5": null,
      "strMeasure6": null,
      "strMeasure7": null,
      "strMeasure8": null,
      "strMeasure9": null,
      "strMeasure10": null,
      "strMeasure11": null,
      "strMeasure12": null,
      "strMeasure13": null,
      "strMeasure14": null,
      "strMeasure15": null,
      "strCreativeCommonsConfirmed": "No",
      "dateModified": "2016-08-31 19:26:18"
    }
  ]
}