{
  "drinks": [
    {
      "idDrink": "16403",
      "strDrink": "Black and Brown",
      "strDrinkAlternate": null,
      "strDrinkES": null,
      "strDrinkDE": null,
      "strDrinkFR": null,
      "strDrinkZH-HANS": null,
      "strDrinkZH-HANT": null,
      "strTags": null,
      "strVideo": null,
      "strCategory": "Beer",
      "strIBA": null,
      "strAlcoholic": "Alcoholic",
      "strGlass": "Beer pilsner",
      "strInstructions": "CAREFULLY to avoid explosive head formation: Pour Beer glass half full of favorite rootbeer and top off with Guinness.",
      "strInstructionsES": null,
      "strInstructionsDE": "Sorgf\u00e4ltig vorgehen, um eine explosive Kopfverformung zu vermeiden: Gie\u00dfen Sie ein Bierglas halb voll mit beliebten Rootbeeren und verfeinern Sie es mit Guinness.",
      "strInstructionsFR": null,
      "strInstructionsZH-HANS": null,
      "strInstructionsZH-HANT": null,
      "strDrinkThumb": "https://www.thecocktaildb.com/images/media/drink/wwuvxv1472668899.jpg",
      "strIngredient1": "Guinness stout",
      "strIngredient2": "Root beer",
      "strIngredient3": null,
      "strIngredient4": null,
      "strIngredient5": null,
      "strIngredient6": null,
      "strIngredient7": null,
      "strIngredient8": null,
      "strIngredient9": null,
      "strIngredient10": null,
      "strIngredient11": null,
      "strIngredient12": null,
      "strIngredient13": null,
      "strIngredient14": null,
      "strIngredient15": null,
      "strMeasure1": "1/2 ",
      "strMeasure2": "1/2 ",
      "strMeasure3": null,
      "strMeasure4": null,
      "strMeasure5": null,
      "strMeasure6": null,
      "strMeasure7": null,
      "strMeasure8": null,
      "strMeasure9": null,
      "strMeasure10": null,
      "strMeasure11": null,
      "strMeasure12": null,
      "strMeasure13": null,
      "strMeasure14": null,
      "strMeasure15": null,
      "strCreativeCommonsConfirmed": "No",
      "dateModified": "2016-08-31 19:41:39"
    }
  ]
}