{
  "drinks": [
    {
      "idDrink": "16419",
      "strDrink": "Avalanche",
      "strDrinkAlternate": null,
      "strDrinkES": null,
      "strDrinkDE": null,
      "strDrinkFR": null,
      "strDrinkZH-HANS": null,
      "strDrinkZH-HANT": null,
      "strTags": null,
      "strVideo": null,
      "strCategory": "Milk / Float / Shake",
      "strIBA": null,
      "strAlcoholic": "Alcoholic",
      "strGlass": "Highball glass",
      "strInstructions": "Mix in highball glass over ice, shake well.",
      "strInstructionsES": null,
      "strInstructionsDE": "In Highball-Glas \u00fcber Eis mischen, gut sch\u00fctteln.",
      "strInstructionsFR": null,
      "strInstructionsZH-HANS": null,
      "strInstructionsZH-HANT": null,
      "strDrinkThumb": "https://www.thecocktaildb.com/images/media/drink/uppqty1472720165.jpg",
      "strIngredient1": "Crown Royal",
      "strIngredient2": "Kahlua",
      "strIngredient3": "Cream",
      "strIngredient4": null,
      "strIngredient5": null,
      "strIngredient6": null,
      "strIngredient7": null,
      "strIngredient8": null,
      "strIngredient9": null,
      "strIngredient10": null,
      "strIngredient11": null,
      "strIngredient12": null,
      "strIngredient13": null,
      "strIngredient14": null,
      "strIngredient15": null,
      "strMeasure1": "1 shot ",
      "strMeasure2": "1 shot ",
      "strMeasure3": "Fill with ",
      "strMeasure4": null,
      "strMeasure5": null,
      "strMeasure6": null,
      "strMeasure7": null,
      "strMeasure8": null,
      "strMeasure9": null,
      "strMeasure10": null,
      "strMeasure11": null,
      "strMeasure12": null,
      "strMeasure13": null,
      "strMeasure14": null,
      "strMeasure15": null,
      "strCreativeCommonsConfirmed": "No",
      "dateModified": "2016-09-01 09:56:05"
    }
  ]
}