{
  "drinks": [
    {
      "idDrink": "16942",
      "strDrink": "Zipperhead",
      "strDrinkAlternate": null,
      "strDrinkES": null,
      "strDrinkDE": null,
      "strDrinkFR": null,
      "strDrinkZH-HANS": null,
      "strDrinkZH-HANT": null,
      "strTags": null,
      "strVideo": null,
      "strCategory": "Shot",
      "strIBA": null,
      "strAlcoholic": "Alcoholic",
      "strGlass": "Whiskey sour glass",
      "strInstructions": "Fill glass with rocks, add straw before putting in liquor. Then add the ingredients in order, trying to keep layered as much as possible (i.e. Chambord on bottom, then Vodka, Then soda on top).",
      "strInstructionsES": null,
      "strInstructionsDE": "Das Glas mit Eisw\u00fcrfeln f\u00fcllen, Trinkhalm hinzuf\u00fcgen und in den Schnaps geben. Dann f\u00fcgen Sie die Zutaten in der Reihenfolge hinzu und versuchen Sie, so viel wie m\u00f6glich geschichtet zu halten (z.B. Chambord unten, dann Wodka, dann Soda oben).",
      "strInstructionsFR": null,
      "strInstructionsZH-HANS": null,
      "strInstructionsZH-HANT": null,
      "strDrinkThumb": "https://www.thecocktaildb.com/images/media/drink/r2qzhu1485620235.jpg",
      "strIngredient1": "Chambord raspberry liqueur",
      "strIngredient2": "Vodka",
      "strIngredient3": "Soda water",
      "strIngredient4": null,
      "strIngredient5": null,
      "strIngredient6": null,
      "strIngredient7": null,
      "strIngredient8": null,
      "strIngredient9": null,
      "strIngredient10": null,
      "strIngredient11": null,
      "strIngredient12": null,
      "strIngredient13": null,
      "strIngredient14": null,
      "strIngredient15": null,
      "strMeasure1": "1 shot ",
      "strMeasure2": "1 shot ",
      "strMeasure3": "Fill with ",
      "strMeasure4": null,
      "strMeasure5": null,
      "strMeasure6": null,
      "strMeasure7": null,
      "strMeasure8": null,
      "strMeasure9": null,
      "strMeasure10": null,
      "strMeasure11": null,
      "strMeasure12": null,
      "strMeasure13": null,
      "strMeasure14": null,
      "strMeasure15": null,
      "strCreativeCommonsConfirmed": "No",
      "dateModified": "2017-01-28 16:17:15"
    }
  ]
}