{
  "drinks": [
    {
      "idDrink": "16943",
      "strDrink": "A Gilligan's Island",
      "strDrinkAlternate": null,
      "strDrinkES": null,
      "strDrinkDE": null,
      "strDrinkFR": null,
      "strDrinkZH-HANS": null,
      "strDrinkZH-HANT": null,
      "strTags": null,
      "strVideo": null,
      "strCategory": "Cocktail",
      "strIBA": null,
      "strAlcoholic": "Alcoholic",
      "strGlass": "Collins glass",
      "strInstructions": "Shaken, not stirred!",
      "strInstructionsES": null,
      "strInstructionsDE": "Gesch\u00fcttelt, nicht ger\u00fchrt!",
      "strInstructionsFR": null,
      "strInstructionsZH-HANS": null,
      "strInstructionsZH-HANT": null,
      "strDrinkThumb": "https://www.thecocktaildb.com/images/media/drink/wysqut1461867176.jpg",
      "strIngredient1": "Vodka",
      "strIngredient2": "Peach schnapps",
      "strIngredient3": "Orange juice",
      "strIngredient4": "Cranberry juice",
      "strIngredient5": null,
      "strIngredient6": null,
      "strIngredient7": null,
      "strIngredient8": null,
      "strIngredient9": null,
      "strIngredient10": null,
      "strIngredient11": null,
      "strIngredient12": null,
      "strIngredient13": null,
      "strIngredient14": null,
      "strIngredient15": null,
      "strMeasure1": "1 oz ",
      "strMeasure2": "1 oz ",
      "strMeasure3": "3 oz ",
      "strMeasure4": "3 oz ",
      "strMeasure5": null,
      "strMeasure6": null,
      "strMeasure7": null,
      "strMeasure8": null,
      "strMeasure9": null,
      "strMeasure10": null,
      "strMeasure11": null,
      "strMeasure12": null,
      "strMeasure13": null,
      "strMeasure14": null,
      "strMeasure15": null,
      "strCreativeCommonsConfirmed": "No",
      "dateModified": "2016-04-28 19:12:56"
    }
  ]
}