{
  "drinks": [
    {
      "idDrink": "16967",
      "strDrink": "Vodka Fizz",
      "strDrinkAlternate": null,
      "strDrinkES": null,
      "strDrinkDE": null,
      "strDrinkFR": null,
      "strDrinkZH-HANS": null,
      "strDrinkZH-HANT": null,
      "strTags": null,
      "strVideo": null,
      "strCategory": "Other/Unknown",
      "strIBA": null,
      "strAlcoholic": "Alcoholic",
      "strGlass": "White wine glass",
      "strInstructions": "Blend all ingredients, save nutmeg. Pour into large white wine glass and sprinkle nutmeg on top.",
      "strInstructionsES": null,
      "strInstructionsDE": "Alle Zutaten mischen. In ein gro\u00dfes Wei\u00dfweinglas geben und mit Muskatnuss bestreuen.",
      "strInstructionsFR": null,
      "strInstructionsZH-HANS": null,
      "strInstructionsZH-HANT": null,
      "strDrinkThumb": "https://www.thecocktaildb.com/images/media/drink/xwxyux1441254243.jpg",
      "strIngredient1": "Vodka",
      "strIngredient2": "Half-and-half",
      "strIngredient3": "Limeade",
      "strIngredient4": "Ice",
      "strIngredient5": "Nutmeg",
      "strIngredient6": null,
      "strIngredient7": null,
      "strIngredient8": null,
      "strIngredient9": null,
      "strIngredient10": null,
      "strIngredient11": null,
      "strIngredient12": null,
      "strIngredient13": null,
      "strIngredient14": null,
      "strIngredient15": null,
      "strMeasure1": "2 oz ",
      "strMeasure2": "2 oz ",
      "strMeasure3": "2 oz ",
      "strMeasure4": null,
      "strMeasure5": null,
      "strMeasure6": null,
      "strMeasure7": null,
      "strMeasure8": null,
      "strMeasure9": null,
      "strMeasure10": null,
      "strMeasure11": null,
      "strMeasure12": null,
      "strMeasure13": null,
      "strMeasure14": null,
      "strMeasure15": null,
      "strCreativeCommonsConfirmed": "No",
      "dateModified": "2015-09-03 05:24:03"
    }
  ]
}