{
  "drinks": [
    {
      "idDrink": "16998",
      "strDrink": "Bruised Heart",
      "strDrinkAlternate": null,
      "strDrinkES": null,
      "strDrinkDE": null,
      "strDrinkFR": null,
      "strDrinkZH-HANS": null,
      "strDrinkZH-HANT": null,
      "strTags": null,
      "strVideo": null,
      "strCategory": "Shot",
      "strIBA": null,
      "strAlcoholic": "Alcoholic",
      "strGlass": "Shot glass",
      "strInstructions": "Pour all ingredients in a mixing tin over ice, stir, and strain into shot glass",
      "strInstructionsES": null,
      "strInstructionsDE": "Alle Zutaten in einem Mixbecher \u00fcber Eis gie\u00dfen, umr\u00fchren und in ein Schnapsglas abseihen.",
      "strInstructionsFR": null,
      "strInstructionsZH-HANS": null,
      "strInstructionsZH-HANT": null,
      "strDrinkThumb": "https://www.thecocktaildb.com/images/media/drink/7if5kq1503564209.jpg",
      "strIngredient1": "Vodka",
      "strIngredient2": "Chambord raspberry liqueur",
      "strIngredient3": "Peachtree schnapps",
      "strIngredient4": "Cranberry juice",
      "strIngredient5": null,
      "strIngredient6": null,
      "strIngredient7": null,
      "strIngredient8": null,
      "strIngredient9": null,
      "strIngredient10": null,
      "strIngredient11": null,
      "strIngredient12": null,
      "strIngredient13": null,
      "strIngredient14": null,
      "strIngredient15": null,
      "strMeasure1": "1/2 oz ",
      "strMeasure2": "1/2 oz ",
      "strMeasure3": "1/2 oz ",
      "strMeasure4": "1/2 oz ",
      "strMeasure5": null,
      "strMeasure6": null,
      "strMeasure7": null,
      "strMeasure8": null,
      "strMeasure9": null,
      "strMeasure10": null,
      "strMeasure11": null,
      "strMeasure12": null,
      "strMeasure13": null,
      "strMeasure14": null,
      "strMeasure15": null,
      "strCreativeCommonsConfirmed": "No",
      "dateModified": "2017-08-24 09:43:29"
    }
  ]
}