{
  "drinks": [
    {
      "idDrink": "16995",
      "strDrink": "Orange Whip",
      "strDrinkAlternate": null,
      "strDrinkES": null,
      "strDrinkDE": null,
      "strDrinkFR": null,
      "strDrinkZH-HANS": null,
      "strDrinkZH-HANT": null,
      "strTags": null,
      "strVideo": null,
      "strCategory": "Other/Unknown",
      "strIBA": null,
      "strAlcoholic": "Alcoholic",
      "strGlass": "Collins Glass",
      "strInstructions": "Pour ingredients over ice and stir.",
      "strInstructionsES": null,
      "strInstructionsDE": "Zutaten \u00fcber Eis gie\u00dfen und umr\u00fchren.",
      "strInstructionsFR": null,
      "strInstructionsZH-HANS": null,
      "strInstructionsZH-HANT": null,
      "strDrinkThumb": "https://www.thecocktaildb.com/images/media/drink/ttyrxr1454514759.jpg",
      "strIngredient1": "Orange juice",
      "strIngredient2": "Rum",
      "strIngredient3": "Vodka",
      "strIngredient4": "Cream",
      "strIngredient5": "Ice",
      "strIngredient6": null,
      "strIngredient7": null,
      "strIngredient8": null,
      "strIngredient9": null,
      "strIngredient10": null,
      "strIngredient11": null,
      "strIngredient12": null,
      "strIngredient13": null,
      "strIngredient14": null,
      "strIngredient15": null,
      "strMeasure1": "4 oz ",
      "strMeasure2": "1 oz ",
      "strMeasure3": "1 oz ",
      "strMeasure4": "1 package ",
      "strMeasure5": "Over ",
      "strMeasure6": null,
      "strMeasure7": null,
      "strMeasure8": null,
      "strMeasure9": null,
      "strMeasure10": null,
      "strMeasure11": null,
      "strMeasure12": null,
      "strMeasure13": null,
      "strMeasure14": null,
      "strMeasure15": null,
      "strCreativeCommonsConfirmed": "No",
      "dateModified": "2016-02-03 15:52:39"
    }
  ]
}