{
  "drinks": [
    {
      "idDrink": "17006",
      "strDrink": "Kool First Aid",
      "strDrinkAlternate": null,
      "strDrinkES": null,
      "strDrinkDE": null,
      "strDrinkFR": null,
      "strDrinkZH-HANS": null,
      "strDrinkZH-HANT": null,
      "strTags": null,
      "strVideo": null,
      "strCategory": "Shot",
      "strIBA": null,
      "strAlcoholic": "Alcoholic",
      "strGlass": "Shot glass",
      "strInstructions": "Add Kool Aid to a double shot glass, and top with rum. Slam and shoot.",
      "strInstructionsES": null,
      "strInstructionsDE": "Geben Sie Kool Aid in ein Doppelschnapsglas und f\u00fcllen Sie es mit Rum. Knall und Schuss.",
      "strInstructionsFR": null,
      "strInstructionsZH-HANS": null,
      "strInstructionsZH-HANT": null,
      "strDrinkThumb": "https://www.thecocktaildb.com/images/media/drink/hfp6sv1503564824.jpg",
      "strIngredient1": "151 proof rum",
      "strIngredient2": "Kool-Aid",
      "strIngredient3": null,
      "strIngredient4": null,
      "strIngredient5": null,
      "strIngredient6": null,
      "strIngredient7": null,
      "strIngredient8": null,
      "strIngredient9": null,
      "strIngredient10": null,
      "strIngredient11": null,
      "strIngredient12": null,
      "strIngredient13": null,
      "strIngredient14": null,
      "strIngredient15": null,
      "strMeasure1": "2 oz light ",
      "strMeasure2": "1/2 tsp Tropical ",
      "strMeasure3": null,
      "strMeasure4": null,
      "strMeasure5": null,
      "strMeasure6": null,
      "strMeasure7": null,
      "strMeasure8": null,
      "strMeasure9": null,
      "strMeasure10": null,
      "strMeasure11": null,
      "strMeasure12": null,
      "strMeasure13": null,
      "strMeasure14": null,
      "strMeasure15": null,
      "strCreativeCommonsConfirmed": "No",
      "dateModified": "2017-08-24 09:53:44"
    }
  ]
}