{
  "drinks": [
    {
      "idDrink": "17044",
      "strDrink": "Homemade Kahlua",
      "strDrinkAlternate": null,
      "strDrinkES": null,
      "strDrinkDE": null,
      "strDrinkFR": null,
      "strDrinkZH-HANS": null,
      "strDrinkZH-HANT": null,
      "strTags": null,
      "strVideo": null,
      "strCategory": "Homemade Liqueur",
      "strIBA": null,
      "strAlcoholic": "Alcoholic",
      "strGlass": "Collins Glass",
      "strInstructions": "Dissolve sugar in 2 cups of boiling water and add corn syrup. Dissolve the instant coffee in the remaining water. Pour syrup and coffee in a gallon jug. Let it cool. Add vodka and vanilla when cold. For the best result, let the mixture \"mature\" for 4-5 weeks.",
      "strInstructionsES": null,
      "strInstructionsDE": "Zucker in 2 Tassen kochendem Wasser aufl\u00f6sen und Maissirup hinzuf\u00fcgen. L\u00f6sen Sie den Instantkaffee in dem verbleibenden Wasser auf. Geben Sie Sirup und Kaffee in eine Kanne. Abk\u00fchlen lassen. F\u00fcgen Sie Wodka und Vanille hinzu, wenn sie kalt sind. F\u00fcr das beste Ergebnis lassen Sie die Mischung 4-5 Wochen \"reifen\".",
      "strInstructionsFR": null,
      "strInstructionsZH-HANS": null,
      "strInstructionsZH-HANT": null,
      "strDrinkThumb": "https://www.thecocktaildb.com/images/media/drink/uwtsst1441254025.jpg",
      "strIngredient1": "Sugar",
      "strIngredient2": "Corn syrup",
      "strIngredient3": "Coffee",
      "strIngredient4": "Vanilla extract",
      "strIngredient5": "Water",
      "strIngredient6": "Vodka",
      "strIngredient7": null,
      "strIngredient8": null,
      "strIngredient9": null,
      "strIngredient10": null,
      "strIngredient11": null,
      "strIngredient12": null,
      "strIngredient13": null,
      "strIngredient14": null,
      "strIngredient15": null,
      "strMeasure1": "2 1/2 cups ",
      "strMeasure2": "1 cup ",
      "strMeasure3": "1 1/2 oz instant ",
      "strMeasure4": "2 oz ",
      "strMeasure5": "3 cups boiling ",
      "strMeasure6": "1 fifth ",
      "strMeasure7": null,
      "strMeasure8": null,
      "strMeasure9": null,
      "strMeasure10": null,
      "strMeasure11": null,
      "strMeasure12": null,
      "strMeasure13": null,
      "strMeasure14": null,
      "strMeasure15": null,
      "strCreativeCommonsConfirmed": "No",
      "dateModified": "2015-09-03 05:20:25"
    }
  ]
}