{
  "drinks": [
    {
      "idDrink": "17177",
      "strDrink": "Dark Caipirinha",
      "strDrinkAlternate": null,
      "strDrinkES": null,
      "strDrinkDE": null,
      "strDrinkFR": null,
      "strDrinkZH-HANS": null,
      "strDrinkZH-HANT": null,
      "strTags": null,
      "strVideo": null,
      "strCategory": "Cocktail",
      "strIBA": null,
      "strAlcoholic": "Alcoholic",
      "strGlass": "Highball glass",
      "strInstructions": "Muddle the sugar into the lime wedges in an old-fashioned glass.\r\nFill the glass with ice cubes.\r\nPour the cachaca into the glass.\r\nStir well.",
      "strInstructionsES": null,
      "strInstructionsDE": "Den Zucker in einem old-fashioned Glas in die Limettenspalten mischen.",
      "strInstructionsFR": null,
      "strInstructionsZH-HANS": null,
      "strInstructionsZH-HANT": null,
      "strDrinkThumb": "https://www.thecocktaildb.com/images/media/drink/uwstrx1472406058.jpg",
      "strIngredient1": "demerara Sugar",
      "strIngredient2": "Lime",
      "strIngredient3": "Cachaca",
      "strIngredient4": null,
      "strIngredient5": null,
      "strIngredient6": null,
      "strIngredient7": null,
      "strIngredient8": null,
      "strIngredient9": null,
      "strIngredient10": null,
      "strIngredient11": null,
      "strIngredient12": null,
      "strIngredient13": null,
      "strIngredient14": null,
      "strIngredient15": null,
      "strMeasure1": "2 tsp ",
      "strMeasure2": "1",
      "strMeasure3": "2 1/2 oz",
      "strMeasure4": null,
      "strMeasure5": null,
      "strMeasure6": null,
      "strMeasure7": null,
      "strMeasure8": null,
      "strMeasure9": null,
      "strMeasure10": null,
      "strMeasure11": null,
      "strMeasure12": null,
      "strMeasure13": null,
      "strMeasure14": null,
      "strMeasure15": null,
      "strCreativeCommonsConfirmed": "Yes",
      "dateModified": "2016-08-28 18:40:58"
    }
  ]
}