{
  "drinks": [
    {
      "idDrink": "17187",
      "strDrink": "Derby",
      "strDrinkAlternate": null,
      "strDrinkES": null,
      "strDrinkDE": null,
      "strDrinkFR": null,
      "strDrinkZH-HANS": null,
      "strDrinkZH-HANT": null,
      "strTags": "Classic,IBA",
      "strVideo": "https://www.youtube.com/watch?v=bYQTTokGkFI",
      "strCategory": "Ordinary Drink",
      "strIBA": "Unforgettables",
      "strAlcoholic": "Alcoholic",
      "strGlass": "Cocktail glass",
      "strInstructions": "Pour all ingredients into a mixing glass with ice. Stir. Strain into a cocktail glass. Garnish with a sprig of fresh mint in the drink.",
      "strInstructionsES": null,
      "strInstructionsDE": "Alle Zutaten in ein Mischglas mit Eis geben. R\u00fchren. In ein Cocktailglas abseihen. Mit einem Zweig frischer Minze im Getr\u00e4nk garnieren.",
      "strInstructionsFR": null,
      "strInstructionsZH-HANS": null,
      "strInstructionsZH-HANT": null,
      "strDrinkThumb": "https://www.thecocktaildb.com/images/media/drink/i502ra1504349156.jpg",
      "strIngredient1": "gin",
      "strIngredient2": "Peach Bitters",
      "strIngredient3": "Mint",
      "strIngredient4": null,
      "strIngredient5": null,
      "strIngredient6": null,
      "strIngredient7": null,
      "strIngredient8": null,
      "strIngredient9": null,
      "strIngredient10": null,
      "strIngredient11": null,
      "strIngredient12": null,
      "strIngredient13": null,
      "strIngredient14": null,
      "strIngredient15": null,
      "strMeasure1": "6 cl",
      "strMeasure2": "2 dashes",
      "strMeasure3": "2 Fresh leaves",
      "strMeasure4": null,
      "strMeasure5": null,
      "strMeasure6": null,
      "strMeasure7": null,
      "strMeasure8": null,
      "strMeasure9": null,
      "strMeasure10": null,
      "strMeasure11": null,
      "strMeasure12": null,
      "strMeasure13": null,
      "strMeasure14": null,
      "strMeasure15": null,
      "strCreativeCommonsConfirmed": "No",
      "dateModified": "2017-09-02 11:45:56"
    }
  ]
}