{
  "drinks": [
    {
      "idDrink": "17184",
      "strDrink": "Between The Sheets",
      "strDrinkAlternate": null,
      "strDrinkES": null,
      "strDrinkDE": null,
      "strDrinkFR": null,
      "strDrinkZH-HANS": null,
      "strDrinkZH-HANT": null,
      "strTags": "IBA,Classic",
      "strVideo": "https://www.youtube.com/watch?v=5j9qfRXo2tM",
      "strCategory": "Ordinary Drink",
      "strIBA": "Unforgettables",
      "strAlcoholic": "Alcoholic",
      "strGlass": "Cocktail glass",
      "strInstructions": "Pour all ingredients into shaker with ice cubes, shake, strain into chilled cocktail glass.",
      "strInstructionsES": null,
      "strInstructionsDE": "Alle Zutaten in den Shaker mit Eisw\u00fcrfeln geben, sch\u00fctteln, in ein gek\u00fchltes Cocktailglas abseihen.",
      "strInstructionsFR": null,
      "strInstructionsZH-HANS": null,
      "strInstructionsZH-HANT": null,
      "strDrinkThumb": "https://www.thecocktaildb.com/images/media/drink/of1rj41504348346.jpg",
      "strIngredient1": "Brandy",
      "strIngredient2": "Light rum",
      "strIngredient3": "Triple sec",
      "strIngredient4": "Lemon juice",
      "strIngredient5": null,
      "strIngredient6": null,
      "strIngredient7": null,
      "strIngredient8": null,
      "strIngredient9": null,
      "strIngredient10": null,
      "strIngredient11": null,
      "strIngredient12": null,
      "strIngredient13": null,
      "strIngredient14": null,
      "strIngredient15": null,
      "strMeasure1": "1 oz ",
      "strMeasure2": "1 oz ",
      "strMeasure3": "1 oz ",
      "strMeasure4": "1 oz ",
      "strMeasure5": null,
      "strMeasure6": null,
      "strMeasure7": null,
      "strMeasure8": null,
      "strMeasure9": null,
      "strMeasure10": null,
      "strMeasure11": null,
      "strMeasure12": null,
      "strMeasure13": null,
      "strMeasure14": null,
      "strMeasure15": null,
      "strCreativeCommonsConfirmed": "No",
      "dateModified": "2017-09-02 11:32:26"
    }
  ]
}