{
  "drinks": [
    {
      "idDrink": "17194",
      "strDrink": "White Lady",
      "strDrinkAlternate": null,
      "strDrinkES": null,
      "strDrinkDE": null,
      "strDrinkFR": null,
      "strDrinkZH-HANS": null,
      "strDrinkZH-HANT": null,
      "strTags": "IBA,Classic",
      "strVideo": null,
      "strCategory": "Ordinary Drink",
      "strIBA": "Unforgettables",
      "strAlcoholic": "Alcoholic",
      "strGlass": "Cocktail glass",
      "strInstructions": "Add all ingredients into cocktail shaker filled with ice. Shake well and strain into large cocktail glass.",
      "strInstructionsES": null,
      "strInstructionsDE": "Alle Zutaten in den mit Eis gef\u00fcllten Cocktailshaker geben. Gut sch\u00fctteln und in ein gro\u00dfes Cocktailglas abseihen.",
      "strInstructionsFR": null,
      "strInstructionsZH-HANS": null,
      "strInstructionsZH-HANT": null,
      "strDrinkThumb": "https://www.thecocktaildb.com/images/media/drink/jofsaz1504352991.jpg",
      "strIngredient1": "Gin",
      "strIngredient2": "Triple Sec",
      "strIngredient3": "Lemon Juice",
      "strIngredient4": null,
      "strIngredient5": null,
      "strIngredient6": null,
      "strIngredient7": null,
      "strIngredient8": null,
      "strIngredient9": null,
      "strIngredient10": null,
      "strIngredient11": null,
      "strIngredient12": null,
      "strIngredient13": null,
      "strIngredient14": null,
      "strIngredient15": null,
      "strMeasure1": "4cl",
      "strMeasure2": "3cl",
      "strMeasure3": "2cl",
      "strMeasure4": null,
      "strMeasure5": null,
      "strMeasure6": null,
      "strMeasure7": null,
      "strMeasure8": null,
      "strMeasure9": null,
      "strMeasure10": null,
      "strMeasure11": null,
      "strMeasure12": null,
      "strMeasure13": null,
      "strMeasure14": null,
      "strMeasure15": null,
      "strCreativeCommonsConfirmed": "No",
      "dateModified": "2017-09-02 12:49:52"
    }
  ]
}