{
  "drinks": [
    {
      "idDrink": "17205",
      "strDrink": "Mimosa",
      "strDrinkAlternate": null,
      "strDrinkES": null,
      "strDrinkDE": null,
      "strDrinkFR": null,
      "strDrinkZH-HANS": null,
      "strDrinkZH-HANT": null,
      "strTags": "IBA,ContemporaryClassic",
      "strVideo": null,
      "strCategory": "Ordinary Drink",
      "strIBA": "Contemporary Classics",
      "strAlcoholic": "Alcoholic",
      "strGlass": "Champagne flute",
      "strInstructions": "Ensure both ingredients are well chilled, then mix into the glass. Serve cold.",
      "strInstructionsES": null,
      "strInstructionsDE": "Achten Sie darauf, dass beide Zutaten gut gek\u00fchlt sind, und mischen Sie sie dann in das Glas. Kalt servieren.",
      "strInstructionsFR": null,
      "strInstructionsZH-HANS": null,
      "strInstructionsZH-HANT": null,
      "strDrinkThumb": "https://www.thecocktaildb.com/images/media/drink/juhcuu1504370685.jpg",
      "strIngredient1": "Champagne",
      "strIngredient2": "Orange juice",
      "strIngredient3": null,
      "strIngredient4": null,
      "strIngredient5": null,
      "strIngredient6": null,
      "strIngredient7": null,
      "strIngredient8": null,
      "strIngredient9": null,
      "strIngredient10": null,
      "strIngredient11": null,
      "strIngredient12": null,
      "strIngredient13": null,
      "strIngredient14": null,
      "strIngredient15": null,
      "strMeasure1": "Chilled ",
      "strMeasure2": "2 oz ",
      "strMeasure3": null,
      "strMeasure4": null,
      "strMeasure5": null,
      "strMeasure6": null,
      "strMeasure7": null,
      "strMeasure8": null,
      "strMeasure9": null,
      "strMeasure10": null,
      "strMeasure11": null,
      "strMeasure12": null,
      "strMeasure13": null,
      "strMeasure14": null,
      "strMeasure15": null,
      "strCreativeCommonsConfirmed": "No",
      "dateModified": "2017-09-02 17:44:45"
    }
  ]
}