{
  "drinks": [
    {
      "idDrink": "17210",
      "strDrink": "Bramble",
      "strDrinkAlternate": null,
      "strDrinkES": null,
      "strDrinkDE": null,
      "strDrinkFR": null,
      "strDrinkZH-HANS": null,
      "strDrinkZH-HANT": null,
      "strTags": "IBA,NewEra",
      "strVideo": null,
      "strCategory": "Ordinary Drink",
      "strIBA": "New Era Drinks",
      "strAlcoholic": "Alcoholic",
      "strGlass": "Old-Fashioned glass",
      "strInstructions": "Fill glass with crushed ice. Build gin, lemon juice and simple syrup over. Stir, and then pour blackberry liqueur over in a circular fashion to create marbling effect. Garnish with two blackberries and lemon slice.",
      "strInstructionsES": null,
      "strInstructionsDE": "F\u00fcllen Sie das Glas mit zersto\u00dfenem Eis. Den Gin, den Zitronensaft und den Sirup dazugeben. R\u00fchren Sie um und gie\u00dfen Sie dann Brombeerlik\u00f6r kreisf\u00f6rmig dar\u00fcber, um einen Marmoriereffekt zu erzielen. Mit zwei Brombeeren und einer Zitronenscheibe garnieren.",
      "strInstructionsFR": null,
      "strInstructionsZH-HANS": null,
      "strInstructionsZH-HANT": null,
      "strDrinkThumb": "https://www.thecocktaildb.com/images/media/drink/lvzl3r1504372526.jpg",
      "strIngredient1": "Gin",
      "strIngredient2": "lemon juice",
      "strIngredient3": "Sugar syrup",
      "strIngredient4": "Creme de Mure",
      "strIngredient5": null,
      "strIngredient6": null,
      "strIngredient7": null,
      "strIngredient8": null,
      "strIngredient9": null,
      "strIngredient10": null,
      "strIngredient11": null,
      "strIngredient12": null,
      "strIngredient13": null,
      "strIngredient14": null,
      "strIngredient15": null,
      "strMeasure1": "4 cl",
      "strMeasure2": "1.5 cl",
      "strMeasure3": "1 cl",
      "strMeasure4": "1.5 cl",
      "strMeasure5": null,
      "strMeasure6": null,
      "strMeasure7": null,
      "strMeasure8": null,
      "strMeasure9": null,
      "strMeasure10": null,
      "strMeasure11": null,
      "strMeasure12": null,
      "strMeasure13": null,
      "strMeasure14": null,
      "strMeasure15": null,
      "strCreativeCommonsConfirmed": "No",
      "dateModified": "2017-09-02 18:15:26"
    }
  ]
}