{
  "drinks": [
    {
      "idDrink": "17220",
      "strDrink": "Butter Baby",
      "strDrinkAlternate": null,
      "strDrinkES": null,
      "strDrinkDE": null,
      "strDrinkFR": null,
      "strDrinkZH-HANS": null,
      "strDrinkZH-HANT": null,
      "strTags": null,
      "strVideo": null,
      "strCategory": "Milk / Float / Shake",
      "strIBA": null,
      "strAlcoholic": "Alcoholic",
      "strGlass": "Beer mug",
      "strInstructions": "Blend together in a blender. Serve in a chilled Beer mug with Fresh Blueberries and caramel for topping.",
      "strInstructionsES": null,
      "strInstructionsDE": "In einem Mixer verr\u00fchren. In einem gek\u00fchlten Bierkrug mit frischen Blaubeeren und Karamell als Beilage servieren.",
      "strInstructionsFR": null,
      "strInstructionsZH-HANS": null,
      "strInstructionsZH-HANT": null,
      "strDrinkThumb": "https://www.thecocktaildb.com/images/media/drink/1xhjk91504783763.jpg",
      "strIngredient1": "Vanilla Ice-Cream",
      "strIngredient2": "Butterscotch schnapps",
      "strIngredient3": "Milk",
      "strIngredient4": "Vodka",
      "strIngredient5": null,
      "strIngredient6": null,
      "strIngredient7": null,
      "strIngredient8": null,
      "strIngredient9": null,
      "strIngredient10": null,
      "strIngredient11": null,
      "strIngredient12": null,
      "strIngredient13": null,
      "strIngredient14": null,
      "strIngredient15": null,
      "strMeasure1": "2 scoops ",
      "strMeasure2": "1 part ",
      "strMeasure3": "full glass ",
      "strMeasure4": "2 parts ",
      "strMeasure5": null,
      "strMeasure6": null,
      "strMeasure7": null,
      "strMeasure8": null,
      "strMeasure9": null,
      "strMeasure10": null,
      "strMeasure11": null,
      "strMeasure12": null,
      "strMeasure13": null,
      "strMeasure14": null,
      "strMeasure15": null,
      "strCreativeCommonsConfirmed": "No",
      "dateModified": "2017-09-07 12:29:23"
    }
  ]
}