{
  "drinks": [
    {
      "idDrink": "17225",
      "strDrink": "Ace",
      "strDrinkAlternate": null,
      "strDrinkES": null,
      "strDrinkDE": null,
      "strDrinkFR": null,
      "strDrinkZH-HANS": null,
      "strDrinkZH-HANT": null,
      "strTags": null,
      "strVideo": null,
      "strCategory": "Cocktail",
      "strIBA": null,
      "strAlcoholic": "Alcoholic",
      "strGlass": "Martini Glass",
      "strInstructions": "Shake all the ingredients in a cocktail shaker and ice then strain in a cold glass.",
      "strInstructionsES": null,
      "strInstructionsDE": "Alle Zutaten in einem Cocktailshaker mit Eis sch\u00fctteln und dann in einem kalten Glas abseihen.",
      "strInstructionsFR": null,
      "strInstructionsZH-HANS": null,
      "strInstructionsZH-HANT": null,
      "strDrinkThumb": "https://www.thecocktaildb.com/images/media/drink/l3cd7f1504818306.jpg",
      "strIngredient1": "Gin",
      "strIngredient2": "Grenadine",
      "strIngredient3": "Heavy cream",
      "strIngredient4": "Milk",
      "strIngredient5": "Egg White",
      "strIngredient6": null,
      "strIngredient7": null,
      "strIngredient8": null,
      "strIngredient9": null,
      "strIngredient10": null,
      "strIngredient11": null,
      "strIngredient12": null,
      "strIngredient13": null,
      "strIngredient14": null,
      "strIngredient15": null,
      "strMeasure1": "2 shots ",
      "strMeasure2": "1/2 shot ",
      "strMeasure3": "1/2 shot ",
      "strMeasure4": "1/2 shot",
      "strMeasure5": "1/2 Fresh",
      "strMeasure6": null,
      "strMeasure7": null,
      "strMeasure8": null,
      "strMeasure9": null,
      "strMeasure10": null,
      "strMeasure11": null,
      "strMeasure12": null,
      "strMeasure13": null,
      "strMeasure14": null,
      "strMeasure15": null,
      "strCreativeCommonsConfirmed": "No",
      "dateModified": "2017-09-07 22:05:06"
    }
  ]
}