{
  "drinks": [
    {
      "idDrink": "178325",
      "strDrink": "Aperol Spritz",
      "strDrinkAlternate": null,
      "strDrinkES": null,
      "strDrinkDE": null,
      "strDrinkFR": null,
      "strDrinkZH-HANS": null,
      "strDrinkZH-HANT": null,
      "strTags": null,
      "strVideo": null,
      "strCategory": "Cocktail",
      "strIBA": null,
      "strAlcoholic": "Alcoholic",
      "strGlass": "Wine Glass",
      "strInstructions": "Put a couple of cubes of ice into 2 glasses and add a 50 ml measure of Aperol to each. Divide the prosecco between the glasses and then top up with soda, if you like.",
      "strInstructionsES": null,
      "strInstructionsDE": null,
      "strInstructionsFR": null,
      "strInstructionsZH-HANS": null,
      "strInstructionsZH-HANT": null,
      "strDrinkThumb": "https://www.thecocktaildb.com/images/media/drink/iloasq1587661955.jpg",
      "strIngredient1": "Aperol",
      "strIngredient2": "Prosecco",
      "strIngredient3": "Soda Water",
      "strIngredient4": "",
      "strIngredient5": "",
      "strIngredient6": "",
      "strIngredient7": "",
      "strIngredient8": null,
      "strIngredient9": null,
      "strIngredient10": null,
      "strIngredient11": null,
      "strIngredient12": null,
      "strIngredient13": null,
      "strIngredient14": null,
      "strIngredient15": null,
      "strMeasure1": "100 ml",
      "strMeasure2": "150 ml",
      "strMeasure3": "Top",
      "strMeasure4": "",
      "strMeasure5": "",
      "strMeasure6": "",
      "strMeasure7": "",
      "strMeasure8": null,
      "strMeasure9": null,
      "strMeasure10": null,
      "strMeasure11": null,
      "strMeasure12": null,
      "strMeasure13": null,
      "strMeasure14": null,
      "strMeasure15": null,
      "strCreativeCommonsConfirmed": "Yes",
      "dateModified": null
    }
  ]
}