{
  "drinks": [
    {
      "idDrink": "178331",
      "strDrink": "Bounty Hunter",
      "strDrinkAlternate": null,
      "strDrinkES": null,
      "strDrinkDE": null,
      "strDrinkFR": null,
      "strDrinkZH-HANS": null,
      "strDrinkZH-HANT": null,
      "strTags": null,
      "strVideo": null,
      "strCategory": "Cocktail",
      "strIBA": null,
      "strAlcoholic": "Alcoholic",
      "strGlass": "Margarita glass",
      "strInstructions": "Add the spirits into a shaker as well as the pineapple juice, strain into a Margarita glass. Top with Prosecco and garnish with Blueberries.",
      "strInstructionsES": null,
      "strInstructionsDE": null,
      "strInstructionsFR": null,
      "strInstructionsZH-HANS": null,
      "strInstructionsZH-HANT": null,
      "strDrinkThumb": "https://www.thecocktaildb.com/images/media/drink/t8bgxl1596018175.jpg",
      "strIngredient1": "Rum",
      "strIngredient2": "Coconut Liqueur",
      "strIngredient3": "Blueberries",
      "strIngredient4": "Pineapple Juice",
      "strIngredient5": "Prosecco",
      "strIngredient6": "",
      "strIngredient7": "",
      "strIngredient8": null,
      "strIngredient9": null,
      "strIngredient10": null,
      "strIngredient11": null,
      "strIngredient12": null,
      "strIngredient13": null,
      "strIngredient14": null,
      "strIngredient15": null,
      "strMeasure1": "1 shot",
      "strMeasure2": "1 shot",
      "strMeasure3": "Garnish with",
      "strMeasure4": "Dash",
      "strMeasure5": "Top",
      "strMeasure6": "",
      "strMeasure7": "",
      "strMeasure8": null,
      "strMeasure9": null,
      "strMeasure10": null,
      "strMeasure11": null,
      "strMeasure12": null,
      "strMeasure13": null,
      "strMeasure14": null,
      "strMeasure15": null,
      "strCreativeCommonsConfirmed": "No",
      "dateModified": null
    }
  ]
}