{
  "drinks": [
    {
      "idDrink": "178329",
      "strDrink": "Captain Kidd's Punch",
      "strDrinkAlternate": null,
      "strDrinkES": null,
      "strDrinkDE": null,
      "strDrinkFR": null,
      "strDrinkZH-HANS": null,
      "strDrinkZH-HANT": null,
      "strTags": null,
      "strVideo": null,
      "strCategory": "Cocktail",
      "strIBA": null,
      "strAlcoholic": "Alcoholic",
      "strGlass": "Collins glass",
      "strInstructions": "Mix all ingredients together in a shaker and strain into a collins glass. Use Caribbean dark Rum for a sweeter taste.",
      "strInstructionsES": null,
      "strInstructionsDE": null,
      "strInstructionsFR": null,
      "strInstructionsZH-HANS": null,
      "strInstructionsZH-HANT": null,
      "strDrinkThumb": "https://www.thecocktaildb.com/images/media/drink/d83spj1596017390.jpg",
      "strIngredient1": "Rum",
      "strIngredient2": "Lime Juice",
      "strIngredient3": "Egg White",
      "strIngredient4": "Bitters",
      "strIngredient5": "Sugar",
      "strIngredient6": "Nutmeg",
      "strIngredient7": "",
      "strIngredient8": null,
      "strIngredient9": null,
      "strIngredient10": null,
      "strIngredient11": null,
      "strIngredient12": null,
      "strIngredient13": null,
      "strIngredient14": null,
      "strIngredient15": null,
      "strMeasure1": "2 shots",
      "strMeasure2": "1 shot",
      "strMeasure3": "1 shot",
      "strMeasure4": "1 dash",
      "strMeasure5": "Ground",
      "strMeasure6": "Top",
      "strMeasure7": "",
      "strMeasure8": null,
      "strMeasure9": null,
      "strMeasure10": null,
      "strMeasure11": null,
      "strMeasure12": null,
      "strMeasure13": null,
      "strMeasure14": null,
      "strMeasure15": null,
      "strCreativeCommonsConfirmed": "Yes",
      "dateModified": null
    }
  ]
}