{
  "drinks": [
    {
      "idDrink": "178310",
      "strDrink": "Brooklyn",
      "strDrinkAlternate": null,
      "strDrinkES": null,
      "strDrinkDE": null,
      "strDrinkFR": null,
      "strDrinkZH-HANS": null,
      "strDrinkZH-HANT": null,
      "strTags": "Alcoholic,Sweet,DateNight,USA",
      "strVideo": null,
      "strCategory": "Cocktail",
      "strIBA": null,
      "strAlcoholic": "Alcoholic",
      "strGlass": "Cocktail glass",
      "strInstructions": "Combine ingredients with ice and stir until well-chilled. Strain into a chilled cocktail glass.",
      "strInstructionsES": null,
      "strInstructionsDE": null,
      "strInstructionsFR": null,
      "strInstructionsZH-HANS": null,
      "strInstructionsZH-HANT": null,
      "strDrinkThumb": "https://www.thecocktaildb.com/images/media/drink/ojsezf1582477277.jpg",
      "strIngredient1": "Rye Whiskey",
      "strIngredient2": "Dry Vermouth",
      "strIngredient3": "Maraschino Liqueur",
      "strIngredient4": "Angostura Bitters",
      "strIngredient5": "Maraschino Cherry",
      "strIngredient6": null,
      "strIngredient7": null,
      "strIngredient8": null,
      "strIngredient9": null,
      "strIngredient10": null,
      "strIngredient11": null,
      "strIngredient12": null,
      "strIngredient13": null,
      "strIngredient14": null,
      "strIngredient15": null,
      "strMeasure1": "2 oz",
      "strMeasure2": "1 oz",
      "strMeasure3": "1/4 oz",
      "strMeasure4": "3 dashes",
      "strMeasure5": "1",
      "strMeasure6": null,
      "strMeasure7": null,
      "strMeasure8": null,
      "strMeasure9": null,
      "strMeasure10": null,
      "strMeasure11": null,
      "strMeasure12": null,
      "strMeasure13": null,
      "strMeasure14": null,
      "strMeasure15": null,
      "strCreativeCommonsConfirmed": "Yes",
      "dateModified": null
    }
  ]
}