{
  "drinks": [
    {
      "idDrink": "17839",
      "strDrink": "Affair",
      "strDrinkAlternate": null,
      "strDrinkES": "Asunto",
      "strDrinkDE": "Aff\u00e4re",
      "strDrinkFR": "Affaire",
      "strDrinkZH-HANS": "\u4e8b\u52a1",
      "strDrinkZH-HANT": "\u4e8b\u52d9",
      "strTags": null,
      "strVideo": null,
      "strCategory": "Ordinary Drink",
      "strIBA": null,
      "strAlcoholic": "Alcoholic",
      "strGlass": "Highball glass",
      "strInstructions": "Pour schnapps, orange juice, and cranberry juice over ice in a highball glass. Top with club soda and serve.",
      "strInstructionsES": null,
      "strInstructionsDE": "Gie\u00dfen Sie Schnaps, Orangensaft und Cranberrysaft \u00fcber Eis in ein Highball-Glas. Mit Club-Soda \u00fcberziehen und servieren.",
      "strInstructionsFR": null,
      "strInstructionsZH-HANS": null,
      "strInstructionsZH-HANT": null,
      "strDrinkThumb": "https://www.thecocktaildb.com/images/media/drink/h5za6y1582477994.jpg",
      "strIngredient1": "Strawberry schnapps",
      "strIngredient2": "Orange juice",
      "strIngredient3": "Cranberry juice",
      "strIngredient4": "Club soda",
      "strIngredient5": null,
      "strIngredient6": null,
      "strIngredient7": null,
      "strIngredient8": null,
      "strIngredient9": null,
      "strIngredient10": null,
      "strIngredient11": null,
      "strIngredient12": null,
      "strIngredient13": null,
      "strIngredient14": null,
      "strIngredient15": null,
      "strMeasure1": "2 oz ",
      "strMeasure2": "2 oz ",
      "strMeasure3": "2 oz ",
      "strMeasure4": null,
      "strMeasure5": null,
      "strMeasure6": null,
      "strMeasure7": null,
      "strMeasure8": null,
      "strMeasure9": null,
      "strMeasure10": null,
      "strMeasure11": null,
      "strMeasure12": null,
      "strMeasure13": null,
      "strMeasure14": null,
      "strMeasure15": null,
      "strCreativeCommonsConfirmed": "Yes",
      "dateModified": "2016-09-01 10:05:34"
    }
  ]
}