{
  "drinks": [
    {
      "idDrink": "17830",
      "strDrink": "Corn n Oil",
      "strDrinkAlternate": null,
      "strDrinkES": null,
      "strDrinkDE": null,
      "strDrinkFR": null,
      "strDrinkZH-HANS": null,
      "strDrinkZH-HANT": null,
      "strTags": null,
      "strVideo": null,
      "strCategory": "Cocktail",
      "strIBA": null,
      "strAlcoholic": "Alcoholic",
      "strGlass": "Old-fashioned glass",
      "strInstructions": "Cut the half lime in half again. Add the lime, falernum, and bitters to a rocks glass. Muddle. Add the rum. (Aged Barbados rum such as Plantation 5 Year is recommended). Add ice and stir. Float the blackstrap rum on top. Serve with a straw.",
      "strInstructionsES": null,
      "strInstructionsDE": "Die halbe Limette wieder in zwei H\u00e4lften schneiden. F\u00fcge Limette, Falernum und Bitter in ein Rocks Glas. Mischen. Den Rum hinzuf\u00fcgen. (Gereifter Barbados-Rum wie z.B. Plantation 5 Year wird empfohlen). Eis hinzuf\u00fcgen und umr\u00fchren. Blackstrap Rum dazugeben. Mit einem Strohhalm servieren.",
      "strInstructionsFR": null,
      "strInstructionsZH-HANS": null,
      "strInstructionsZH-HANT": null,
      "strDrinkThumb": "https://www.thecocktaildb.com/images/media/drink/pk6dwi1592767243.jpg",
      "strIngredient1": "Lime",
      "strIngredient2": "Falernum",
      "strIngredient3": "Angostura Bitters",
      "strIngredient4": "A\u00f1ejo rum",
      "strIngredient5": "blackstrap rum",
      "strIngredient6": null,
      "strIngredient7": null,
      "strIngredient8": null,
      "strIngredient9": null,
      "strIngredient10": null,
      "strIngredient11": null,
      "strIngredient12": null,
      "strIngredient13": null,
      "strIngredient14": null,
      "strIngredient15": null,
      "strMeasure1": "1/2",
      "strMeasure2": "1/3 oz",
      "strMeasure3": "2 dashes",
      "strMeasure4": "1 oz",
      "strMeasure5": "1 oz",
      "strMeasure6": null,
      "strMeasure7": null,
      "strMeasure8": null,
      "strMeasure9": null,
      "strMeasure10": null,
      "strMeasure11": null,
      "strMeasure12": null,
      "strMeasure13": null,
      "strMeasure14": null,
      "strMeasure15": null,
      "strCreativeCommonsConfirmed": "No",
      "dateModified": "2018-06-27 15:15:09"
    }
  ]
}