{
  "drinks": [
    {
      "idDrink": "178317",
      "strDrink": "Bee's Knees",
      "strDrinkAlternate": null,
      "strDrinkES": null,
      "strDrinkDE": null,
      "strDrinkFR": null,
      "strDrinkZH-HANS": null,
      "strDrinkZH-HANT": null,
      "strTags": null,
      "strVideo": null,
      "strCategory": "Cocktail",
      "strIBA": null,
      "strAlcoholic": "Alcoholic",
      "strGlass": "Martini Glass",
      "strInstructions": "Shake ingredients with crushed ice\r\nGarnish with orange peel\r\n",
      "strInstructionsES": null,
      "strInstructionsDE": null,
      "strInstructionsFR": null,
      "strInstructionsZH-HANS": null,
      "strInstructionsZH-HANT": null,
      "strDrinkThumb": "https://www.thecocktaildb.com/images/media/drink/tx8ne41582475326.jpg",
      "strIngredient1": "Gold rum",
      "strIngredient2": "Orange Juice",
      "strIngredient3": "Lime Juice",
      "strIngredient4": "Triple Sec",
      "strIngredient5": "",
      "strIngredient6": "",
      "strIngredient7": "",
      "strIngredient8": null,
      "strIngredient9": null,
      "strIngredient10": null,
      "strIngredient11": null,
      "strIngredient12": null,
      "strIngredient13": null,
      "strIngredient14": null,
      "strIngredient15": null,
      "strMeasure1": "6 cl",
      "strMeasure2": "2 cl",
      "strMeasure3": "2 cl",
      "strMeasure4": "2 jiggers",
      "strMeasure5": "",
      "strMeasure6": "",
      "strMeasure7": "",
      "strMeasure8": null,
      "strMeasure9": null,
      "strMeasure10": null,
      "strMeasure11": null,
      "strMeasure12": null,
      "strMeasure13": null,
      "strMeasure14": null,
      "strMeasure15": null,
      "strCreativeCommonsConfirmed": "No",
      "dateModified": null
    }
  ]
}