{
  "drinks": [
    {
      "idDrink": "178309",
      "strDrink": "Espresso Rumtini",
      "strDrinkAlternate": null,
      "strDrinkES": null,
      "strDrinkDE": null,
      "strDrinkFR": null,
      "strDrinkZH-HANS": null,
      "strDrinkZH-HANT": null,
      "strTags": "DinnerParty,StrongFlavor",
      "strVideo": null,
      "strCategory": "Cocktail",
      "strIBA": null,
      "strAlcoholic": "Alcoholic",
      "strGlass": "Cocktail glass",
      "strInstructions": "Mix together in a cocktail glass. Garnish with some choclate powder and coffee beans",
      "strInstructionsES": null,
      "strInstructionsDE": null,
      "strInstructionsFR": null,
      "strInstructionsZH-HANS": null,
      "strInstructionsZH-HANT": null,
      "strDrinkThumb": "https://www.thecocktaildb.com/images/media/drink/acvf171561574403.jpg",
      "strIngredient1": "Rum",
      "strIngredient2": "Vanilla syrup",
      "strIngredient3": "Espresso",
      "strIngredient4": "Coffee",
      "strIngredient5": null,
      "strIngredient6": null,
      "strIngredient7": null,
      "strIngredient8": null,
      "strIngredient9": null,
      "strIngredient10": null,
      "strIngredient11": null,
      "strIngredient12": null,
      "strIngredient13": null,
      "strIngredient14": null,
      "strIngredient15": null,
      "strMeasure1": "1 shot",
      "strMeasure2": "1/2 shot",
      "strMeasure3": "1 shot",
      "strMeasure4": "1 shot",
      "strMeasure5": null,
      "strMeasure6": null,
      "strMeasure7": null,
      "strMeasure8": null,
      "strMeasure9": null,
      "strMeasure10": null,
      "strMeasure11": null,
      "strMeasure12": null,
      "strMeasure13": null,
      "strMeasure14": null,
      "strMeasure15": null,
      "strCreativeCommonsConfirmed": "Yes",
      "dateModified": null
    }
  ]
}