{
  "drinks": [
    {
      "idDrink": "17834",
      "strDrink": "Abbey Cocktail",
      "strDrinkAlternate": null,
      "strDrinkES": "C\u00f3ctel de la abad\u00eda",
      "strDrinkDE": "Abtei-Cocktail",
      "strDrinkFR": "Cocktail d'Abbaye",
      "strDrinkZH-HANS": "\u4fee\u9053\u9662\u9e21\u5c3e\u9152",
      "strDrinkZH-HANT": "\u4fee\u9053\u9662\u96de\u5c3e\u9152",
      "strTags": null,
      "strVideo": null,
      "strCategory": "Ordinary Drink",
      "strIBA": null,
      "strAlcoholic": "Alcoholic",
      "strGlass": "Cocktail glass",
      "strInstructions": "Shake all ingredients (except for the cherry) with ice and strain into a cocktail glass. Top with the cherry and serve.",
      "strInstructionsES": null,
      "strInstructionsDE": "Alle Zutaten (au\u00dfer der Kirsche) mit Eis sch\u00fctteln und in ein Cocktailglas abseihen. Mit der Kirsche verzieren und servieren.",
      "strInstructionsFR": null,
      "strInstructionsZH-HANS": null,
      "strInstructionsZH-HANT": null,
      "strDrinkThumb": "https://www.thecocktaildb.com/images/media/drink/mr30ob1582479875.jpg",
      "strIngredient1": "Gin",
      "strIngredient2": "Orange bitters",
      "strIngredient3": "Orange",
      "strIngredient4": "Cherry",
      "strIngredient5": null,
      "strIngredient6": null,
      "strIngredient7": null,
      "strIngredient8": null,
      "strIngredient9": null,
      "strIngredient10": null,
      "strIngredient11": null,
      "strIngredient12": null,
      "strIngredient13": null,
      "strIngredient14": null,
      "strIngredient15": null,
      "strMeasure1": "1 1/2 oz ",
      "strMeasure2": "1 dash ",
      "strMeasure3": "Juice of 1/4 ",
      "strMeasure4": "1 ",
      "strMeasure5": null,
      "strMeasure6": null,
      "strMeasure7": null,
      "strMeasure8": null,
      "strMeasure9": null,
      "strMeasure10": null,
      "strMeasure11": null,
      "strMeasure12": null,
      "strMeasure13": null,
      "strMeasure14": null,
      "strMeasure15": null,
      "strCreativeCommonsConfirmed": "Yes",
      "dateModified": "2016-09-02 11:19:28"
    }
  ]
}